,p,Iter,Metodo,Raio,ARS,silhoeta,Matrix_Comp_time,Cluster_Comp_time,Total_Comp_time
0,1,0,Alg-Approx,87.34874077992762,-0.0009298259145637955,0.725592591005115,4.7514129580013105,0.001788286001101369,4.753201244002412
1,1,1,Alg-Approx,84.53309657213273,-0.008081094657389706,0.6056509685750765,4.7514129580013105,0.001472439000281156,4.752885397001592
2,1,2,Alg-Approx,91.08007649739392,-0.0072150024928253065,0.616019812090628,4.7514129580013105,0.002492196999810403,4.753905155001121
3,1,3,Alg-Approx,92.52525595538138,-0.0009298259145637955,0.725592591005115,4.7514129580013105,0.0014435630000662059,4.752856521001377
4,1,4,Alg-Approx,91.63400404526574,-0.0009298259145637955,0.725592591005115,4.7514129580013105,0.001406284000040614,4.752819242001351
5,1,5,Alg-Approx,91.76446682124025,-0.0009298259145637955,0.725592591005115,4.7514129580013105,0.0014426899997488363,4.752855648001059
6,1,6,Alg-Approx,92.38284428268305,-0.0009298259145637955,0.725592591005115,4.7514129580013105,0.0014670599994133227,4.752880018000724
7,1,7,Alg-Approx,90.78928718694533,-0.0072150024928253065,0.616019812090628,4.7514129580013105,0.0014215880000847392,4.752834546001395
8,1,8,Alg-Approx,97.92174909690878,-0.0009298259145637955,0.725592591005115,4.7514129580013105,0.0014663160000054631,4.752879274001316
9,1,9,Alg-Approx,94.11615831902573,-0.0009298259145637955,0.725592591005115,4.7514129580013105,0.0014384730002348078,4.752851431001545
10,1,10,Alg-Approx,88.14229264807231,-0.008939277138503303,0.5940410772570858,4.7514129580013105,0.001439572000890621,4.752852530002201
11,1,11,Alg-Approx,89.28647227958605,-0.0009298259145637955,0.725592591005115,4.7514129580013105,0.0016848969989951001,4.753097855000306
12,1,12,Alg-Approx,88.80836859385472,-0.0009298259145637955,0.725592591005115,4.7514129580013105,0.0015904459996818332,4.753003404000992
13,1,13,Alg-Approx,102.73232177232892,-0.0009298259145637955,0.725592591005115,4.7514129580013105,0.0014497210013360018,4.7528626790026465
14,1,14,Alg-Approx,92.58589038466279,-0.0009298259145637955,0.725592591005115,4.7514129580013105,0.0015131589989323402,4.752926117000243
15,1,15,Alg-Approx,90.32536601837586,-0.0009298259145637955,0.725592591005115,4.7514129580013105,0.0015800000001036096,4.752992958001414
16,1,16,Alg-Approx,89.13066126993459,-0.0009298259145637955,0.725592591005115,4.7514129580013105,0.0014596460005122935,4.752872604001823
17,1,17,Alg-Approx,89.35163729192439,-0.0009298259145637955,0.725592591005115,4.7514129580013105,0.001449142999263131,4.752862101000574
18,1,18,Alg-Approx,95.13878552077054,-0.0009298259145637955,0.725592591005115,4.7514129580013105,0.0017098959997383645,4.753122854001049
19,1,19,Alg-Approx,94.21034815126042,-0.0009298259145637955,0.725592591005115,4.7514129580013105,0.0024031660013861256,4.753816124002697
20,1,20,Alg-Approx,93.44671939849239,-0.0009298259145637955,0.725592591005115,4.7514129580013105,0.001825920000555925,4.753238878001866
21,1,21,Alg-Approx,101.22798765583693,-0.0036712854834674144,0.635187973854564,4.7514129580013105,0.0015936810013954528,4.753006639002706
22,1,22,Alg-Approx,99.9224575254316,-0.0009298259145637955,0.725592591005115,4.7514129580013105,0.001445576999685727,4.752858535000996
23,1,23,Alg-Approx,90.95009571840382,-0.0009298259145637955,0.725592591005115,4.7514129580013105,0.0014738200006831903,4.752886778001994
24,1,24,Alg-Approx,95.53878656768937,-0.0009298259145637955,0.725592591005115,4.7514129580013105,0.0014388330000656424,4.752851791001376
25,1,25,Alg-Approx,88.6583410793494,-0.0009298259145637955,0.725592591005115,4.7514129580013105,0.0018193229989265092,4.753232281000237
26,1,26,Alg-Approx,92.39501433997276,-0.0009298259145637955,0.725592591005115,4.7514129580013105,0.0015453010000783252,4.752958259001389
27,1,27,Alg-Approx,92.57298375312939,-0.0072150024928253065,0.616019812090628,4.7514129580013105,0.001532645999759552,4.75294560400107
28,1,28,Alg-Approx,92.58696466291785,-0.0009298259145637955,0.725592591005115,4.7514129580013105,0.0014502809990517562,4.752863239000362
29,1,29,Alg-Approx,86.17474073647506,-0.008081094657389706,0.6056509685750765,4.7514129580013105,0.0014439299993682653,4.752856888000679
30,2,0,Alg-Approx,25.95476632649336,-0.0009298259145637955,0.8057304732800983,5.175943045000167,0.0015717559999757214,5.177514801000143
31,2,1,Alg-Approx,26.331308331035743,-0.0009298259145637955,0.8057304732800983,5.175943045000167,0.0014623819988628384,5.17740542699903
32,2,2,Alg-Approx,30.625702646081038,-0.0009298259145637955,0.8057304732800983,5.175943045000167,0.0014321610015031183,5.1773752060016704
33,2,3,Alg-Approx,25.69130224268607,-0.0009298259145637955,0.8057304732800983,5.175943045000167,0.001668603999860352,5.177611649000028
34,2,4,Alg-Approx,27.130011468678937,-0.0009298259145637955,0.8057304732800983,5.175943045000167,0.0017214529998454964,5.177664498000013
35,2,5,Alg-Approx,26.05365423894391,-0.0009298259145637955,0.8057304732800983,5.175943045000167,0.0014891580012772465,5.177432203001445
36,2,6,Alg-Approx,25.86685926586999,-0.0009298259145637955,0.8057304732800983,5.175943045000167,0.0014461680002568755,5.177389213000424
37,2,7,Alg-Approx,24.267637941133817,-0.0009298259145637955,0.8057304732800983,5.175943045000167,0.0014341459991555894,5.177377190999323
38,2,8,Alg-Approx,26.49385800701636,-0.0009298259145637955,0.8057304732800983,5.175943045000167,0.0014383560010173824,5.177381401001185
39,2,9,Alg-Approx,26.834855360580285,-0.0009298259145637955,0.8057304732800983,5.175943045000167,0.001471487999879173,5.1774145330000465
40,2,10,Alg-Approx,25.21006599578957,-0.0009298259145637955,0.8057304732800983,5.175943045000167,0.0015362930007540854,5.177479338000921
41,2,11,Alg-Approx,25.638923535626525,-0.0009298259145637955,0.8057304732800983,5.175943045000167,0.0014371130000654375,5.177380158000233
42,2,12,Alg-Approx,27.91255272297043,-0.0009298259145637955,0.8057304732800983,5.175943045000167,0.0015960410000843694,5.177539086000252
43,2,13,Alg-Approx,26.610827344686793,-0.0009298259145637955,0.8057304732800983,5.175943045000167,0.0016004329991119448,5.177543477999279
44,2,14,Alg-Approx,26.269442456062315,-0.0009298259145637955,0.8057304732800983,5.175943045000167,0.001440221001757891,5.177383266001925
45,2,15,Alg-Approx,26.58285568754506,-0.0009298259145637955,0.8057304732800983,5.175943045000167,0.0014285069992183708,5.177371551999386
46,2,16,Alg-Approx,25.925762858291726,-0.0009298259145637955,0.8057304732800983,5.175943045000167,0.0014478770008281572,5.1773909220009955
47,2,17,Alg-Approx,25.925762858291726,-0.0009298259145637955,0.8057304732800983,5.175943045000167,0.0013660919994435972,5.177309136999611
48,2,18,Alg-Approx,26.665027102478515,-0.0009298259145637955,0.8057304732800983,5.175943045000167,0.0014694010005769087,5.177412446000744
49,2,19,Alg-Approx,25.21006599578957,-0.0009298259145637955,0.8057304732800983,5.175943045000167,0.0015392019995488226,5.177482246999716
50,2,20,Alg-Approx,26.965499610437888,-0.0009298259145637955,0.8057304732800983,5.175943045000167,0.0014922870013833744,5.177435332001551
51,2,21,Alg-Approx,27.14485181283232,-0.0009298259145637955,0.8057304732800983,5.175943045000167,0.0015709560011600843,5.177514001001327
52,2,22,Alg-Approx,26.14929531874116,-0.0009298259145637955,0.8057304732800983,5.175943045000167,0.0014698400009365287,5.177412885001104
53,2,23,Alg-Approx,26.882784625897536,-0.0009298259145637955,0.8057304732800983,5.175943045000167,0.0014224749993445585,5.177365519999512
54,2,24,Alg-Approx,26.600009113901642,-0.0009298259145637955,0.8057304732800983,5.175943045000167,0.0025158080006804084,5.178458853000848
55,2,25,Alg-Approx,27.503759465214703,-0.0009298259145637955,0.8057304732800983,5.175943045000167,0.0015091879995452473,5.177452232999713
56,2,26,Alg-Approx,26.786990438986027,-0.0009298259145637955,0.8057304732800983,5.175943045000167,0.0015404429996124236,5.17748348799978
57,2,27,Alg-Approx,28.620039708750532,-0.0009298259145637955,0.8057304732800983,5.175943045000167,0.0014523619993269676,5.177395406999494
58,2,28,Alg-Approx,26.841849096991194,-0.0009298259145637955,0.8057304732800983,5.175943045000167,0.0014559600003849482,5.177399005000552
59,2,29,Alg-Approx,27.091115815697844,-0.0009298259145637955,0.8057304732800983,5.175943045000167,0.0019741489995794836,5.177917193999747
60,3,0,Alg-Approx,20.21313631157837,-0.0009298259145637955,0.8367208597928038,6.964019548000579,0.0014749160000064876,6.965494464000585
61,3,1,Alg-Approx,20.237028343472065,-0.0009298259145637955,0.8367208597928038,6.964019548000579,0.001416545999745722,6.965436094000324
62,3,2,Alg-Approx,20.170675913456463,-0.0009298259145637955,0.8367208597928038,6.964019548000579,0.001437594999515568,6.965457143000094
63,3,3,Alg-Approx,20.157286380319842,-0.0009298259145637955,0.8367208597928038,6.964019548000579,0.0014357300005940488,6.965455278001173
64,3,4,Alg-Approx,20.323360812137835,-0.0009298259145637955,0.8367208597928038,6.964019548000579,0.0014204979997884948,6.965440046000367
65,3,5,Alg-Approx,20.12605401444612,-0.0009298259145637955,0.8367208597928038,6.964019548000579,0.0016730770003050566,6.965692625000884
66,3,6,Alg-Approx,20.17642641640869,-0.0009298259145637955,0.8367208597928038,6.964019548000579,0.0024741770012042252,6.966493725001783
67,3,7,Alg-Approx,19.86185023494131,-0.0009298259145637955,0.8367208597928038,6.964019548000579,0.001695405000646133,6.965714953001225
68,3,8,Alg-Approx,20.385391687080265,-0.0009298259145637955,0.8367208597928038,6.964019548000579,0.00145581300057529,6.965475361001154
69,3,9,Alg-Approx,20.135566405993455,-0.0009298259145637955,0.8367208597928038,6.964019548000579,0.001438257000700105,6.965457805001279
70,3,10,Alg-Approx,20.17354934976065,-0.0009298259145637955,0.8367208597928038,6.964019548000579,0.001414656999259023,6.965434204999838
71,3,11,Alg-Approx,20.33195262976221,-0.0009298259145637955,0.8367208597928038,6.964019548000579,0.001444094999897061,6.965463643000476
72,3,12,Alg-Approx,20.13788127816836,-0.0009298259145637955,0.8367208597928038,6.964019548000579,0.001427827000952675,6.965447375001531
73,3,13,Alg-Approx,20.132377409295252,-0.0009298259145637955,0.8367208597928038,6.964019548000579,0.0014607430002797628,6.965480291000858
74,3,14,Alg-Approx,20.170117984462095,-0.0009298259145637955,0.8367208597928038,6.964019548000579,0.0014352199996210402,6.9654547680002
75,3,15,Alg-Approx,20.101443803078,-0.0009298259145637955,0.8367208597928038,6.964019548000579,0.0015887210010987474,6.965608269001677
76,3,16,Alg-Approx,20.238151321392124,-0.0009298259145637955,0.8367208597928038,6.964019548000579,0.0014249770010792417,6.965444525001658
77,3,17,Alg-Approx,20.140704691811052,-0.0009298259145637955,0.8367208597928038,6.964019548000579,0.0017365910007356433,6.965756139001314
78,3,18,Alg-Approx,21.256928683305414,-0.0009298259145637955,0.8367208597928038,6.964019548000579,0.0014191819991538068,6.9654387299997325
79,3,19,Alg-Approx,20.051031706362565,-0.0009298259145637955,0.8367208597928038,6.964019548000579,0.0018848400013666833,6.965904388001945
80,3,20,Alg-Approx,20.28825961840561,-0.0009298259145637955,0.8367208597928038,6.964019548000579,0.0014354119994095527,6.965454959999988
81,3,21,Alg-Approx,20.19230950012953,-0.0009298259145637955,0.8367208597928038,6.964019548000579,0.001441443999283365,6.965460991999862
82,3,22,Alg-Approx,20.17284955765106,-0.0009298259145637955,0.8367208597928038,6.964019548000579,0.001458049999200739,6.965477597999779
83,3,23,Alg-Approx,20.185177854121868,-0.0009298259145637955,0.8367208597928038,6.964019548000579,0.0014399989995581564,6.965459547000137
84,3,24,Alg-Approx,20.510902932981253,-0.0009298259145637955,0.8367208597928038,6.964019548000579,0.0014255040005082265,6.965445052001087
85,3,25,Alg-Approx,20.539690262190053,-0.0009298259145637955,0.8367208597928038,6.964019548000579,0.0014491170004475862,6.965468665001026
86,3,26,Alg-Approx,20.158062839738328,-0.0009298259145637955,0.8367208597928038,6.964019548000579,0.0014304439991974505,6.965449991999776
87,3,27,Alg-Approx,20.177254640837006,-0.0009298259145637955,0.8367208597928038,6.964019548000579,0.0014463380011875415,6.965465886001766
88,3,28,Alg-Approx,20.185666789873977,-0.0009298259145637955,0.8367208597928038,6.964019548000579,0.001454825998735032,6.965474373999314
89,3,29,Alg-Approx,20.14294674240394,-0.0009298259145637955,0.8367208597928038,6.964019548000579,0.0014800170010857983,6.9654995650016645
90,2,0,KMeans,37.70040157157384,0.14333836478313886,0.135972780920865,0.0,0.011073196999859647,0.011073196999859647
91,2,1,KMeans,37.578249960928574,0.04222048529351156,0.18624185205482297,0.0,0.008878855000148178,0.008878855000148178
92,2,2,KMeans,37.56764321418132,0.04030588834883056,0.1868674251506268,0.0,0.009561833001498599,0.009561833001498599
93,2,3,KMeans,37.56764321418132,0.04030588834883056,0.1868674251506268,0.0,0.007106596000085119,0.007106596000085119
94,2,4,KMeans,37.56764321418132,0.04030588834883056,0.1868674251506268,0.0,0.009164573000816745,0.009164573000816745
95,2,5,KMeans,37.71524757966476,0.1448914659001911,0.1346605838645776,0.0,0.07490916400092829,0.07490916400092829
96,2,6,KMeans,37.56764321418132,0.04030588834883056,0.1868674251506268,0.0,0.007279959998413688,0.007279959998413688
97,2,7,KMeans,37.56764321418132,0.04030588834883056,0.1868674251506268,0.0,0.06020456900114368,0.06020456900114368
98,2,8,KMeans,37.72849435698819,0.05038418096809175,0.1630512249647098,0.0,0.0732285710000724,0.0732285710000724
99,2,9,KMeans,37.71524757966476,0.1448914659001911,0.1346605838645776,0.0,0.0083463409991964,0.0083463409991964
100,2,10,KMeans,37.578249960928574,0.04222048529351156,0.18624185205482297,0.0,0.07829940900046495,0.07829940900046495
101,2,11,KMeans,37.710175732905434,0.14055361382682338,0.13462408473952425,0.0,0.00850686199919437,0.00850686199919437
102,2,12,KMeans,37.56764321418132,0.04030588834883056,0.1868674251506268,0.0,0.013237338000180898,0.013237338000180898
103,2,13,KMeans,37.72849435698819,0.05038418096809175,0.1630512249647098,0.0,0.0843867589992442,0.0843867589992442
104,2,14,KMeans,37.71524757966476,0.1448914659001911,0.1346605838645776,0.0,0.06876496599943493,0.06876496599943493
105,2,15,KMeans,37.70040157157384,0.14333836478313886,0.135972780920865,0.0,0.009137294999163714,0.009137294999163714
106,2,16,KMeans,37.7337996140315,0.13925602374814897,0.13285070871883406,0.0,0.1218371519989887,0.1218371519989887
107,2,17,KMeans,37.7304335822634,0.1407254352170658,0.13240386414385094,0.0,0.005327517999830889,0.005327517999830889
108,2,18,KMeans,37.72849435698819,0.05038418096809175,0.1630512249647098,0.0,0.012396215999615379,0.012396215999615379
109,2,19,KMeans,37.72849435698819,0.05038418096809175,0.1630512249647098,0.0,0.021938047000730876,0.021938047000730876
110,2,20,KMeans,37.71844700121861,0.14342498385272287,0.13486729054984062,0.0,0.009106021001571207,0.009106021001571207
111,2,21,KMeans,37.56764321418132,0.04030588834883056,0.1868674251506268,0.0,0.009979519998523756,0.009979519998523756
112,2,22,KMeans,37.56764321418132,0.04030588834883056,0.1868674251506268,0.0,0.04656656100087275,0.04656656100087275
113,2,23,KMeans,37.70040157157384,0.14333836478313886,0.135972780920865,0.0,0.01285507700049493,0.01285507700049493
114,2,24,KMeans,37.56764321418132,0.04030588834883056,0.1868674251506268,0.0,0.05185968800105911,0.05185968800105911
115,2,25,KMeans,38.384448735482756,-0.013111978522297799,0.5672960568059194,0.0,0.08187772200108157,0.08187772200108157
116,2,26,KMeans,37.56764321418132,0.04030588834883056,0.1868674251506268,0.0,0.12181315400084713,0.12181315400084713
117,2,27,KMeans,37.56764321418132,0.04030588834883056,0.1868674251506268,0.0,0.09845395499905862,0.09845395499905862
118,2,28,KMeans,37.710175732905434,0.14055361382682338,0.13462408473952425,0.0,0.011657428000034997,0.011657428000034997
119,2,29,KMeans,37.67079302159597,0.11784878669959688,0.1445892307623233,0.0,0.008566598999095731,0.008566598999095731
