,p,Iter,Metodo,Raio,ARS,silhoeta,Matrix_Comp_time,Cluster_Comp_time,Total_Comp_time
0,1,0,Alg-Approx,10.715581230725336,0.27761641305689394,0.19863345229131088,28.767419291999886,0.023359264999726292,28.790778556999612
1,1,1,Alg-Approx,9.69676521075166,0.198327900264563,0.27187547187317507,28.767419291999886,0.02271294999991369,28.7901322419998
2,1,2,Alg-Approx,12.709260041053062,0.33699955012100635,0.24385154616906332,28.767419291999886,0.021968011999888404,28.789387303999774
3,1,3,Alg-Approx,10.793958217362249,0.16842051312850073,0.14982606002654572,28.767419291999886,0.019198375000087253,28.786617666999973
4,1,4,Alg-Approx,10.191860019620279,0.4162345856781942,0.24846607252960107,28.767419291999886,0.020894983999824035,28.78831427599971
5,1,5,Alg-Approx,11.656056221189338,0.31066207728308953,0.23995226703274888,28.767419291999886,0.0218191899998601,28.789238481999746
6,1,6,Alg-Approx,10.33178143593974,0.304389789585944,0.22891415183712696,28.767419291999886,0.022172190999754093,28.78959148299964
7,1,7,Alg-Approx,10.310580061547206,0.4642986566418586,0.2628139727251312,28.767419291999886,0.01568321200011269,28.783102504
8,1,8,Alg-Approx,10.523617770585425,0.7681164603206664,0.28450899980716915,28.767419291999886,0.01073797100025331,28.77815726300014
9,1,9,Alg-Approx,10.758871863800003,0.46393976095271394,0.2606059247149247,28.767419291999886,0.011043856000014785,28.7784631479999
10,1,10,Alg-Approx,10.91031122025982,0.25160162517570894,0.1839328772758151,28.767419291999886,0.010091024999837828,28.777510316999724
11,1,11,Alg-Approx,10.652903871550507,0.17509712477881786,0.14732528022713917,28.767419291999886,0.009828324999944016,28.77724761699983
12,1,12,Alg-Approx,10.28333875144819,0.2902952907452474,0.23233362553144246,28.767419291999886,0.010175430999879609,28.777594722999766
13,1,13,Alg-Approx,10.188903505500216,0.37526707576565116,0.25680602664558594,28.767419291999886,0.010685601999739447,28.778104893999625
14,1,14,Alg-Approx,10.462869863065588,0.26969065057492947,0.20868615433256488,28.767419291999886,0.009986432999994577,28.77740572499988
15,1,15,Alg-Approx,9.98542053654852,0.2036680431591441,0.2640969308886883,28.767419291999886,0.011032490000161488,28.778451782000047
16,1,16,Alg-Approx,10.495228593925326,0.3776522604257231,0.2230634001104999,28.767419291999886,0.01052982700002758,28.777949118999913
17,1,17,Alg-Approx,10.191860019620279,0.3297273850383732,0.21633100715432396,28.767419291999886,0.010759133000192378,28.77817842500008
18,1,18,Alg-Approx,11.528889968122485,0.16368682775188861,0.18760239849216515,28.767419291999886,0.010477702000116551,28.777896994000002
19,1,19,Alg-Approx,10.33178143593974,0.30682013225221155,0.23716358839528057,28.767419291999886,0.020499545999882685,28.78791883799977
20,1,20,Alg-Approx,10.552795409660083,0.3170587387585665,0.2098438093581907,28.767419291999886,0.010948502000246663,28.778367794000133
21,1,21,Alg-Approx,11.134839336020457,0.15776972269687334,0.1945866005714213,28.767419291999886,0.011124645000109012,28.778543936999995
22,1,22,Alg-Approx,10.546797494098561,0.3147225090934384,0.2102121931174475,28.767419291999886,0.020163628999853245,28.78758292099974
23,1,23,Alg-Approx,10.552795409660083,0.2556148726649658,0.1815140192174318,28.767419291999886,0.0109397189999072,28.778359010999793
24,1,24,Alg-Approx,10.310580061547206,0.48764409563706,0.2626176709110268,28.767419291999886,0.01050262999979168,28.777921921999678
25,1,25,Alg-Approx,10.498498073231168,0.21761149205476465,0.20381343631829862,28.767419291999886,0.010312484000223776,28.77773177600011
26,1,26,Alg-Approx,10.33178143593974,0.33087306885651896,0.2347263748544096,28.767419291999886,0.010499657999844203,28.77791894999973
27,1,27,Alg-Approx,10.675918845121979,0.3901967301254374,0.2584081529216229,28.767419291999886,0.011020184999779303,28.778439476999665
28,1,28,Alg-Approx,10.310580061547206,0.4227998599538484,0.2412369218278901,28.767419291999886,0.01206522499978746,28.779484516999673
29,1,29,Alg-Approx,10.51450728154874,0.33561941984126953,0.24839895538778667,28.767419291999886,0.011326259999805188,28.77874555199969
30,2,0,Alg-Approx,4.68115722669504,0.24560581887601857,0.23733488661925745,17.390725744000065,0.010223390000192012,17.400949134000257
31,2,1,Alg-Approx,4.831017268481029,0.11872353446157577,0.23405631120144585,17.390725744000065,0.01092193300019062,17.401647677000255
32,2,2,Alg-Approx,5.36816098175823,0.42681182405318435,0.23065991254701831,17.390725744000065,0.011095441000179562,17.401821185000244
33,2,3,Alg-Approx,5.045484494652624,0.4574473593731277,0.25394688230172685,17.390725744000065,0.011287472999811143,17.402013216999876
34,2,4,Alg-Approx,5.033804246163116,0.36881875262133723,0.26098140167683626,17.390725744000065,0.010419331000321108,17.401145075000386
35,2,5,Alg-Approx,4.841565397293889,0.193187149410506,0.2703654274793509,17.390725744000065,0.009971651000341808,17.400697395000407
36,2,6,Alg-Approx,4.882539539587678,0.16956527450389614,0.1253880999152631,17.390725744000065,0.01038547500002096,17.401111219000086
37,2,7,Alg-Approx,4.987273027687392,0.2572460920366662,0.18882501091332166,17.390725744000065,0.011698562999754358,17.40242430699982
38,2,8,Alg-Approx,4.683846129040411,0.2071696626876804,0.2677743743948496,17.390725744000065,0.009970514999622537,17.400696258999687
39,2,9,Alg-Approx,4.696670936616316,0.22745966294572018,0.1619572302863412,17.390725744000065,0.00996584399990752,17.400691587999972
40,2,10,Alg-Approx,5.523496238426549,0.5166408448507184,0.24602778052318616,17.390725744000065,0.020192763000068226,17.410918507000133
41,2,11,Alg-Approx,5.221051569505196,0.5037781598521177,0.19765995382268164,17.390725744000065,0.012276347999886639,17.40300209199995
42,2,12,Alg-Approx,4.971300399740432,0.17619436041548434,0.1601100835116755,17.390725744000065,0.010007605999817315,17.400733349999882
43,2,13,Alg-Approx,4.936421869735028,0.15502840784224775,0.21116550956450827,17.390725744000065,0.012219762999848172,17.402945506999913
44,2,14,Alg-Approx,4.832125979163832,0.11808323108470539,0.19939532714089325,17.390725744000065,0.011181841000052373,17.401907585000117
45,2,15,Alg-Approx,5.109385157047195,0.21529815868864255,0.1786403734194234,17.390725744000065,0.010155365000173333,17.400881109000238
46,2,16,Alg-Approx,4.558564467195685,0.20907065045416187,0.22959524408580326,17.390725744000065,0.010095587999785494,17.40082133199985
47,2,17,Alg-Approx,4.936421869735028,0.07195358852895585,0.1607650830775263,17.390725744000065,0.010393866000413254,17.401119610000478
48,2,18,Alg-Approx,5.160046225558979,0.048020383619360195,0.15274060902846878,17.390725744000065,0.01038607000009506,17.40111181400016
49,2,19,Alg-Approx,4.66945141255462,0.25979749177210565,0.24309072527011624,17.390725744000065,0.01143606000005093,17.402161804000116
50,2,20,Alg-Approx,4.967958918810523,0.17350293112053916,0.21051815239693855,17.390725744000065,0.011712015999819414,17.402437759999884
51,2,21,Alg-Approx,4.878080246155497,0.09211439571122416,0.09693752165209829,17.390725744000065,0.010960390000036568,17.4016861340001
52,2,22,Alg-Approx,5.116665627986943,0.6069971023891818,0.2636109499770345,17.390725744000065,0.01180653000028542,17.40253227400035
53,2,23,Alg-Approx,4.884231887067725,0.19632793290590242,0.14969965222790052,17.390725744000065,0.011126015000172629,17.401851759000238
54,2,24,Alg-Approx,5.063963786184903,0.1532466844020766,0.13595150411337106,17.390725744000065,0.010234898999897268,17.400960642999962
55,2,25,Alg-Approx,5.063963786184903,0.22114656262340374,0.1786802763724807,17.390725744000065,0.010245836999729363,17.400971580999794
56,2,26,Alg-Approx,4.66945141255462,0.14620299049537303,0.21033193394047583,17.390725744000065,0.01090369199982888,17.401629435999894
57,2,27,Alg-Approx,4.926672978187527,0.09129923559373916,0.10327029158783335,17.390725744000065,0.011143263999656483,17.40186900799972
58,2,28,Alg-Approx,4.987273027687392,0.252936558946475,0.16819560092346006,17.390725744000065,0.02031997699987187,17.411045720999937
59,2,29,Alg-Approx,4.93737352595598,0.2028497925479773,0.17073278070753423,17.390725744000065,0.011528562999956193,17.40225430700002
60,3,0,Alg-Approx,4.4038467546705595,0.45608654061439735,0.23742863974687284,20.673239519000163,0.01091103299995666,20.68415055200012
61,3,1,Alg-Approx,4.1062639133360195,0.3445923503576649,0.24150113959425748,20.673239519000163,0.012163906000296265,20.68540342500046
62,3,2,Alg-Approx,4.448256921481119,0.25628190629688763,0.14745982178195607,20.673239519000163,0.010446211000271433,20.683685730000434
63,3,3,Alg-Approx,4.244858086541772,0.40317622460917446,0.25180285723828466,20.673239519000163,0.011940725999920687,20.685180245000083
64,3,4,Alg-Approx,3.9780208841714764,0.08285251190751358,0.19813181233076177,20.673239519000163,0.009790051999971183,20.683029571000134
65,3,5,Alg-Approx,4.24590802332696,0.2061850807377544,0.17901344916074077,20.673239519000163,0.010291672999755974,20.68353119199992
66,3,6,Alg-Approx,4.111289561923136,0.2582776704079423,0.18796934822335679,20.673239519000163,0.01011441000036939,20.683353929000532
67,3,7,Alg-Approx,4.630330697374343,0.44324151740259504,0.23840231484395644,20.673239519000163,0.010663905999990675,20.683903425000153
68,3,8,Alg-Approx,3.9142878581463605,0.1469872710873985,0.2128244292220656,20.673239519000163,0.01055248099964956,20.683791999999812
69,3,9,Alg-Approx,4.403325702642226,0.3267916212366105,0.2372565659765013,20.673239519000163,0.010182927999721869,20.683422446999884
70,3,10,Alg-Approx,4.396420692033408,0.27972685607705094,0.15607681754241493,20.673239519000163,0.011038506999739184,20.6842780259999
71,3,11,Alg-Approx,4.1593382422249725,0.2705804843943746,0.155290814923419,20.673239519000163,0.010765910000372969,20.684005429000536
72,3,12,Alg-Approx,4.188251294701788,0.4872012188143316,0.2646600216085752,20.673239519000163,0.010772712999823852,20.684012231999986
73,3,13,Alg-Approx,4.244858086541772,0.10588730769799841,0.1983637425198039,20.673239519000163,0.009900187000312144,20.683139706000475
74,3,14,Alg-Approx,4.104926161287504,0.1063786182302486,0.12472458586604765,20.673239519000163,0.009752579999712907,20.682992098999875
75,3,15,Alg-Approx,4.221050415598178,0.2639474106424174,0.1670031487128733,20.673239519000163,0.009944236000137607,20.6831837550003
76,3,16,Alg-Approx,4.350527052980444,0.3345092783376849,0.26063612289294646,20.673239519000163,0.01076634000037302,20.684005859000536
77,3,17,Alg-Approx,4.115607989384388,0.30189496762787454,0.19398262788059556,20.673239519000163,0.00986577000003308,20.683105289000196
78,3,18,Alg-Approx,4.231462123022357,0.39674173335310736,0.23184859298706445,20.673239519000163,0.010106578999966587,20.68334609800013
79,3,19,Alg-Approx,3.814290579722051,0.0339395684357913,0.143202265383165,20.673239519000163,0.010065658000257827,20.68330517700042
80,3,20,Alg-Approx,3.889253385223793,0.13949341742371144,0.21315916712847588,20.673239519000163,0.011560636000012892,20.684800155000175
81,3,21,Alg-Approx,4.396420692033408,0.2573695747021463,0.14872807699113783,20.673239519000163,0.010637715000029857,20.683877234000192
82,3,22,Alg-Approx,4.012505269893439,0.06312923128446753,0.14695194825069355,20.673239519000163,0.009962432000065746,20.68320195100023
83,3,23,Alg-Approx,4.244858086541772,0.02042495284897535,0.1609087963209476,20.673239519000163,0.009994336999625375,20.683233855999788
84,3,24,Alg-Approx,4.394876583341037,0.16444648866710143,0.19063967072972662,20.673239519000163,0.010619691999636416,20.6838592109998
85,3,25,Alg-Approx,4.343343657579205,0.01218522679675637,0.14178100835340482,20.673239519000163,0.010401829999864276,20.683641349000027
86,3,26,Alg-Approx,4.231462123022357,0.46894846118928946,0.19222695303316203,20.673239519000163,0.010704125999836833,20.683943645
87,3,27,Alg-Approx,4.231462123022357,0.46894846118928946,0.19222695303316203,20.673239519000163,0.01038958300023296,20.683629102000396
88,3,28,Alg-Approx,3.9780208841714764,0.1495509911053412,0.21057685150390226,20.673239519000163,0.010005427000123746,20.683244946000286
89,3,29,Alg-Approx,4.231462123022357,0.5129997890325152,0.26202234804887875,20.673239519000163,0.01042310099956012,20.683662619999723
90,2,0,KMeans,6.031979504938975,0.8182368859168976,0.2957882438467688,0.0,0.05321477600000435,0.05321477600000435
91,2,1,KMeans,6.031548332957763,0.8184005785217632,0.2958516797722794,0.0,0.006902748999891628,0.006902748999891628
92,2,2,KMeans,6.031979504938975,0.8182368859168976,0.2957882438467688,0.0,0.005435895000118762,0.005435895000118762
93,2,3,KMeans,6.032135517939157,0.817179584111211,0.2958985209321081,0.0,0.00749482099990928,0.00749482099990928
94,2,4,KMeans,6.032135517939157,0.817179584111211,0.2958985209321081,0.0,0.05744747099970482,0.05744747099970482
95,2,5,KMeans,6.036085429329175,0.8194277441833623,0.2961258038658782,0.0,0.011959428000409389,0.011959428000409389
96,2,6,KMeans,6.036085429329175,0.8182693475352489,0.2960304670595999,0.0,0.007240549000016472,0.007240549000016472
97,2,7,KMeans,6.036085429329175,0.8182693475352489,0.2960304670595999,0.0,0.07943790099989201,0.07943790099989201
98,2,8,KMeans,6.033113654241737,0.817113997068338,0.2959740452629477,0.0,0.0058071189996553585,0.0058071189996553585
99,2,9,KMeans,6.036085429329175,0.8182693475352489,0.2960304670595999,0.0,0.006318026999906579,0.006318026999906579
100,2,10,KMeans,6.031979504938975,0.8182368859168976,0.2957882438467688,0.0,0.007052216999909433,0.007052216999909433
101,2,11,KMeans,6.032135517939157,0.817179584111211,0.2958985209321081,0.0,0.0058023829997182474,0.0058023829997182474
102,2,12,KMeans,6.033113654241737,0.8194277441833623,0.2961258038658782,0.0,0.008189292000224668,0.008189292000224668
103,2,13,KMeans,6.033113654241737,0.817113997068338,0.2959740452629477,0.0,0.005867614000180765,0.005867614000180765
104,2,14,KMeans,6.031979504938975,0.8182368859168976,0.2957882438467688,0.0,0.006177547999868693,0.006177547999868693
105,2,15,KMeans,6.031548332957763,0.8184005785217632,0.2958516797722794,0.0,0.00729107600000134,0.00729107600000134
106,2,16,KMeans,6.031979504938975,0.8182368859168976,0.2957882438467688,0.0,0.005894496000109939,0.005894496000109939
107,2,17,KMeans,6.036085429329175,0.8194277441833623,0.2961258038658782,0.0,0.005602009000085673,0.005602009000085673
108,2,18,KMeans,6.036085429329175,0.8182693475352489,0.2960304670595999,0.0,0.005942366999988735,0.005942366999988735
109,2,19,KMeans,6.036085429329175,0.8182693475352489,0.2960304670595999,0.0,0.005773409000084939,0.005773409000084939
110,2,20,KMeans,6.036085429329175,0.817113997068338,0.2959740452629477,0.0,0.006718659999933152,0.006718659999933152
111,2,21,KMeans,4.817867668238091,0.5487180380908112,0.2816805783297309,0.0,0.009922146999997494,0.009922146999997494
112,2,22,KMeans,6.036085429329175,0.817113997068338,0.2959740452629477,0.0,0.11876607999965927,0.11876607999965927
113,2,23,KMeans,6.031548332957763,0.8184005785217632,0.2958516797722794,0.0,0.006203505999565095,0.006203505999565095
114,2,24,KMeans,6.032135517939157,0.817179584111211,0.2958985209321081,0.0,0.006812749999880907,0.006812749999880907
115,2,25,KMeans,6.031979504938975,0.8182368859168976,0.2957882438467688,0.0,0.0060779440000260365,0.0060779440000260365
116,2,26,KMeans,6.036085429329175,0.817113997068338,0.2959740452629477,0.0,0.005797830000119575,0.005797830000119575
117,2,27,KMeans,6.031979504938975,0.8182368859168976,0.2957882438467688,0.0,0.006219877000148699,0.006219877000148699
118,2,28,KMeans,6.032135517939157,0.817179584111211,0.2958985209321081,0.0,0.007171082000240858,0.007171082000240858
119,2,29,KMeans,6.036085429329175,0.8182693475352489,0.2960304670595999,0.0,0.007149389999995037,0.007149389999995037
