,p,Iter,Metodo,Raio,ARS,silhoeta,Matrix_Comp_time,Cluster_Comp_time,Total_Comp_time
0,1,0,Alg-Approx,34.96866549435475,0.27093906028825465,0.10717709306692041,10.90289134700106,3.714186922999943,14.617078270001002
1,1,1,Alg-Approx,35.071763043739196,0.26347856485662535,0.12140754882737634,10.90289134700106,3.733337161000236,14.636228508001295
2,1,2,Alg-Approx,35.538960172756084,0.23380207240678427,0.10596820430581635,10.90289134700106,3.8297120120005275,14.732603359001587
3,1,3,Alg-Approx,34.45023653435947,0.2703450430621702,0.12008490615506612,10.90289134700106,3.7821774140011257,14.685068761002185
4,1,4,Alg-Approx,34.84801008631697,0.2902661724872741,0.1250017331949514,10.90289134700106,3.6535227399999712,14.55641408700103
5,1,5,Alg-Approx,35.180571636227356,0.2801968907944568,0.11630879546149382,10.90289134700106,3.784974828999111,14.68786617600017
6,1,6,Alg-Approx,34.543679033314994,0.2599889845530257,0.12055154937159812,10.90289134700106,3.736433345000478,14.639324692001537
7,1,7,Alg-Approx,34.83802000760605,0.26450498194312944,0.11576459302805164,10.90289134700106,3.7211814670008607,14.62407281400192
8,1,8,Alg-Approx,34.75057097555661,0.28139379216626087,0.12433053128920853,10.90289134700106,3.6725700230017537,14.575461370002813
9,1,9,Alg-Approx,35.066902670514374,0.26900356543852466,0.11245718959244512,10.90289134700106,3.522978877001151,14.42587022400221
10,1,10,Alg-Approx,34.584713494708026,0.2611236843721083,0.11163493315304206,10.90289134700106,3.517769371999748,14.420660719000807
11,1,11,Alg-Approx,35.49616233865626,0.27223616513673465,0.1199474799127364,10.90289134700106,3.6119242179993307,14.51481556500039
12,1,12,Alg-Approx,34.90896534050577,0.29068945068926444,0.12429305471221633,10.90289134700106,3.6140456150005775,14.516936962001637
13,1,13,Alg-Approx,35.60765060330921,0.2697658529415854,0.10697721810860637,10.90289134700106,3.5391265119997115,14.44201785900077
14,1,14,Alg-Approx,35.1817094861066,0.28023777720926424,0.11338154743140964,10.90289134700106,4.778302671000347,15.681194018001406
15,1,15,Alg-Approx,35.5184534403905,0.2783778759534238,0.10905459514530977,10.90289134700106,3.5804531809990294,14.483344528000089
16,1,16,Alg-Approx,34.84801008631697,0.25882742901091205,0.10519420764077869,10.90289134700106,3.621490986999561,14.52438233400062
17,1,17,Alg-Approx,35.180571636227356,0.3013967326558211,0.12756158878482765,10.90289134700106,3.6060254399999394,14.508916787000999
18,1,18,Alg-Approx,34.928607334566344,0.25270827171579663,0.1185370119926816,10.90289134700106,3.606604963000791,14.50949631000185
19,1,19,Alg-Approx,34.76966446386997,0.24510627524540549,0.12517611374773047,10.90289134700106,3.583495053000661,14.48638640000172
20,1,20,Alg-Approx,34.40889674235701,0.2759950204215644,0.1270918865117223,10.90289134700106,3.5069318280002335,14.409823175001293
21,1,21,Alg-Approx,34.96866549435475,0.28270621377840083,0.12563543601615293,10.90289134700106,3.5034822009984055,14.406373547999465
22,1,22,Alg-Approx,35.17528576588873,0.25720925820782886,0.10742064948489753,10.90289134700106,3.5842242620001343,14.487115609001194
23,1,23,Alg-Approx,35.160474672815305,0.2795082620977441,0.11188128831723679,10.90289134700106,3.481143326000165,14.384034673001224
24,1,24,Alg-Approx,35.37758753114231,0.2307770656396923,0.1138244866791092,10.90289134700106,3.4630740680004237,14.365965415001483
25,1,25,Alg-Approx,35.01556798398717,0.25693927526010185,0.1122413533494427,10.90289134700106,3.509287425000366,14.412178772001425
26,1,26,Alg-Approx,34.88498121977018,0.2978794564982213,0.1247932923377995,10.90289134700106,3.6448303399993165,14.547721687000376
27,1,27,Alg-Approx,34.39469989808316,0.2599115361874301,0.11180189820059049,10.90289134700106,3.571459513001173,14.474350860002232
28,1,28,Alg-Approx,34.62944234788797,0.29063524511518085,0.119239440183538,10.90289134700106,3.5713722159998724,14.474263563000932
29,1,29,Alg-Approx,35.18477158629841,0.2923083847314661,0.11429211578991354,10.90289134700106,3.5931308689996513,14.49602221600071
30,2,0,Alg-Approx,8.150140684575334,0.20363904279327819,0.11662184783988756,13.400845136999123,3.800100623999242,17.200945760998366
31,2,1,Alg-Approx,8.187232581227033,0.1887357331611802,0.1008039996272356,13.400845136999123,3.6555907120000484,17.056435848999172
32,2,2,Alg-Approx,8.281337126291701,0.17004925831342188,0.1073575133683039,13.400845136999123,3.6564316300009523,17.057276767000076
33,2,3,Alg-Approx,8.157112676599331,0.17320387471676935,0.10751604282243174,13.400845136999123,3.5170492039997043,16.917894340998828
34,2,4,Alg-Approx,8.157112676599331,0.15124208123307656,0.10095318842008234,13.400845136999123,3.4715832600013528,16.872428397000476
35,2,5,Alg-Approx,8.147969113061578,0.19521748700416242,0.10440232407243769,13.400845136999123,3.4342941520008026,16.835139288999926
36,2,6,Alg-Approx,8.180333043904648,0.1944518382403955,0.11555875245594362,13.400845136999123,3.5893748899998172,16.99022002699894
37,2,7,Alg-Approx,8.113453286224608,0.18883225408430585,0.09990105490123388,13.400845136999123,3.4339122349992977,16.83475737199842
38,2,8,Alg-Approx,8.349524603585676,0.15262321144674085,0.08992567068024206,13.400845136999123,3.4832850539987703,16.884130190997894
39,2,9,Alg-Approx,8.23645119976685,0.16719301854260357,0.10854247975335601,13.400845136999123,3.688645563001046,17.08949070000017
40,2,10,Alg-Approx,8.167037517741475,0.10921385572941689,0.08341145474635277,13.400845136999123,3.5449207309993653,16.94576586799849
41,2,11,Alg-Approx,8.145341387555652,0.2191098421989665,0.11457197934044829,13.400845136999123,3.395646308999858,16.79649144599898
42,2,12,Alg-Approx,8.152057077410994,0.17280242240726723,0.09844382615192852,13.400845136999123,3.4111265820010885,16.811971719000212
43,2,13,Alg-Approx,8.212405287756328,0.22507553022451426,0.11174619977044589,13.400845136999123,3.3093999850007094,16.710245121999833
44,2,14,Alg-Approx,8.270797435127175,0.18894363940182501,0.10528024991139372,13.400845136999123,3.363393857000119,16.764238993999243
45,2,15,Alg-Approx,8.132188251732137,0.08224992944004936,0.07993816838992052,13.400845136999123,3.3502618570000777,16.7511069939992
46,2,16,Alg-Approx,8.22639115913451,0.2079025254328412,0.1102251042160611,13.400845136999123,3.552298818998679,16.953143955997803
47,2,17,Alg-Approx,8.23686643686643,0.1991408482864046,0.10898613229814909,13.400845136999123,4.653252492998945,18.05409762999807
48,2,18,Alg-Approx,8.346418841178952,0.14685908841913545,0.09719681694457886,13.400845136999123,3.5711644780003553,16.97200961499948
49,2,19,Alg-Approx,8.349222641974727,0.17490908313536857,0.09638769437168568,13.400845136999123,3.4977701059997344,16.898615242998858
50,2,20,Alg-Approx,8.264037819475961,0.16762422115697556,0.10173682336456667,13.400845136999123,3.5041850570014503,16.905030194000574
51,2,21,Alg-Approx,8.249229950528065,0.16025862331036142,0.09497621925446566,13.400845136999123,3.3918975359993055,16.79274267299843
52,2,22,Alg-Approx,8.305288827865548,0.17447324763621894,0.1033067378282924,13.400845136999123,3.535732062999159,16.936577199998283
53,2,23,Alg-Approx,8.157112676599331,0.1981002921577039,0.10621105202082605,13.400845136999123,3.5152944559995376,16.91613959299866
54,2,24,Alg-Approx,8.157112676599331,0.20549395104164722,0.10120308347673342,13.400845136999123,3.4806019859988737,16.881447122997997
55,2,25,Alg-Approx,8.187232581227033,0.18187533737243466,0.11406514714376124,13.400845136999123,3.4819172080005956,16.88276234499972
56,2,26,Alg-Approx,8.203265812224661,0.1933405854191303,0.09930463427475207,13.400845136999123,3.5017555419999553,16.90260067899908
57,2,27,Alg-Approx,8.25372161820368,0.11852507338318215,0.09152596793954233,13.400845136999123,3.4657119029998285,16.866557039998952
58,2,28,Alg-Approx,8.174515803520295,0.2045580222644089,0.10825433611971273,13.400845136999123,3.4864046969996707,16.887249833998794
59,2,29,Alg-Approx,8.332136606772275,0.1841382460918049,0.10865041194404093,13.400845136999123,3.5277722680002626,16.928617404999386
60,3,0,Alg-Approx,5.815903843441635,0.163327823473717,0.10925984379203656,19.210519681000733,4.829991249998784,24.040510930999517
61,3,1,Alg-Approx,5.762315858360402,0.0928482597941713,0.09271752031431622,19.210519681000733,3.3901666389992897,22.600686320000023
62,3,2,Alg-Approx,5.807222187981144,0.10668478443725712,0.09692568736371716,19.210519681000733,3.5074532220005494,22.717972903001282
63,3,3,Alg-Approx,5.807222187981144,0.1570255664555348,0.10477605725418666,19.210519681000733,3.569614926000213,22.780134607000946
64,3,4,Alg-Approx,5.711969155481749,0.14211635812028597,0.10648185416671482,19.210519681000733,3.551641738999024,22.762161419999757
65,3,5,Alg-Approx,5.755353082429189,0.15853418223559917,0.09770536410088618,19.210519681000733,3.4007531689985626,22.611272849999295
66,3,6,Alg-Approx,5.791861225339841,0.14071327650457222,0.10233133952854373,19.210519681000733,3.5663711879988114,22.776890868999544
67,3,7,Alg-Approx,5.774020958150679,0.0822272125402133,0.09700674633070869,19.210519681000733,3.4220682099985424,22.632587890999275
68,3,8,Alg-Approx,5.753358753564368,0.12161527774637487,0.09147267558356488,19.210519681000733,3.417605769000147,22.62812545000088
69,3,9,Alg-Approx,5.8043515223995605,0.17372954988751327,0.10303065669842415,19.210519681000733,3.400450278999415,22.610969960000148
70,3,10,Alg-Approx,5.743570748916371,0.14210454856945176,0.10975877434954773,19.210519681000733,3.4589807729989843,22.669500453999717
71,3,11,Alg-Approx,5.8043515223995605,0.16799904306377197,0.10887046050851848,19.210519681000733,3.3341334929991717,22.544653173999905
72,3,12,Alg-Approx,5.743570748916371,0.1575703569924143,0.10088904675425957,19.210519681000733,3.3762576339995576,22.58677731500029
73,3,13,Alg-Approx,5.750207258242816,0.10460863163348719,0.0991132217766337,19.210519681000733,3.2764578410005925,22.486977522001325
74,3,14,Alg-Approx,5.7710419618020445,0.1738641327639162,0.10130092351972864,19.210519681000733,3.5012136889999965,22.71173337000073
75,3,15,Alg-Approx,5.7710419618020445,0.1738641327639162,0.10130092351972864,19.210519681000733,3.5447293289998925,22.755249010000625
76,3,16,Alg-Approx,5.737844970530288,0.1357008640630235,0.10553239717194149,19.210519681000733,3.5759836610013735,22.786503342002106
77,3,17,Alg-Approx,5.742880690461332,0.06075081539454517,0.08426629069771661,19.210519681000733,3.4201018620005925,22.630621543001325
78,3,18,Alg-Approx,5.755353082429189,0.15853418223559917,0.09770536410088618,19.210519681000733,3.354928030999872,22.565447712000605
79,3,19,Alg-Approx,5.755353082429189,0.11789365239731162,0.0985480930495424,19.210519681000733,4.459275073000754,23.669794754001487
80,3,20,Alg-Approx,5.778697738510445,0.060295435141299786,0.08526112839773271,19.210519681000733,3.306344843000261,22.516864524000994
81,3,21,Alg-Approx,5.755353082429189,0.15886899061085544,0.10077839006858011,19.210519681000733,3.311614242998985,22.522133923999718
82,3,22,Alg-Approx,5.742412257251046,0.16101314113871013,0.09934601820941463,19.210519681000733,3.37283437699989,22.583354058000623
83,3,23,Alg-Approx,5.755353082429189,0.11214063051914208,0.09689796442978983,19.210519681000733,3.294607679999899,22.505127361000632
84,3,24,Alg-Approx,5.770756790095539,0.15691832175949358,0.10569067584613231,19.210519681000733,3.373552856999595,22.584072538000328
85,3,25,Alg-Approx,5.7492705798726575,0.15780618883011358,0.10934249964303451,19.210519681000733,3.3952829579993704,22.605802639000103
86,3,26,Alg-Approx,5.810695493473197,0.05758327380160703,0.08607793548110446,19.210519681000733,3.2931750250008918,22.503694706001625
87,3,27,Alg-Approx,5.778697738510445,0.07849191164553947,0.09514082085364538,19.210519681000733,3.3332102650001616,22.543729946000894
88,3,28,Alg-Approx,5.791861225339841,0.1516564447073146,0.10950038067779598,19.210519681000733,3.403365259999191,22.613884940999924
89,3,29,Alg-Approx,5.750207258242816,0.15809046083146217,0.10091308262185361,19.210519681000733,3.328029146001427,22.53854882700216
90,2,0,KMeans,9.473502224340645,0.3952372973869664,0.16449454563284333,0.0,0.1258909099997254,0.1258909099997254
91,2,1,KMeans,9.797720306599002,0.4042944757927795,0.17215710517486907,0.0,0.2165525020009227,0.2165525020009227
92,2,2,KMeans,10.40791247125113,0.3902800220006167,0.1636922560765239,0.0,0.12628732099983608,0.12628732099983608
93,2,3,KMeans,12.328778742558468,0.3840684994552321,0.16179037193793958,0.0,0.15012297300017963,0.15012297300017963
94,2,4,KMeans,11.517080239450118,0.38576401020583856,0.16861544596259476,0.0,0.20189291600036086,0.20189291600036086
95,2,5,KMeans,12.548741880194248,0.37129197147986626,0.1575610416297209,0.0,0.2086617880013364,0.2086617880013364
96,2,6,KMeans,11.724659483667104,0.3962586083616618,0.15956561373979486,0.0,0.20799883799918462,0.20799883799918462
97,2,7,KMeans,9.473502224340645,0.3824086603156366,0.16300403805872687,0.0,0.2120257770002354,0.2120257770002354
98,2,8,KMeans,10.688377437897445,0.36233778883506085,0.15043927629574427,0.0,0.19063215400092304,0.19063215400092304
99,2,9,KMeans,9.849644868944182,0.3517883959677644,0.1541253017744707,0.0,0.17262148399822763,0.17262148399822763
100,2,10,KMeans,9.225727287674301,0.3718465814432455,0.16473635912604379,0.0,0.24526449499899172,0.24526449499899172
101,2,11,KMeans,9.473502224340645,0.39164702416028285,0.16821154818009684,0.0,0.17418033099966124,0.17418033099966124
102,2,12,KMeans,10.987125794053627,0.38610161011549676,0.16634393450849216,0.0,0.15615406100005202,0.15615406100005202
103,2,13,KMeans,10.09892053182444,0.3897158554706329,0.1615455246420049,0.0,0.12758900100016035,0.12758900100016035
104,2,14,KMeans,9.737801719240046,0.3820421367516529,0.16183323925802526,0.0,0.2614912610006286,0.2614912610006286
105,2,15,KMeans,10.075664979527538,0.38521266318025543,0.15971373677178918,0.0,0.12295377500049653,0.12295377500049653
106,2,16,KMeans,9.959103271044492,0.38314522477215357,0.15701803104099574,0.0,0.13256985699990764,0.13256985699990764
107,2,17,KMeans,11.901736732593644,0.40575692340305775,0.16439880582001343,0.0,0.1389396399990801,0.1389396399990801
108,2,18,KMeans,10.378127974903558,0.40114161252769537,0.16650917281211206,0.0,0.17886503100089612,0.17886503100089612
109,2,19,KMeans,11.655741210359936,0.3785604641234946,0.15618542792609513,0.0,0.18550024999967718,0.18550024999967718
110,2,20,KMeans,12.802437287730752,0.3764176325643073,0.1599137051736298,0.0,0.26313833899985184,0.26313833899985184
111,2,21,KMeans,10.238749341417861,0.3874295879289555,0.16637952253864874,0.0,0.2386566209988814,0.2386566209988814
112,2,22,KMeans,10.33002165439669,0.393253401021936,0.16312607934596135,0.0,0.2381940819996089,0.2381940819996089
113,2,23,KMeans,12.448261889072617,0.39306294243243073,0.16679618651573583,0.0,0.2150404610001715,0.2150404610001715
114,2,24,KMeans,10.20418344469708,0.3823946497326431,0.16077473562131978,0.0,0.23377113500100677,0.23377113500100677
115,2,25,KMeans,10.02852036816203,0.39009351706761686,0.16162433775280877,0.0,0.12270132300000114,0.12270132300000114
116,2,26,KMeans,10.049631804669637,0.376634292833745,0.16272459203800965,0.0,0.1354753689993231,0.1354753689993231
117,2,27,KMeans,9.819288890612428,0.3852650272404194,0.15882365469665627,0.0,0.138865008000721,0.138865008000721
118,2,28,KMeans,10.394994702500485,0.3876249926131893,0.15866040721353436,0.0,0.16264556199894287,0.16264556199894287
119,2,29,KMeans,11.899296708273175,0.3856419174612951,0.16141478018094524,0.0,0.16336184299871093,0.16336184299871093
