Label,C1,C2,C3,C4,C5,C6
3,0.32755812984025917,-0.4771585155247617,-0.2669994909370454,-0.559241978933483,-0.42435107122326043,-0.674718619622097
3,-0.26099551522031345,-0.4771585155247617,-0.2669994909370454,2.3423110151637374,-0.42435107122326043,-0.674718619622097
3,-0.26099551522031345,-0.4771585155247617,-0.2669994909370454,-0.559241978933483,1.280521435832103,-0.2708534151840644
3,-0.26099551522031345,1.9597854549633011,-0.2669994909370454,1.8792231573058211,-0.9800406753344941,-0.674718619622097
3,-0.26099551522031345,1.9597854549633011,-0.2669994909370454,-0.4420192379719553,-1.3014956219546432,-0.5321467823598519
3,-0.26099551522031345,1.3505494623412855,-0.2669994909370454,0.48531709894151637,-0.42435107122326043,-0.674718619622097
3,-0.26099551522031345,-0.4771585155247617,-0.2669994909370454,-0.560402600131122,-0.42435107122326043,1.9117147106372192
3,-0.26099551522031345,-0.4771585155247617,-0.2669994909370454,2.4583731349276254,-1.5559910831527626,-0.674718619622097
3,-0.26099551522031345,-0.4771585155247617,-0.2669994909370454,-0.560402600131122,1.329938030239505,-0.674718619622097
3,-0.26099551522031345,-0.4771585155247617,-0.2669994909370454,-0.2110556196418166,1.329938030239505,-0.2708534151840644
3,-0.26099551522031345,-0.4771585155247617,-0.2669994909370454,0.021068619885960968,-0.42435107122326043,-0.674718619622097
3,-0.26099551522031345,-0.4771585155247617,-0.2669994909370454,-1.0234904579890383,1.329938030239505,1.9117147106372192
3,-0.26099551522031345,-0.4771585155247617,-0.2669994909370454,0.021068619885960968,-0.42435107122326043,-0.5952175951264213
3,-0.26099551522031345,1.3505494623412855,-0.2669994909370454,0.021068619885960968,-0.42459815419529745,-0.674718619622097
3,-0.26099551522031345,-0.4771585155247617,-0.2669994909370454,-0.6753040986973718,1.0828550582024958,-0.2713834220140356
3,-0.26099551522031345,-0.4771585155247617,-0.2669994909370454,3.2708079732748474,1.329938030239505,-0.2708534151840644
U,0.4746965411054023,-0.4771585155247617,-0.2669994909370454,2.3434716363613766,-0.4490593684269613,-0.674718619622097
U,-0.26099551522031345,2.7721001117926556,-0.2669994909370454,-0.4431798591695942,-0.42435107122326043,1.5354098613576876
3,-0.26099551522031345,-0.4771585155247617,-0.2669994909370454,2.3423110151637374,1.3301851132115419,-0.2708534151840644
3,-0.26099551522031345,2.3659427833779785,-0.2669994909370454,-0.7902055972636218,1.0336855467671306,-0.674718619622097
3,-0.26099551522031345,-0.4771585155247617,-0.2669994909370454,-0.6753040986973718,-0.42435107122326043,-0.2713834220140356
3,3.785310794571123,-0.4771585155247617,-0.2669994909370454,-0.4431798591695942,-0.42435107122326043,-0.674718619622097
U,-0.26099551522031345,2.975178775999994,-0.2669994909370454,-0.20989499844417783,-1.808015714630512,-0.674718619622097
3,4.8888488790596965,-0.4771585155247617,-0.2669994909370454,2.3423110151637374,-0.42459815419529745,-0.674718619622097
1,-0.04028789832259871,-0.4771585155247617,-0.2669994909370454,-0.7913662184612607,-0.42435107122326043,-0.674718619622097
3,-0.26099551522031345,1.553628126548624,-0.2669994909370454,2.3423110151637374,1.329938030239505,-0.674718619622097
3,-0.26099551522031345,1.9597854549633011,-0.2669994909370454,-0.4431798591695942,-1.051941820197264,1.9117147106372192
3,-0.26099551522031345,-0.4771585155247617,-0.2669994909370454,-0.559241978933483,-0.42459815419529745,1.5354098613576876
3,3.785310794571123,-0.4771585155247617,-0.2669994909370454,-0.4431798591695942,0.2921895476840663,-0.674718619622097
3,-0.26099551522031345,-0.4771585155247617,2.4157923071135756,0.48531709894151637,-0.42435107122326043,-0.674718619622097
5,-0.26099551522031345,-0.4771585155247617,-0.2669994909370454,-0.6753040986973718,-0.42435107122326043,1.9117147106372192
3,-0.26099551522031345,1.3505494623412855,-0.2669994909370454,0.25319285941373854,1.329938030239505,1.5354098613576876
3,-0.26099551522031345,1.3505494623412855,-0.2669994909370454,-0.560402600131122,1.329938030239505,-0.2708534151840644
U,-0.26099551522031345,2.975178775999994,-0.2669994909370454,3.2708079732748474,-0.8196838264824752,-0.674718619622097
3,-0.26099551522031345,-0.4771585155247617,-0.2669994909370454,-0.5012109190515386,1.329938030239505,1.9117147106372192
5,-0.26099551522031345,-0.4771585155247617,-0.2669994909370454,0.48531709894151637,1.0828550582024958,-0.674718619622097
3,-0.26099551522031345,-0.4771585155247617,2.7619589907330107,0.25203223821609977,1.329938030239505,-0.674718619622097
3,-0.26099551522031345,1.553628126548624,-0.2669994909370454,-0.6753040986973718,1.329938030239505,-0.674718619622097
3,-0.26099551522031345,-0.4771585155247617,-0.2669994909370454,-0.6161124176177886,-1.8821406062416148,-0.674718619622097
3,-0.26099551522031345,-0.4771585155247617,-0.2669994909370454,0.48531709894151637,-1.005243138482269,1.9117147106372192
3,-0.26099551522031345,-0.4771585155247617,-0.2669994909370454,0.48531709894151637,-1.808015714630512,-0.674718619622097
3,-0.26099551522031345,-0.4771585155247617,-0.2669994909370454,-0.560402600131122,1.329938030239505,1.9117147106372192
3,-0.26099551522031345,1.553628126548624,-0.2669994909370454,-0.559241978933483,-0.42435107122326043,-0.674718619622097
3,-0.26099551522031345,-0.4771585155247617,-0.2669994909370454,-0.6753040986973718,-0.42435107122326043,-0.2708534151840644
5,-0.26099551522031345,-0.4771585155247617,-0.2669994909370454,-0.44434048036723306,-1.8821406062416148,-0.674718619622097
3,-0.26099551522031345,-0.4771585155247617,-0.2669994909370454,-0.6753040986973718,-0.42435107122326043,-0.5151865638007744
3,-0.26099551522031345,-0.4771585155247617,-0.2669994909370454,-0.674143477499733,-0.42435107122326043,1.9117147106372192
3,-0.26099551522031345,1.3505494623412855,-0.2669994909370454,-0.559241978933483,1.329938030239505,1.9117147106372192
3,-0.26099551522031345,-0.4771585155247617,2.4157923071135756,1.5298761768165157,1.2185036098508142,-0.674718619622097
3,-0.26099551522031345,-0.4771585155247617,-0.2669994909370454,-0.560402600131122,1.329938030239505,1.9117147106372192
3,-0.26099551522031345,-0.4771585155247617,-0.2669994909370454,-0.559241978933483,-0.42459815419529745,-0.2708534151840644
3,-0.26099551522031345,-0.4771585155247617,-0.2669994909370454,-1.0234904579890383,1.329938030239505,-0.2713834220140356
3,-0.26099551522031345,-0.4771585155247617,-0.2669994909370454,0.4841564777438774,1.280521435832103,-0.2708534151840644
3,-0.26099551522031345,1.3505494623412855,-0.2669994909370454,-0.6764647198950108,-1.560932742593503,1.9117147106372192
3,-0.26099551522031345,-0.4771585155247617,-0.2669994909370454,-0.559241978933483,1.329938030239505,-0.674718619622097
3,-0.26099551522031345,-0.4771585155247617,-0.2669994909370454,-0.559241978933483,-1.005243138482269,1.9117147106372192
3,-0.26099551522031345,-0.4771585155247617,-0.2669994909370454,-1.0223298367913995,-0.42435107122326043,-0.2708534151840644
3,-0.26099551522031345,-0.4771585155247617,4.060084054305891,0.48531709894151637,1.329938030239505,-0.674718619622097
3,-0.26099551522031345,-0.4771585155247617,-0.2669994909370454,2.3423110151637374,1.280521435832103,-0.2708534151840644
3,-0.26099551522031345,-0.4771585155247617,-0.2669994909370454,0.021068619885960968,-0.42435107122326043,-0.2708534151840644
3,-0.26099551522031345,-0.4771585155247617,-0.2669994909370454,0.021068619885960968,-0.42435107122326043,1.9117147106372192
3,-0.26099551522031345,-0.4771585155247617,-0.2669994909370454,-0.6753040986973718,1.0828550582024958,-0.2708534151840644
3,-0.26099551522031345,1.3505494623412855,-0.2669994909370454,-1.0223298367913995,-0.42435107122326043,-0.674718619622097
U,-0.26099551522031345,2.975178775999994,-0.2669994909370454,-0.2110556196418166,-0.42435107122326043,-0.2708534151840644
3,-0.26099551522031345,-0.4771585155247617,-0.2669994909370454,0.48531709894151637,-0.6961423404639705,-0.2708534151840644
3,-0.26099551522031345,-0.4771585155247617,-0.2669994909370454,-1.0223298367913995,-0.6590798946584192,-0.35141445333968246
5,-0.26099551522031345,-0.4771585155247617,-0.2669994909370454,0.021068619885960968,-1.1038292443250357,-0.3508844465097113
2,-0.26099551522031345,-0.4771585155247617,-0.2669994909370454,-0.4431798591695942,1.329938030239505,-0.2708534151840644
3,-0.26099551522031345,-0.4771585155247617,-0.2669994909370454,-0.9074283382251495,-1.8821406062416148,-0.674718619622097
5,-0.26099551522031345,-0.4771585155247617,-0.2669994909370454,-0.6753040986973718,-1.3138497705564935,-0.674718619622097
3,-0.26099551522031345,2.3659427833779785,-0.2669994909370454,-0.4420192379719553,-0.42435107122326043,-0.674718619622097
3,-0.26099551522031345,-0.4771585155247617,-0.2669994909370454,2.6904973744554033,-0.42435107122326043,-0.674718619622097
3,-0.26099551522031345,-0.4771585155247617,-0.2669994909370454,-0.560402600131122,-0.42435107122326043,-0.2708534151840644
3,-0.26099551522031345,-0.4771585155247617,-0.2669994909370454,-0.44434048036723306,1.280521435832103,-0.674718619622097
3,0.03328130730997287,-0.4771585155247617,-0.2669994909370454,-0.7913662184612607,0.8604803833691875,-0.674718619622097
3,-0.26099551522031345,-0.4771585155247617,-0.2669994909370454,-0.6753040986973718,-0.4268219009436305,-0.3503544396797401
2,-0.26099551522031345,-0.4771585155247617,4.060084054305891,0.48531709894151637,-0.42459815419529745,1.9117147106372192
3,-0.26099551522031345,-0.4771585155247617,-0.2669994909370454,-0.674143477499733,1.329938030239505,-0.674718619622097
3,-0.26099551522031345,2.3659427833779785,-0.2669994909370454,0.9495655779970715,1.1569799498135986,-0.674718619622097
3,-0.26099551522031345,-0.4771585155247617,-0.2669994909370454,2.3423110151637374,1.329938030239505,1.9117147106372192
3,-0.26099551522031345,1.3505494623412855,-0.2669994909370454,-0.559241978933483,-0.42435107122326043,-0.674718619622097
3,-0.26099551522031345,-0.4771585155247617,-0.2669994909370454,-0.6753040986973718,-0.42435107122326043,-0.2708534151840644
2,-0.26099551522031345,-0.4771585155247617,-0.2669994909370454,0.4841564777438774,-0.42435107122326043,-0.6741886127921258
3,-0.26099551522031345,1.553628126548624,-0.2669994909370454,-0.4431798591695942,-0.42459815419529745,-0.674718619622097
3,-0.26099551522031345,-0.4771585155247617,-0.2669994909370454,0.48531709894151637,-0.42435107122326043,1.9117147106372192
3,3.049618738245407,-0.4771585155247617,-0.2669994909370454,2.3423110151637374,-0.35022617961215763,-0.674718619622097
2,-0.26099551522031345,-0.4771585155247617,-0.2669994909370454,-0.4431798591695942,1.329938030239505,1.9117147106372192
3,-0.26099551522031345,-0.4771585155247617,-0.2669994909370454,0.48531709894151637,-0.42435107122326043,-0.674718619622097
2,-0.26099551522031345,-0.4771585155247617,4.925500763354479,0.48531709894151637,0.7616471945543838,-0.674718619622097
5,-0.26099551522031345,-0.4771585155247617,-0.2669994909370454,-0.7913662184612607,-0.42435107122326043,-0.674718619622097
U,0.4746965411054023,-0.4771585155247617,-0.2669994909370454,0.02222924108359999,1.329938030239505,-0.674718619622097
3,-0.26099551522031345,-0.4771585155247617,-0.2669994909370454,-1.0234904579890383,-0.42435107122326043,-0.2708534151840644
3,-0.26099551522031345,-0.4771585155247617,-0.2669994909370454,-0.559241978933483,1.3301851132115419,1.9117147106372192
3,-0.26099551522031345,-0.4771585155247617,-0.2669994909370454,-0.559241978933483,-0.42435107122326043,1.9117147106372192
3,3.785310794571123,-0.4771585155247617,-0.2669994909370454,0.36925497917762745,-0.35022617961215763,-0.674718619622097
3,-0.26099551522031345,1.3505494623412855,-0.2669994909370454,-0.6764647198950108,-0.42459815419529745,1.9117147106372192
2,-0.26099551522031345,-0.4771585155247617,-0.2669994909370454,-0.4431798591695942,-0.42435107122326043,-0.2708534151840644
5,-0.26099551522031345,-0.4771585155247617,-0.2669994909370454,0.48531709894151637,-0.42435107122326043,-0.2713834220140356
5,-0.26099551522031345,-0.4771585155247617,-0.2669994909370454,-0.6753040986973718,-0.42435107122326043,-0.674718619622097
2,-0.26099551522031345,-0.4771585155247617,-0.2669994909370454,0.4841564777438774,-0.42435107122326043,1.9117147106372192
2,-0.26099551522031345,-0.4771585155247617,-0.2669994909370454,0.9495655779970715,-0.42435107122326043,-0.3503544396797401
3,-0.26099551522031345,-0.4771585155247617,4.060084054305891,-0.2110556196418166,-0.42435107122326043,1.9117147106372192
3,-0.26099551522031345,-0.4771585155247617,-0.2669994909370454,-0.2122162408394555,-0.42435107122326043,-0.2708534151840644
3,-0.26099551522031345,-0.4771585155247617,-0.2669994909370454,-0.560402600131122,-0.42435107122326043,-0.2713834220140356
3,0.18041971857511602,-0.4771585155247617,-0.2669994909370454,-0.7913662184612607,-1.8697864576397643,-0.674718619622097
3,-0.26099551522031345,1.3505494623412855,-0.2669994909370454,-0.559241978933483,-0.42435107122326043,-0.2708534151840644
3,-0.26099551522031345,1.3505494623412855,-0.2669994909370454,0.48531709894151637,-0.42435107122326043,-0.674718619622097
5,-0.26099551522031345,-0.4771585155247617,-0.2669994909370454,-0.7913662184612607,1.0828550582024958,1.9117147106372192
3,-0.26099551522031345,-0.4771585155247617,-0.2669994909370454,-0.559241978933483,1.280521435832103,1.9117147106372192
3,-0.26099551522031345,-0.4771585155247617,-0.2669994909370454,-0.559241978933483,-0.42459815419529745,-0.2708534151840644
3,-0.26099551522031345,-0.4771585155247617,-0.2669994909370454,-0.559241978933483,1.329938030239505,-0.674718619622097
3,-0.26099551522031345,2.3659427833779785,-0.2669994909370454,-0.4431798591695942,-1.808015714630512,-0.674718619622097
5,-0.26099551522031345,-0.4771585155247617,-0.2669994909370454,-0.6753040986973718,1.0828550582024958,-0.2713834220140356
3,-0.26099551522031345,-0.4771585155247617,-0.2669994909370454,-0.560402600131122,-0.42435107122326043,1.9117147106372192
3,-0.26099551522031345,-0.4771585155247617,4.060084054305891,-0.2110556196418166,0.7863554917580847,-0.2708534151840644
2,-0.26099551522031345,-0.4771585155247617,4.925500763354479,0.48531709894151637,0.7616471945543838,-0.674718619622097
U,-0.26099551522031345,2.975178775999994,-0.2669994909370454,2.3423110151637374,-0.42435107122326043,-0.674718619622097
3,-0.26099551522031345,1.3505494623412855,-0.2669994909370454,-0.6764647198950108,-0.6467257460565687,1.9117147106372192
3,-0.26099551522031345,-0.4771585155247617,-0.2669994909370454,-1.0815215178709827,-1.8821406062416148,-0.674718619622097
1,-0.26099551522031345,-0.4771585155247617,3.194667345257304,-0.4431798591695942,-1.7462449716212598,-0.674718619622097
3,-0.26099551522031345,-0.4771585155247617,-0.2669994909370454,-0.560402600131122,-0.42435107122326043,1.9117147106372192
3,-0.26099551522031345,-0.4771585155247617,-0.2669994909370454,-0.559241978933483,1.280521435832103,1.9117147106372192
3,-0.26099551522031345,1.3505494623412855,-0.2669994909370454,-0.560402600131122,1.329938030239505,-0.674718619622097
3,0.03328130730997287,-0.4771585155247617,-0.2669994909370454,-0.2110556196418166,0.8604803833691875,-0.674718619622097
3,-0.26099551522031345,1.553628126548624,-0.2669994909370454,-0.8482366571455661,1.329938030239505,-0.674718619622097
5,-0.26099551522031345,-0.4771585155247617,-0.2669994909370454,0.48531709894151637,1.0828550582024958,-0.674718619622097
3,-0.26099551522031345,-0.4771585155247617,2.4157923071135756,0.4841564777438774,1.2187506928228509,-0.674718619622097
5,-0.26099551522031345,-0.4771585155247617,-0.2669994909370454,0.48531709894151637,-0.42435107122326043,1.9117147106372192
2,-0.26099551522031345,-0.4771585155247617,-0.2669994909370454,0.4841564777438774,-0.42435107122326043,-0.674718619622097
2,-0.26099551522031345,-0.4771585155247617,-0.2669994909370454,0.9495655779970715,-0.42435107122326043,1.5354098613576876
3,-0.26099551522031345,-0.4771585155247617,-0.2669994909370454,0.021068619885960968,1.0828550582024958,-0.674718619622097
3,3.049618738245407,-0.4771585155247617,-0.2669994909370454,-0.10659971185431658,-0.42435107122326043,-0.674718619622097
2,-0.26099551522031345,-0.4771585155247617,-0.2669994909370454,0.4841564777438774,1.280521435832103,-0.2708534151840644
2,-0.26099551522031345,-0.4771585155247617,-0.2669994909370454,0.02222924108359999,1.8364581229153738,-0.674718619622097
3,3.785310794571123,-0.4771585155247617,-0.2669994909370454,-0.09499349987792768,0.2921895476840663,-0.674718619622097
2,-0.26099551522031345,-0.4771585155247617,-0.2669994909370454,0.9495655779970715,1.8364581229153738,-0.3503544396797401
3,-0.26099551522031345,-0.4771585155247617,-0.2669994909370454,2.6904973744554033,-0.42435107122326043,-0.674718619622097
3,-0.26099551522031345,1.553628126548624,-0.2669994909370454,-0.6753040986973718,-0.42435107122326043,-0.674718619622097
5,-0.26099551522031345,-0.4771585155247617,-0.2669994909370454,0.48531709894151637,-0.42435107122326043,-0.674718619622097
3,-0.26099551522031345,-0.4771585155247617,2.4157923071135756,1.5298761768165157,-0.42435107122326043,1.9117147106372192
3,-0.26099551522031345,1.9597854549633011,-0.2669994909370454,-0.6753040986973718,-1.808015714630512,-0.674718619622097
3,-0.26099551522031345,1.3505494623412855,-0.2669994909370454,-0.560402600131122,1.329938030239505,-0.27191342884400677
3,-0.26099551522031345,-0.4771585155247617,-0.2669994909370454,-0.9074283382251495,-1.7882490768675512,-0.674718619622097
3,-0.26099551522031345,-0.4771585155247617,-0.2669994909370454,2.3423110151637374,-0.42459815419529745,-0.674718619622097
3,-0.26099551522031345,-0.4771585155247617,-0.2669994909370454,-0.559241978933483,1.329938030239505,-0.674718619622097
3,-0.26099551522031345,1.553628126548624,-0.2669994909370454,0.48531709894151637,1.1569799498135986,-0.674718619622097
2,-0.26099551522031345,-0.4771585155247617,-0.2669994909370454,0.48647772013915513,0.11923146725815986,-0.20778260241749502
3,-0.26099551522031345,-0.4771585155247617,2.7619589907330107,-0.3271177394057054,1.329938030239505,-0.674718619622097
2,-0.26099551522031345,-0.4771585155247617,-0.2669994909370454,0.9495655779970715,1.8364581229153738,-0.674718619622097
3,-0.26099551522031345,-0.4771585155247617,-0.2669994909370454,-0.560402600131122,-0.6467257460565687,-0.2708534151840644
3,-0.26099551522031345,1.9597854549633011,-0.2669994909370454,-0.4431798591695942,-0.17702101621421412,-0.674718619622097
3,-0.26099551522031345,1.553628126548624,-0.2669994909370454,-0.6753040986973718,-0.42435107122326043,-0.674718619622097
3,-0.26099551522031345,-0.4771585155247617,4.060084054305891,0.48531709894151637,1.329938030239505,-0.674718619622097
3,-0.26099551522031345,-0.4771585155247617,-0.2669994909370454,-0.6753040986973718,-0.42435107122326043,1.9117147106372192
3,-0.26099551522031345,-0.4771585155247617,-0.2669994909370454,0.48531709894151637,1.329938030239505,-0.14471178965092563
3,-0.26099551522031345,-0.4771585155247617,-0.2669994909370454,-0.559241978933483,-0.42435107122326043,1.9117147106372192
3,-0.26099551522031345,1.3505494623412855,-0.2669994909370454,-0.560402600131122,1.329938030239505,-0.674718619622097
U,-0.26099551522031345,2.975178775999994,-0.2669994909370454,2.3434716363613766,0.5392725197210755,-0.674718619622097
5,-0.26099551522031345,-0.4771585155247617,-0.2669994909370454,-0.6753040986973718,1.0828550582024958,1.9117147106372192
3,-0.26099551522031345,-0.4771585155247617,-0.2669994909370454,-0.2110556196418166,-1.7462449716212598,-0.674718619622097
5,-0.26099551522031345,-0.4771585155247617,-0.2669994909370454,0.48531709894151637,1.0828550582024958,-0.674718619622097
3,-0.26099551522031345,-0.4771585155247617,-0.2669994909370454,2.3423110151637374,-0.42459815419529745,-0.674718619622097
3,-0.26099551522031345,-0.4771585155247617,-0.2669994909370454,-0.559241978933483,1.329938030239505,-0.674718619622097
3,-0.26099551522031345,2.3659427833779785,-0.2669994909370454,1.5298761768165157,-0.42459815419529745,-0.674718619622097
3,-0.26099551522031345,-0.4771585155247617,-0.2669994909370454,-0.560402600131122,-0.42459815419529745,-0.674718619622097
3,-0.26099551522031345,-0.4771585155247617,-0.2669994909370454,2.3423110151637374,-0.42435107122326043,-0.14471178965092563
3,-0.26099551522031345,-0.4771585155247617,-0.2669994909370454,-0.3271177394057054,0.45551139220052944,-0.674718619622097
3,-0.26099551522031345,-0.4771585155247617,-0.2669994909370454,-0.20989499844417783,-0.42435107122326043,-0.674718619622097
3,-0.26099551522031345,-0.4771585155247617,-0.2669994909370454,-0.674143477499733,-1.004996055510232,-0.3503544396797401
5,-0.26099551522031345,-0.4771585155247617,-0.2669994909370454,-0.4431798591695942,-1.808015714630512,-0.674718619622097
3,3.049618738245407,-0.4771585155247617,-0.2669994909370454,-0.6753040986973718,-0.42435107122326043,-0.674718619622097
3,-0.26099551522031345,-0.4771585155247617,-0.2669994909370454,2.3423110151637374,1.329938030239505,-0.674718619622097
5,-0.26099551522031345,-0.4771585155247617,-0.2669994909370454,-0.6753040986973718,-0.42435107122326043,1.9117147106372192
3,-0.26099551522031345,-0.4771585155247617,-0.2669994909370454,-0.2122162408394555,1.0828550582024958,-0.2708534151840644
2,-0.26099551522031345,-0.4771585155247617,-0.2669994909370454,0.48531709894151637,-1.808015714630512,-0.674718619622097
3,-0.26099551522031345,-0.4771585155247617,-0.2669994909370454,0.021068619885960968,-1.1038292443250357,1.5354098613576876
3,-0.26099551522031345,-0.4771585155247617,-0.2669994909370454,0.021068619885960968,1.1569799498135986,1.9117147106372192
3,-0.26099551522031345,-0.4771585155247617,2.4157923071135756,1.5298761768165157,1.2185036098508142,-0.674718619622097
3,-0.26099551522031345,-0.4771585155247617,-0.2669994909370454,-0.559241978933483,-0.42435107122326043,-0.674718619622097
2,-0.26099551522031345,-0.4771585155247617,-0.2669994909370454,-0.4431798591695942,1.329938030239505,-0.6741886127921258
U,-0.26099551522031345,2.975178775999994,-0.2669994909370454,2.3423110151637374,-0.42459815419529745,-0.674718619622097
5,-0.26099551522031345,-0.4771585155247617,-0.2669994909370454,0.48531709894151637,-1.808015714630512,-0.674718619622097
3,-0.26099551522031345,-0.4771585155247617,-0.2669994909370454,-0.560402600131122,-0.42435107122326043,1.9117147106372192
3,-0.26099551522031345,-0.4771585155247617,-0.2669994909370454,0.4841564777438774,1.280521435832103,1.9117147106372192
3,-0.26099551522031345,-0.4771585155247617,-0.2669994909370454,-0.559241978933483,-0.42435107122326043,1.9117147106372192
3,-0.26099551522031345,-0.4771585155247617,-0.2669994909370454,-0.6753040986973718,1.329938030239505,-0.674718619622097
3,-0.26099551522031345,-0.4771585155247617,-0.2669994909370454,-1.0223298367913995,-0.42435107122326043,1.9117147106372192
3,-0.26099551522031345,-0.4771585155247617,-0.2669994909370454,-0.6753040986973718,1.0828550582024958,-0.2708534151840644
1,-0.26099551522031345,-0.4771585155247617,2.329250636208717,-0.4431798591695942,0.32949907646165477,-0.674718619622097
U,-0.26099551522031345,2.975178775999994,-0.2669994909370454,3.2708079732748474,0.5392725197210755,-0.674718619622097
3,4.5210028508968385,-0.4771585155247617,-0.2669994909370454,0.36925497917762745,-0.35022617961215763,-0.674718619622097
5,-0.26099551522031345,-0.4771585155247617,-0.2669994909370454,0.021068619885960968,-1.1038292443250357,-0.3503544396797401
3,-0.26099551522031345,-0.4771585155247617,-0.2669994909370454,-0.6753040986973718,-0.6467257460565687,1.9117147106372192
3,-0.26099551522031345,-0.4771585155247617,-0.2669994909370454,0.48531709894151637,1.329938030239505,-0.674718619622097
3,-0.26099551522031345,-0.4771585155247617,-0.2669994909370454,2.3423110151637374,1.329938030239505,-0.674718619622097
3,-0.26099551522031345,-0.4771585155247617,-0.2669994909370454,-0.9074283382251495,-1.8821406062416148,-0.674718619622097
3,-0.26099551522031345,-0.4771585155247617,-0.2669994909370454,-1.0234904579890383,-0.42435107122326043,1.9117147106372192
3,-0.26099551522031345,-0.4771585155247617,-0.2669994909370454,-0.6753040986973718,-0.42435107122326043,1.9117147106372192
3,-0.26099551522031345,-0.4771585155247617,-0.2669994909370454,-0.560402600131122,-0.6467257460565687,1.9117147106372192
3,-0.26099551522031345,1.3505494623412855,-0.2669994909370454,-1.0234904579890383,-0.42435107122326043,-0.2708534151840644
3,-0.26099551522031345,-0.4771585155247617,-0.2669994909370454,-0.560402600131122,-0.42435107122326043,-0.674718619622097
3,-0.26099551522031345,-0.4771585155247617,-0.2669994909370454,2.3423110151637374,-0.42435107122326043,-0.2708534151840644
3,-0.26099551522031345,1.553628126548624,-0.2669994909370454,-0.6753040986973718,1.1569799498135986,-0.674718619622097
3,-0.26099551522031345,-0.4771585155247617,-0.2669994909370454,0.48531709894151637,1.329938030239505,-0.674718619622097
3,-0.26099551522031345,-0.4771585155247617,-0.2669994909370454,-1.0234904579890383,1.329938030239505,-0.2708534151840644
3,-0.26099551522031345,-0.4771585155247617,-0.2669994909370454,-0.560402600131122,-0.42435107122326043,-0.2708534151840644
3,-0.26099551522031345,-0.4771585155247617,-0.2669994909370454,-0.3259571182080665,0.45551139220052944,-0.674718619622097
3,-0.26099551522031345,-0.4771585155247617,-0.2669994909370454,-1.0234904579890383,-0.4614135170288118,1.9117147106372192
3,-0.26099551522031345,-0.4771585155247617,-0.2669994909370454,-0.6753040986973718,1.0828550582024958,1.9117147106372192
3,-0.26099551522031345,-0.4771585155247617,-0.2669994909370454,-0.560402600131122,-0.42459815419529745,1.9117147106372192
3,4.8888488790596965,-0.4771585155247617,-0.2669994909370454,0.9495655779970715,0.5392725197210755,1.9117147106372192
3,-0.26099551522031345,-0.4771585155247617,-0.2669994909370454,-0.2110556196418166,-0.42435107122326043,1.9117147106372192
3,-0.26099551522031345,-0.4771585155247617,-0.2669994909370454,2.3423110151637374,-1.783307417426811,-0.674718619622097
3,3.785310794571123,-0.4771585155247617,-0.2669994909370454,-0.2110556196418166,0.2921895476840663,-0.674718619622097
3,-0.26099551522031345,1.3505494623412855,-0.2669994909370454,-0.559241978933483,1.329938030239505,-0.674718619622097
3,-0.26099551522031345,-0.4771585155247617,-0.2669994909370454,0.48531709894151637,1.329938030239505,-0.674718619622097
3,-0.26099551522031345,1.3505494623412855,-0.2669994909370454,0.48531709894151637,-0.42435107122326043,-0.2708534151840644
3,3.785310794571123,-0.4771585155247617,-0.2669994909370454,1.2977519372887378,0.2921895476840663,-0.674718619622097
2,-0.26099551522031345,-0.4771585155247617,-0.2669994909370454,-0.4431798591695942,1.280521435832103,-0.2708534151840644
3,-0.26099551522031345,-0.4771585155247617,-0.2669994909370454,-1.0223298367913995,1.329938030239505,1.9117147106372192
3,-0.26099551522031345,1.553628126548624,-0.2669994909370454,-0.674143477499733,-0.42435107122326043,-0.674718619622097
3,-0.26099551522031345,-0.4771585155247617,-0.2669994909370454,2.3423110151637374,1.329938030239505,-0.2708534151840644
2,-0.26099551522031345,-0.4771585155247617,4.925500763354479,0.1371307396498499,0.7616471945543838,-0.674718619622097
3,-0.26099551522031345,-0.4771585155247617,-0.2669994909370454,-0.560402600131122,-0.6467257460565687,1.9117147106372192
2,-0.26099551522031345,-0.4771585155247617,4.925500763354479,-0.3271177394057054,-0.42435107122326043,-0.02811028705726794
3,-0.26099551522031345,-0.4771585155247617,-0.2669994909370454,2.3423110151637374,1.280521435832103,-0.2708534151840644
3,-0.26099551522031345,-0.4771585155247617,2.7619589907330107,0.25203223821609977,-0.42459815419529745,-0.674718619622097
2,-0.26099551522031345,-0.4771585155247617,-0.2669994909370454,0.4841564777438774,-0.42435107122326043,-0.2713834220140356
3,-0.26099551522031345,-0.4771585155247617,-0.2669994909370454,-0.560402600131122,-0.42435107122326043,-0.674718619622097
3,-0.26099551522031345,-0.4771585155247617,-0.2669994909370454,-0.559241978933483,1.0828550582024958,-0.674718619622097
3,-0.26099551522031345,-0.4771585155247617,-0.2669994909370454,-0.560402600131122,1.329938030239505,-0.674718619622097
3,-0.26099551522031345,1.3505494623412855,-0.2669994909370454,-0.6764647198950108,-0.42435107122326043,-0.2713834220140356
3,-0.26099551522031345,-0.4771585155247617,-0.2669994909370454,-0.560402600131122,-0.42435107122326043,-0.4627158876336285
3,-0.26099551522031345,1.3505494623412855,-0.2669994909370454,0.48531709894151637,1.329938030239505,-0.3503544396797401
5,-0.26099551522031345,-0.4771585155247617,-0.2669994909370454,-0.7913662184612607,-0.42459815419529745,-0.3503544396797401
3,-0.26099551522031345,1.3505494623412855,-0.2669994909370454,-1.0223298367913995,1.329938030239505,-0.674718619622097
3,4.5210028508968385,-0.4771585155247617,-0.2669994909370454,2.3423110151637374,-0.35022617961215763,-0.674718619622097
3,-0.26099551522031345,-0.4771585155247617,-0.2669994909370454,-0.6753040986973718,-0.42435107122326043,-0.2708534151840644
5,-0.26099551522031345,-0.4771585155247617,-0.2669994909370454,-0.6753040986973718,-1.3140968535285307,-0.674718619622097
3,-0.26099551522031345,-0.4771585155247617,-0.2669994909370454,-0.559241978933483,-0.42435107122326043,-0.674718619622097
3,-0.26099551522031345,-0.4771585155247617,-0.2669994909370454,2.3423110151637374,1.280521435832103,-0.2708534151840644
3,-0.26099551522031345,-0.4771585155247617,-0.2669994909370454,0.4841564777438774,1.329938030239505,-0.2708534151840644
3,-0.26099551522031345,-0.4771585155247617,-0.2669994909370454,-0.4431798591695942,-0.42459815419529745,-0.674718619622097
3,-0.26099551522031345,1.9597854549633011,-0.2669994909370454,0.8335034582331826,0.872834531971038,-0.674718619622097
3,-0.26099551522031345,-0.4771585155247617,-0.2669994909370454,-0.560402600131122,-0.42459815419529745,-0.674718619622097
3,-0.26099551522031345,-0.4771585155247617,-0.2669994909370454,-0.560402600131122,-0.42435107122326043,-0.674718619622097
2,-0.26099551522031345,-0.4771585155247617,-0.2669994909370454,-0.4431798591695942,1.329938030239505,-0.2708534151840644
3,-0.26099551522031345,-0.4771585155247617,-0.2669994909370454,-0.3259571182080665,0.45526430922849237,-0.674718619622097
3,-0.26099551522031345,-0.4771585155247617,-0.2669994909370454,-0.559241978933483,-0.42435107122326043,-0.2708534151840644
3,-0.26099551522031345,-0.4771585155247617,-0.2669994909370454,-0.4431798591695942,-1.7462449716212598,-0.674718619622097
3,-0.26099551522031345,-0.4771585155247617,-0.2669994909370454,-0.559241978933483,1.329938030239505,-0.2708534151840644
3,-0.26099551522031345,1.553628126548624,-0.2669994909370454,-0.674143477499733,1.1569799498135986,-0.2708534151840644
3,-0.26099551522031345,1.9597854549633011,-0.2669994909370454,-0.44434048036723306,-0.4268219009436305,-0.674718619622097
3,0.18041971857511602,-0.4771585155247617,-0.2669994909370454,-0.2110556196418166,-0.42435107122326043,1.9117147106372192
3,-0.26099551522031345,1.553628126548624,-0.2669994909370454,-0.6753040986973718,-1.8821406062416148,-0.674718619622097
3,3.049618738245407,-0.4771585155247617,-0.2669994909370454,-0.6753040986973718,0.2921895476840663,-0.674718619622097
3,0.18041971857511602,-0.4771585155247617,-0.2669994909370454,-0.2110556196418166,-0.42435107122326043,-0.2708534151840644
5,-0.26099551522031345,-0.4771585155247617,-0.2669994909370454,-0.7913662184612607,-1.3138497705564935,-0.674718619622097
5,-0.26099551522031345,-0.4771585155247617,-0.2669994909370454,-0.6753040986973718,-1.808015714630512,-0.674718619622097
3,-0.26099551522031345,-0.4771585155247617,2.4157923071135756,1.5298761768165157,1.2185036098508142,-0.2708534151840644
3,-0.26099551522031345,1.9597854549633011,-0.2669994909370454,-0.4420192379719553,-1.301248538982606,-0.5316167755298807
2,-0.26099551522031345,-0.4771585155247617,-0.2669994909370454,0.48531709894151637,1.7746873799061216,1.5354098613576876
2,-0.26099551522031345,-0.4771585155247617,-0.2669994909370454,-0.4431798591695942,-0.42435107122326043,1.9117147106372192
3,-0.26099551522031345,-0.4771585155247617,-0.2669994909370454,-0.6753040986973718,-1.8821406062416148,-0.674718619622097
3,-0.26099551522031345,-0.4771585155247617,-0.2669994909370454,-0.559241978933483,1.329938030239505,-0.674718619622097
5,-0.26099551522031345,-0.4771585155247617,-0.2669994909370454,0.48531709894151637,-0.42435107122326043,-0.674718619622097
3,-0.26099551522031345,-0.4771585155247617,-0.2669994909370454,-0.559241978933483,1.0828550582024958,1.9117147106372192
U,-0.26099551522031345,2.975178775999994,-0.2669994909370454,-1.0234904579890383,1.0828550582024958,-0.2708534151840644
3,-0.26099551522031345,-0.4771585155247617,-0.2669994909370454,2.3423110151637374,-0.42435107122326043,-0.674718619622097
3,-0.26099551522031345,-0.4771585155247617,-0.2669994909370454,-0.674143477499733,-0.42435107122326043,-0.2708534151840644
3,-0.26099551522031345,-0.4771585155247617,-0.2669994909370454,-0.9991174128386217,-0.42435107122326043,-0.674718619622097
3,-0.26099551522031345,-0.4771585155247617,-0.2669994909370454,-0.674143477499733,1.0828550582024958,-0.674718619622097
3,-0.26099551522031345,-0.4771585155247617,-0.2669994909370454,-0.560402600131122,-0.42435107122326043,-0.674718619622097
3,-0.26099551522031345,-0.4771585155247617,-0.2669994909370454,2.3423110151637374,-1.560932742593503,1.9117147106372192
3,-0.26099551522031345,-0.4771585155247617,-0.2669994909370454,-0.559241978933483,1.0828550582024958,-0.2708534151840644
5,-0.26099551522031345,-0.4771585155247617,-0.2669994909370454,-0.6753040986973718,-1.3138497705564935,-0.674718619622097
U,-0.26099551522031345,2.975178775999994,-0.2669994909370454,2.3423110151637374,1.0828550582024958,-0.674718619622097
2,-0.26099551522031345,-0.4771585155247617,-0.2669994909370454,-0.4431798591695942,1.329938030239505,-0.2708534151840644
1,-0.26099551522031345,-0.4771585155247617,3.194667345257304,-0.4431798591695942,-0.42459815419529745,-0.674718619622097
3,-0.26099551522031345,-0.4771585155247617,-0.2669994909370454,0.021068619885960968,-0.42435107122326043,1.5354098613576876
3,-0.26099551522031345,-0.4771585155247617,-0.2669994909370454,-0.560402600131122,1.329938030239505,-0.2713834220140356
2,-0.26099551522031345,-0.4771585155247617,-0.2669994909370454,-0.4431798591695942,1.329938030239505,1.9117147106372192
3,-0.26099551522031345,-0.4771585155247617,-0.2669994909370454,2.3423110151637374,-1.560932742593503,-0.2708534151840644
2,-0.26099551522031345,-0.4771585155247617,4.925500763354479,0.13597011845221088,0.6628140057395802,-0.02811028705726794
3,-0.26099551522031345,-0.4771585155247617,-0.2669994909370454,2.3423110151637374,1.280521435832103,1.9117147106372192
3,-0.26099551522031345,-0.4771585155247617,-0.2669994909370454,-0.6753040986973718,-1.004996055510232,1.9117147106372192
3,-0.26099551522031345,-0.4771585155247617,-0.2669994909370454,-0.559241978933483,-0.42435107122326043,-0.2708534151840644
3,0.18041971857511602,-0.4771585155247617,-0.2669994909370454,0.021068619885960968,1.0828550582024958,-0.674718619622097
1,-0.26099551522031345,-0.4771585155247617,3.194667345257304,-0.2110556196418166,-1.7462449716212598,-0.674718619622097
3,0.18041971857511602,-0.4771585155247617,-0.2669994909370454,-0.2110556196418166,1.329938030239505,-0.2708534151840644
3,-0.26099551522031345,2.3659427833779785,-0.2669994909370454,1.5298761768165157,-0.42435107122326043,-0.674718619622097
2,-0.26099551522031345,-0.4771585155247617,-0.2669994909370454,-0.4431798591695942,-0.42435107122326043,1.9117147106372192
3,-0.26099551522031345,-0.4771585155247617,-0.2669994909370454,-0.6753040986973718,-0.6467257460565687,-0.2708534151840644
3,-0.26099551522031345,2.3659427833779785,-0.2669994909370454,-0.4431798591695942,-1.808015714630512,-0.674718619622097
3,-0.26099551522031345,-0.4771585155247617,-0.2669994909370454,-1.0234904579890383,1.329938030239505,1.9117147106372192
3,-0.26099551522031345,-0.4771585155247617,-0.2669994909370454,-0.559241978933483,-0.42435107122326043,-0.674718619622097
2,-0.26099551522031345,-0.4771585155247617,4.060084054305891,0.9495655779970715,-0.42435107122326043,-0.2708534151840644
5,-0.26099551522031345,-0.4771585155247617,-0.2669994909370454,-0.7913662184612607,-0.42459815419529745,0.9153018702914171
3,-0.26099551522031345,-0.4771585155247617,-0.2669994909370454,-0.559241978933483,-0.42435107122326043,-0.674718619622097
3,-0.26099551522031345,-0.4771585155247617,-0.2669994909370454,-0.2110556196418166,-0.42435107122326043,1.9117147106372192
3,-0.26099551522031345,-0.4771585155247617,-0.2669994909370454,0.48647772013915513,1.329938030239505,-0.674718619622097
3,-0.26099551522031345,-0.4771585155247617,-0.2669994909370454,-1.0223298367913995,-0.42435107122326043,-0.2708534151840644
2,-0.26099551522031345,-0.4771585155247617,-0.2669994909370454,0.021068619885960968,-0.42459815419529745,-0.3503544396797401
2,-0.26099551522031345,-0.4771585155247617,-0.2669994909370454,-0.4431798591695942,1.7746873799061216,1.5354098613576876
3,-0.26099551522031345,1.3505494623412855,-0.2669994909370454,-0.559241978933483,1.280521435832103,-0.2708534151840644
3,-0.26099551522031345,-0.4771585155247617,-0.2669994909370454,0.02222924108359999,-1.808015714630512,-0.674718619622097
3,-0.26099551522031345,-0.4771585155247617,-0.2669994909370454,-0.5012109190515386,-0.42435107122326043,1.9117147106372192
3,-0.26099551522031345,-0.4771585155247617,-0.2669994909370454,-0.559241978933483,-1.005243138482269,-0.2708534151840644
3,-0.26099551522031345,-0.4771585155247617,4.060084054305891,0.48531709894151637,-0.42459815419529745,-0.674718619622097
2,-0.26099551522031345,-0.4771585155247617,-0.2669994909370454,-0.4431798591695942,-0.42435107122326043,1.9117147106372192
3,4.5210028508968385,-0.4771585155247617,-0.2669994909370454,-0.10659971185431658,0.2921895476840663,-0.674718619622097
3,-0.26099551522031345,-0.4771585155247617,-0.2669994909370454,-0.560402600131122,1.329938030239505,-0.674718619622097
3,-0.26099551522031345,-0.4771585155247617,-0.2669994909370454,-0.559241978933483,-1.560932742593503,-0.2708534151840644
3,3.785310794571123,-0.4771585155247617,-0.2669994909370454,1.1816898175248494,0.2921895476840663,-0.674718619622097
3,-0.26099551522031345,-0.4771585155247617,-0.2669994909370454,-0.559241978933483,-0.42435107122326043,1.9117147106372192
3,0.03328130730997287,-0.4771585155247617,-0.2669994909370454,-0.2110556196418166,-1.8697864576397643,-0.674718619622097
3,-0.26099551522031345,-0.4771585155247617,-0.2669994909370454,-0.560402600131122,-0.42435107122326043,-0.674718619622097
3,-0.26099551522031345,-0.4771585155247617,-0.2669994909370454,-0.559241978933483,-0.42435107122326043,-0.674718619622097
2,-0.26099551522031345,-0.4771585155247617,-0.2669994909370454,0.4841564777438774,1.329938030239505,1.9117147106372192
3,-0.26099551522031345,-0.4771585155247617,-0.2669994909370454,-0.559241978933483,1.329938030239505,-0.2708534151840644
3,-0.26099551522031345,-0.4771585155247617,-0.2669994909370454,2.3423110151637374,1.329938030239505,1.9117147106372192
3,-0.26099551522031345,-0.4771585155247617,-0.2669994909370454,-0.560402600131122,1.329938030239505,-0.2708534151840644
3,-0.26099551522031345,1.553628126548624,-0.2669994909370454,-0.674143477499733,-0.42435107122326043,-0.674718619622097
5,-0.26099551522031345,-0.4771585155247617,-0.2669994909370454,-0.6753040986973718,-0.42435107122326043,-0.2713834220140356
3,-0.26099551522031345,-0.4771585155247617,-0.2669994909370454,2.3423110151637374,-0.42435107122326043,-0.674718619622097
3,4.5210028508968385,-0.4771585155247617,-0.2669994909370454,1.2977519372887378,0.2921895476840663,-0.674718619622097
3,-0.26099551522031345,-0.4771585155247617,-0.2669994909370454,-0.6753040986973718,-1.190061201565952,1.9117147106372192
3,-0.26099551522031345,-0.4771585155247617,-0.2669994909370454,-0.560402600131122,-1.190061201565952,1.9117147106372192
3,-0.26099551522031345,-0.4771585155247617,-0.2669994909370454,3.2708079732748474,-0.42435107122326043,-0.674718619622097
3,-0.26099551522031345,-0.4771585155247617,-0.2669994909370454,0.4841564777438774,-0.42435107122326043,-0.2708534151840644
U,-0.26099551522031345,2.975178775999994,-0.2669994909370454,-0.9074283382251495,1.0828550582024958,-0.2708534151840644
3,-0.26099551522031345,-0.4771585155247617,2.7619589907330107,0.48647772013915513,-0.42459815419529745,-0.674718619622097
3,-0.26099551522031345,1.3505494623412855,-0.2669994909370454,-0.9074283382251495,1.0828550582024958,-0.5157165706307456
3,-0.26099551522031345,-0.4771585155247617,-0.2669994909370454,0.48531709894151637,1.0828550582024958,-0.674718619622097
3,-0.26099551522031345,-0.4771585155247617,-0.2669994909370454,-0.559241978933483,1.280521435832103,-0.2708534151840644
U,-0.26099551522031345,2.975178775999994,-0.2669994909370454,-1.0234904579890383,1.0828550582024958,1.9117147106372192
5,-0.26099551522031345,-0.4771585155247617,-0.2669994909370454,0.48531709894151637,1.0828550582024958,-0.2713834220140356
3,-0.26099551522031345,-0.4771585155247617,-0.2669994909370454,-0.9074283382251495,-0.42435107122326043,-0.674718619622097
3,-0.26099551522031345,1.3505494623412855,-0.2669994909370454,-1.0234904579890383,-0.42435107122326043,-0.2708534151840644
3,0.18041971857511602,-0.4771585155247617,-0.2669994909370454,-0.2110556196418166,-0.42435107122326043,-0.674718619622097
3,-0.26099551522031345,-0.4771585155247617,-0.2669994909370454,-0.559241978933483,-0.42435107122326043,1.9117147106372192
1,-0.26099551522031345,-0.4771585155247617,3.194667345257304,-0.4431798591695942,-1.7462449716212598,-0.674718619622097
3,-0.26099551522031345,-0.4771585155247617,-0.2669994909370454,1.5298761768165157,1.329938030239505,-0.674718619622097
3,-0.26099551522031345,1.553628126548624,-0.2669994909370454,0.48531709894151637,1.1569799498135986,1.9117147106372192
3,-0.26099551522031345,-0.4771585155247617,-0.2669994909370454,-0.559241978933483,-0.42435107122326043,-0.674718619622097
3,-0.26099551522031345,1.553628126548624,-0.2669994909370454,-0.674143477499733,1.329938030239505,-0.674718619622097
3,-0.26099551522031345,-0.4771585155247617,-0.2669994909370454,-0.559241978933483,1.3301851132115419,-0.2708534151840644
3,-0.26099551522031345,-0.4771585155247617,-0.2669994909370454,2.3434716363613766,-0.9800406753344941,-0.674718619622097
3,-0.26099551522031345,-0.4771585155247617,-0.2669994909370454,0.48531709894151637,-0.6961423404639705,1.9117147106372192
3,-0.26099551522031345,-0.4771585155247617,-0.2669994909370454,-0.559241978933483,1.329938030239505,1.9117147106372192
3,-0.26099551522031345,-0.4771585155247617,-0.2669994909370454,3.2708079732748474,-0.6961423404639705,-0.674718619622097
3,-0.26099551522031345,-0.4771585155247617,-0.2669994909370454,-0.9074283382251495,-0.42459815419529745,-0.674718619622097
2,-0.26099551522031345,-0.4771585155247617,-0.2669994909370454,0.48531709894151637,-0.42435107122326043,1.5354098613576876
5,-0.26099551522031345,-0.4771585155247617,-0.2669994909370454,0.48531709894151637,-0.42435107122326043,-0.2708534151840644
3,-0.26099551522031345,1.3505494623412855,-0.2669994909370454,0.48531709894151637,1.280521435832103,1.9117147106372192
3,-0.26099551522031345,-0.4771585155247617,-0.2669994909370454,2.3423110151637374,-1.808015714630512,-0.674718619622097
3,-0.26099551522031345,2.7721001117926556,-0.2669994909370454,-0.7913662184612607,-1.8599031387582838,-0.674718619622097
3,-0.26099551522031345,-0.4771585155247617,-0.2669994909370454,-1.0234904579890383,-0.4614135170288118,-0.2708534151840644
U,-0.26099551522031345,2.975178775999994,-0.2669994909370454,0.021068619885960968,1.033438463795094,-0.3508844465097113
3,-0.26099551522031345,1.9597854549633011,-0.2669994909370454,1.8792231573058211,-1.0544126499176338,-0.674718619622097
U,-0.26099551522031345,2.975178775999994,-0.2669994909370454,3.2708079732748474,-0.42435107122326043,-0.674718619622097
3,-0.26099551522031345,-0.4771585155247617,-0.2669994909370454,-0.560402600131122,-0.42459815419529745,-0.674718619622097
3,4.5210028508968385,-0.4771585155247617,-0.2669994909370454,0.36925497917762745,0.2921895476840663,-0.674718619622097
3,-0.26099551522031345,-0.4771585155247617,-0.2669994909370454,3.2708079732748474,0.5392725197210755,-0.674718619622097
1,-0.26099551522031345,-0.4771585155247617,2.329250636208717,-0.4431798591695942,0.3292519934896177,-0.674718619622097
3,-0.26099551522031345,-0.4771585155247617,-0.2669994909370454,-0.559241978933483,-0.42435107122326043,-0.674718619622097
U,-0.26099551522031345,2.975178775999994,-0.2669994909370454,2.3434716363613766,-0.42435107122326043,-0.674718619622097
3,-0.26099551522031345,-0.4771585155247617,-0.2669994909370454,-0.2110556196418166,1.329938030239505,-0.2708534151840644
3,-0.26099551522031345,-0.4771585155247617,-0.2669994909370454,-0.9074283382251495,1.329938030239505,-0.674718619622097
5,-0.26099551522031345,-0.4771585155247617,-0.2669994909370454,0.48531709894151637,-0.42435107122326043,-0.2708534151840644
3,-0.26099551522031345,-0.4771585155247617,-0.2669994909370454,-0.559241978933483,-0.42435107122326043,-0.674718619622097
U,-0.26099551522031345,2.975178775999994,-0.2669994909370454,-0.9074283382251495,1.0828550582024958,-0.674718619622097
3,4.5210028508968385,-0.4771585155247617,-0.2669994909370454,2.3423110151637374,0.2921895476840663,-0.674718619622097
5,-0.26099551522031345,-0.4771585155247617,-0.2669994909370454,-0.7913662184612607,-0.42459815419529745,-0.3503544396797401
2,-0.26099551522031345,-0.4771585155247617,-0.2669994909370454,0.4841564777438774,1.7746873799061216,-0.3503544396797401
2,-0.26099551522031345,-0.4771585155247617,-0.2669994909370454,-0.4431798591695942,1.329938030239505,1.9117147106372192
3,-0.26099551522031345,-0.4771585155247617,-0.2669994909370454,1.5298761768165157,1.329938030239505,-0.674718619622097
3,-0.26099551522031345,-0.4771585155247617,-0.2669994909370454,-0.4431798591695942,0.29243663065610337,-0.674718619622097
3,-0.26099551522031345,-0.4771585155247617,-0.2669994909370454,3.2708079732748474,-0.9800406753344941,-0.674718619622097
3,-0.26099551522031345,-0.4771585155247617,-0.2669994909370454,-0.560402600131122,1.280521435832103,-0.2708534151840644
3,-0.26099551522031345,-0.4771585155247617,-0.2669994909370454,-0.6753040986973718,-0.42435107122326043,1.9117147106372192
3,-0.26099551522031345,-0.4771585155247617,-0.2669994909370454,-0.559241978933483,-1.004996055510232,-0.3503544396797401
3,-0.26099551522031345,-0.4771585155247617,-0.2669994909370454,-0.9074283382251495,-0.42435107122326043,-0.2708534151840644
3,-0.26099551522031345,-0.4771585155247617,-0.2669994909370454,-1.0234904579890383,1.329938030239505,-0.674718619622097
3,-0.26099551522031345,-0.4771585155247617,-0.2669994909370454,2.3423110151637374,-0.42435107122326043,-0.674718619622097
U,-0.26099551522031345,2.975178775999994,-0.2669994909370454,0.02222924108359999,1.0828550582024958,-0.674718619622097
3,-0.26099551522031345,1.3505494623412855,-0.2669994909370454,-0.559241978933483,1.329938030239505,-0.2708534151840644
2,-0.26099551522031345,-0.4771585155247617,-0.2669994909370454,-0.4431798591695942,-0.42435107122326043,-0.674718619622097
3,-0.26099551522031345,1.3505494623412855,-0.2669994909370454,-0.560402600131122,-0.42435107122326043,-0.674718619622097
3,-0.26099551522031345,-0.4771585155247617,2.7619589907330107,0.48531709894151637,-0.42459815419529745,-0.674718619622097
3,4.5210028508968385,-0.4771585155247617,-0.2669994909370454,-0.10659971185431658,-0.42435107122326043,-0.674718619622097
3,-0.26099551522031345,1.3505494623412855,-0.2669994909370454,-1.0234904579890383,-0.42435107122326043,1.9117147106372192
3,-0.26099551522031345,-0.4771585155247617,-0.2669994909370454,0.021068619885960968,-0.42459815419529745,-0.3503544396797401
3,4.5210028508968385,-0.4771585155247617,-0.2669994909370454,-0.6753040986973718,0.2921895476840663,-0.674718619622097
2,-0.26099551522031345,-0.4771585155247617,-0.2669994909370454,0.9495655779970715,1.7746873799061216,-0.3503544396797401
2,-0.26099551522031345,-0.4771585155247617,-0.2669994909370454,-0.4431798591695942,-1.8821406062416148,-0.674718619622097
3,3.049618738245407,-0.4771585155247617,-0.2669994909370454,-0.6753040986973718,0.2921895476840663,-0.674718619622097
3,-0.26099551522031345,-0.4771585155247617,-0.2669994909370454,-0.2122162408394555,1.0828550582024958,1.9117147106372192
3,-0.26099551522031345,-0.4771585155247617,-0.2669994909370454,0.4841564777438774,1.329938030239505,1.9117147106372192
2,-0.26099551522031345,-0.4771585155247617,-0.2669994909370454,0.9495655779970715,-0.42435107122326043,-0.3503544396797401
3,0.18041971857511602,-0.4771585155247617,-0.2669994909370454,-0.6753040986973718,-0.42435107122326043,-0.2708534151840644
3,-0.26099551522031345,-0.4771585155247617,-0.2669994909370454,-0.6753040986973718,-0.42459815419529745,-0.2708534151840644
3,-0.26099551522031345,-0.4771585155247617,2.7619589907330107,-0.3271177394057054,-0.42435107122326043,-0.674718619622097
2,-0.26099551522031345,-0.4771585155247617,-0.2669994909370454,0.4841564777438774,-0.42435107122326043,1.9117147106372192
3,-0.26099551522031345,1.553628126548624,-0.2669994909370454,-0.9074283382251495,1.329938030239505,-0.674718619622097
2,-0.26099551522031345,-0.4771585155247617,-0.2669994909370454,0.021068619885960968,-1.1038292443250357,-0.3503544396797401
1,-0.26099551522031345,-0.4771585155247617,5.790917472403066,-0.2110556196418166,-0.42459815419529745,-0.674718619622097
2,-0.26099551522031345,-0.4771585155247617,4.925500763354479,-0.3271177394057054,0.6628140057395802,-0.02811028705726794
3,-0.26099551522031345,-0.4771585155247617,-0.2669994909370454,0.02222924108359999,-1.7462449716212598,-0.674718619622097
2,-0.26099551522031345,-0.4771585155247617,4.925500763354479,0.1371307396498499,0.7616471945543838,-0.674718619622097
3,-0.26099551522031345,-0.4771585155247617,-0.2669994909370454,-0.559241978933483,-1.8821406062416148,-0.674718619622097
2,-0.26099551522031345,-0.4771585155247617,4.060084054305891,0.9495655779970715,-0.42459815419529745,-0.5151865638007744
U,-0.26099551522031345,2.975178775999994,-0.2669994909370454,0.02222924108359999,-0.42435107122326043,-0.674718619622097
5,-0.26099551522031345,-0.4771585155247617,-0.2669994909370454,-0.44434048036723306,-1.3140968535285307,-0.674718619622097
3,-0.26099551522031345,-0.4771585155247617,-0.2669994909370454,-1.0234904579890383,-0.42435107122326043,-0.2708534151840644
3,-0.26099551522031345,1.3505494623412855,-0.2669994909370454,-0.6764647198950108,1.329938030239505,-0.2713834220140356
3,-0.26099551522031345,-0.4771585155247617,2.4157923071135756,0.48531709894151637,-0.42435107122326043,-0.2708534151840644
3,-0.26099551522031345,-0.4771585155247617,-0.2669994909370454,-0.560402600131122,1.329938030239505,-0.674718619622097
3,3.785310794571123,-0.4771585155247617,-0.2669994909370454,-0.10659971185431658,-0.42435107122326043,-0.674718619622097
3,4.5210028508968385,-0.4771585155247617,-0.2669994909370454,-0.4431798591695942,0.2921895476840663,-0.674718619622097
3,-0.26099551522031345,-0.4771585155247617,4.060084054305891,0.48531709894151637,1.329938030239505,-0.674718619622097
2,-0.26099551522031345,-0.4771585155247617,-0.2669994909370454,0.4841564777438774,1.329938030239505,-0.2708534151840644
3,-0.26099551522031345,-0.4771585155247617,-0.2669994909370454,2.3423110151637374,1.329938030239505,1.9117147106372192
3,-0.26099551522031345,-0.4771585155247617,-0.2669994909370454,-1.0223298367913995,-1.8821406062416148,-0.674718619622097
3,-0.26099551522031345,-0.4771585155247617,-0.2669994909370454,-0.559241978933483,-1.1038292443250357,-0.3503544396797401
3,-0.26099551522031345,-0.4771585155247617,-0.2669994909370454,-0.560402600131122,1.329938030239505,-0.2708534151840644
3,-0.26099551522031345,1.3505494623412855,-0.2669994909370454,-0.560402600131122,1.0828550582024958,-0.2713834220140356
3,3.785310794571123,-0.4771585155247617,-0.2669994909370454,-0.10659971185431658,0.2921895476840663,-0.674718619622097
3,-0.26099551522031345,1.9597854549633011,-0.2669994909370454,-0.4420192379719553,-1.301248538982606,-0.5321467823598519
U,-0.26099551522031345,2.975178775999994,-0.2669994909370454,0.021068619885960968,-0.4490593684269613,-0.5952175951264213
3,-0.26099551522031345,-0.4771585155247617,-0.2669994909370454,-0.560402600131122,-0.42435107122326043,-0.2708534151840644
2,-0.26099551522031345,-0.4771585155247617,-0.2669994909370454,0.48531709894151637,0.12392604372686299,-0.20778260241749502
3,-0.26099551522031345,-0.4771585155247617,-0.2669994909370454,-0.560402600131122,-1.8821406062416148,-0.674718619622097
3,-0.26099551522031345,-0.4771585155247617,-0.2669994909370454,-0.9991174128386217,-0.42435107122326043,-0.674718619622097
3,-0.26099551522031345,-0.4771585155247617,2.4157923071135756,-0.4431798591695942,1.2187506928228509,1.9117147106372192
3,-0.26099551522031345,-0.4771585155247617,-0.2669994909370454,-0.560402600131122,1.0828550582024958,1.9117147106372192
3,-0.26099551522031345,-0.4771585155247617,-0.2669994909370454,-0.560402600131122,-0.4614135170288118,-0.2708534151840644
3,3.785310794571123,-0.4771585155247617,-0.2669994909370454,1.1816898175248494,0.2921895476840663,-0.674718619622097
3,-0.26099551522031345,-0.4771585155247617,-0.2669994909370454,0.02222924108359999,-1.808015714630512,-0.674718619622097
2,-0.26099551522031345,-0.4771585155247617,-0.2669994909370454,0.021068619885960968,-1.1038292443250357,0.9153018702914171
3,-0.26099551522031345,-0.4771585155247617,2.7619589907330107,0.25319285941373854,1.305229733035804,-0.674718619622097
2,-0.26099551522031345,-0.4771585155247617,-0.2669994909370454,-0.4431798591695942,-0.42435107122326043,-0.2708534151840644
3,-0.26099551522031345,-0.4771585155247617,-0.2669994909370454,3.2708079732748474,-0.42435107122326043,-0.674718619622097
5,-0.26099551522031345,-0.4771585155247617,-0.2669994909370454,-0.7913662184612607,-0.42435107122326043,-0.2708534151840644
3,-0.26099551522031345,1.9597854549633011,-0.2669994909370454,1.8780625361081817,-0.42435107122326043,-0.674718619622097
3,-0.26099551522031345,-0.4771585155247617,-0.2669994909370454,-0.44434048036723306,1.280521435832103,-0.674718619622097
2,-0.26099551522031345,-0.4771585155247617,-0.2669994909370454,0.48531709894151637,1.7746873799061216,-0.3503544396797401
3,-0.26099551522031345,-0.4771585155247617,-0.2669994909370454,0.021068619885960968,-0.42459815419529745,1.5354098613576876
3,-0.26099551522031345,-0.4771585155247617,-0.2669994909370454,2.3434716363613766,-1.5559910831527626,-0.674718619622097
3,-0.26099551522031345,-0.4771585155247617,-0.2669994909370454,-0.674143477499733,1.329938030239505,1.9117147106372192
3,-0.26099551522031345,-0.4771585155247617,-0.2669994909370454,-0.9074283382251495,1.329938030239505,1.9117147106372192
3,-0.26099551522031345,-0.4771585155247617,-0.2669994909370454,-0.559241978933483,-0.42435107122326043,-0.2708534151840644
3,-0.26099551522031345,-0.4771585155247617,-0.2669994909370454,-0.2110556196418166,1.329938030239505,-0.2708534151840644
U,-0.26099551522031345,2.7721001117926556,-0.2669994909370454,0.48531709894151637,1.329938030239505,-0.3503544396797401
3,-0.26099551522031345,-0.4771585155247617,4.060084054305891,0.48531709894151637,1.8364581229153738,-0.674718619622097
2,-0.26099551522031345,-0.4771585155247617,-0.2669994909370454,0.9495655779970715,-0.42435107122326043,1.5354098613576876
3,-0.26099551522031345,-0.4771585155247617,-0.2669994909370454,-0.44434048036723306,-1.8821406062416148,-0.674718619622097
2,-0.26099551522031345,-0.4771585155247617,-0.2669994909370454,-0.4431798591695942,1.280521435832103,-0.2708534151840644
5,-0.26099551522031345,-0.4771585155247617,-0.2669994909370454,-0.6753040986973718,-0.42435107122326043,-0.5157165706307456
5,-0.26099551522031345,-0.4771585155247617,-0.2669994909370454,0.48531709894151637,-0.42435107122326043,-0.674718619622097
3,-0.26099551522031345,-0.4771585155247617,-0.2669994909370454,-0.560402600131122,1.329938030239505,-0.2708534151840644
3,-0.26099551522031345,2.3659427833779785,-0.2669994909370454,1.5298761768165157,-0.42435107122326043,-0.674718619622097
3,-0.26099551522031345,1.553628126548624,-0.2669994909370454,-0.8482366571455661,-1.8821406062416148,-0.674718619622097
2,-0.26099551522031345,-0.4771585155247617,-0.2669994909370454,-0.4431798591695942,1.7746873799061216,1.5354098613576876
3,-0.26099551522031345,-0.4771585155247617,-0.2669994909370454,-0.560402600131122,1.329938030239505,-0.2713834220140356
3,-0.26099551522031345,-0.4771585155247617,-0.2669994909370454,2.3434716363613766,1.329938030239505,1.9117147106372192
3,-0.26099551522031345,-0.4771585155247617,-0.2669994909370454,-0.6753040986973718,-1.190061201565952,-0.2708534151840644
3,0.03328130730997287,-0.4771585155247617,-0.2669994909370454,-0.7913662184612607,-1.8697864576397643,-0.674718619622097
3,-0.26099551522031345,-0.4771585155247617,-0.2669994909370454,2.6904973744554033,0.5392725197210755,-0.674718619622097
3,-0.26099551522031345,-0.4771585155247617,-0.2669994909370454,-0.6753040986973718,-0.42459815419529745,1.9117147106372192
3,-0.26099551522031345,2.3659427833779785,-0.2669994909370454,-0.4431798591695942,-1.808015714630512,-0.674718619622097
3,-0.26099551522031345,-0.4771585155247617,-0.2669994909370454,0.48531709894151637,1.329938030239505,-0.674718619622097
3,-0.26099551522031345,-0.4771585155247617,-0.2669994909370454,-1.0234904579890383,-0.42459815419529745,-0.674718619622097
3,-0.26099551522031345,-0.4771585155247617,-0.2669994909370454,0.48531709894151637,-0.42459815419529745,-0.3503544396797401
3,-0.26099551522031345,-0.4771585155247617,-0.2669994909370454,-0.6753040986973718,-0.42435107122326043,1.5354098613576876
3,-0.26099551522031345,1.553628126548624,-0.2669994909370454,2.3423110151637374,-0.42435107122326043,-0.674718619622097
3,-0.26099551522031345,2.3659427833779785,-0.2669994909370454,-0.6753040986973718,-0.42435107122326043,-0.674718619622097
3,-0.26099551522031345,1.3505494623412855,-0.2669994909370454,-0.559241978933483,1.329938030239505,-0.674718619622097
3,-0.26099551522031345,1.9597854549633011,-0.2669994909370454,3.2708079732748474,-0.9800406753344941,-0.674718619622097
3,-0.26099551522031345,2.3659427833779785,-0.2669994909370454,-0.6753040986973718,1.329938030239505,-0.674718619622097
3,3.049618738245407,-0.4771585155247617,-0.2669994909370454,1.1816898175248494,-0.35022617961215763,-0.674718619622097
3,-0.26099551522031345,-0.4771585155247617,-0.2669994909370454,-0.560402600131122,-1.8821406062416148,-0.674718619622097
3,-0.26099551522031345,-0.4771585155247617,-0.2669994909370454,-0.560402600131122,1.329938030239505,-0.674718619622097
3,-0.26099551522031345,-0.4771585155247617,-0.2669994909370454,0.021068619885960968,-0.42459815419529745,-0.34929442601979777
3,-0.26099551522031345,-0.4771585155247617,-0.2669994909370454,-0.2110556196418166,1.329938030239505,1.9117147106372192
5,-0.26099551522031345,-0.4771585155247617,-0.2669994909370454,0.021068619885960968,-0.42459815419529745,-0.674718619622097
3,4.5210028508968385,-0.4771585155247617,-0.2669994909370454,-0.2110556196418166,-0.42435107122326043,-0.674718619622097
3,3.785310794571123,-0.4771585155247617,-0.2669994909370454,0.36925497917762745,0.2921895476840663,-0.674718619622097
3,3.049618738245407,-0.4771585155247617,-0.2669994909370454,2.3423110151637374,0.2921895476840663,-0.674718619622097
3,-0.26099551522031345,-0.4771585155247617,-0.2669994909370454,-0.560402600131122,-0.42435107122326043,-0.2708534151840644
3,-0.26099551522031345,-0.4771585155247617,-0.2669994909370454,-0.560402600131122,-0.42459815419529745,-0.674718619622097
3,-0.26099551522031345,-0.4771585155247617,-0.2669994909370454,-0.560402600131122,-0.42435107122326043,-0.674718619622097
3,-0.26099551522031345,-0.4771585155247617,-0.2669994909370454,-1.0234904579890383,1.329938030239505,-0.2708534151840644
3,-0.26099551522031345,-0.4771585155247617,2.4157923071135756,1.5310367980141544,1.2187506928228509,1.9117147106372192
U,-0.26099551522031345,2.975178775999994,-0.2669994909370454,-0.2110556196418166,1.0828550582024958,-0.2708534151840644
3,-0.26099551522031345,1.3505494623412855,-0.2669994909370454,-0.559241978933483,-0.42435107122326043,-0.27244343567397794
3,-0.26099551522031345,1.3505494623412855,-0.2669994909370454,-0.559241978933483,-0.42459815419529745,0.9153018702914171
U,-0.26099551522031345,2.975178775999994,-0.2669994909370454,2.3423110151637374,-1.437144173602961,1.9117147106372192
3,-0.26099551522031345,-0.4771585155247617,-0.2669994909370454,-0.9074283382251495,-0.42459815419529745,-0.674718619622097
5,-0.26099551522031345,-0.4771585155247617,-0.2669994909370454,-0.6753040986973718,-1.1038292443250357,0.9153018702914171
3,-0.26099551522031345,1.553628126548624,-0.2669994909370454,-0.6753040986973718,1.1569799498135986,1.9117147106372192
3,-0.26099551522031345,-0.4771585155247617,-0.2669994909370454,-0.559241978933483,1.280521435832103,-0.2708534151840644
5,-0.26099551522031345,-0.4771585155247617,-0.2669994909370454,-0.6753040986973718,-0.42435107122326043,-0.3503544396797401
3,-0.26099551522031345,-0.4771585155247617,-0.2669994909370454,2.3423110151637374,-0.42435107122326043,1.9117147106372192
3,-0.26099551522031345,-0.4771585155247617,-0.2669994909370454,-1.0234904579890383,-0.42435107122326043,-0.2708534151840644
3,-0.26099551522031345,-0.4771585155247617,-0.2669994909370454,-0.6753040986973718,-0.4268219009436305,-0.674718619622097
U,-0.26099551522031345,2.975178775999994,-0.2669994909370454,0.021068619885960968,1.033438463795094,-0.5952175951264213
U,-0.26099551522031345,2.975178775999994,-0.2669994909370454,0.021068619885960968,-0.42459815419529745,-0.674718619622097
3,-0.26099551522031345,-0.4771585155247617,-0.2669994909370454,-0.559241978933483,-0.42459815419529745,1.5354098613576876
2,-0.26099551522031345,-0.4771585155247617,-0.2669994909370454,0.4841564777438774,1.280521435832103,1.9117147106372192
3,-0.26099551522031345,-0.4771585155247617,-0.2669994909370454,-0.560402600131122,-1.8821406062416148,-0.674718619622097
3,-0.26099551522031345,-0.4771585155247617,-0.2669994909370454,-0.560402600131122,1.329938030239505,-0.674718619622097
3,-0.26099551522031345,-0.4771585155247617,-0.2669994909370454,-1.0234904579890383,1.280521435832103,-0.2708534151840644
3,-0.26099551522031345,-0.4771585155247617,-0.2669994909370454,0.021068619885960968,1.329938030239505,1.5354098613576876
3,-0.26099551522031345,-0.4771585155247617,-0.2669994909370454,-0.6753040986973718,-0.6467257460565687,1.9117147106372192
3,-0.26099551522031345,-0.4771585155247617,-0.2669994909370454,-1.0234904579890383,-0.42435107122326043,-0.674718619622097
3,-0.26099551522031345,-0.4771585155247617,-0.2669994909370454,-0.6753040986973718,-0.42435107122326043,1.9117147106372192
3,-0.26099551522031345,-0.4771585155247617,-0.2669994909370454,-0.559241978933483,-0.42435107122326043,-0.2708534151840644
3,-0.26099551522031345,-0.4771585155247617,-0.2669994909370454,-0.674143477499733,-0.42435107122326043,1.9117147106372192
5,-0.26099551522031345,-0.4771585155247617,-0.2669994909370454,0.48531709894151637,-0.42435107122326043,-0.2708534151840644
3,-0.26099551522031345,-0.4771585155247617,-0.2669994909370454,-0.6753040986973718,-0.42459815419529745,-0.674718619622097
3,-0.26099551522031345,1.3505494623412855,-0.2669994909370454,-1.0234904579890383,-0.6469728290286058,-0.2708534151840644
3,-0.26099551522031345,-0.4771585155247617,-0.2669994909370454,-0.2110556196418166,-1.7462449716212598,-0.674718619622097
3,3.785310794571123,-0.4771585155247617,-0.2669994909370454,1.2977519372887378,0.2921895476840663,-0.674718619622097
3,-0.26099551522031345,-0.4771585155247617,-0.2669994909370454,-1.0234904579890383,-0.42435107122326043,1.9117147106372192
3,-0.26099551522031345,1.9597854549633011,-0.2669994909370454,-0.4431798591695942,-1.0516947372252268,-0.2708534151840644
2,-0.26099551522031345,-0.4771585155247617,-0.2669994909370454,-0.4431798591695942,1.280521435832103,1.9117147106372192
U,-0.26099551522031345,2.975178775999994,-0.2669994909370454,2.3434716363613766,-1.4620995537786992,-0.674718619622097
3,-0.26099551522031345,-0.4771585155247617,2.4157923071135756,1.5310367980141544,-0.44881228545492424,-0.674718619622097
3,-0.26099551522031345,-0.4771585155247617,-0.2669994909370454,-0.2122162408394555,-0.42435107122326043,-0.2708534151840644
5,-0.26099551522031345,-0.4771585155247617,-0.2669994909370454,0.021068619885960968,-0.42459815419529745,-0.674718619622097
3,-0.26099551522031345,1.9597854549633011,-0.2669994909370454,-0.44434048036723306,-0.42459815419529745,-0.674718619622097
3,-0.26099551522031345,-0.4771585155247617,-0.2669994909370454,-0.560402600131122,-0.42435107122326043,-0.5952175951264213
3,-0.26099551522031345,-0.4771585155247617,-0.2669994909370454,-0.559241978933483,1.329938030239505,-0.674718619622097
3,3.049618738245407,-0.4771585155247617,-0.2669994909370454,0.36925497917762745,-0.35022617961215763,-0.674718619622097
3,-0.26099551522031345,-0.4771585155247617,4.060084054305891,0.48531709894151637,-0.42435107122326043,-0.674718619622097
3,-0.26099551522031345,-0.4771585155247617,-0.2669994909370454,2.3423110151637374,1.329938030239505,-0.2708534151840644
3,-0.26099551522031345,-0.4771585155247617,-0.2669994909370454,-1.0223298367913995,-0.6961423404639705,1.508909519859129
3,3.049618738245407,-0.4771585155247617,-0.2669994909370454,2.3423110151637374,0.2921895476840663,-0.674718619622097
3,-0.26099551522031345,1.3505494623412855,-0.2669994909370454,-0.559241978933483,1.329938030239505,-0.2708534151840644
2,-0.26099551522031345,-0.4771585155247617,-0.2669994909370454,0.9495655779970715,-0.42435107122326043,1.5354098613576876
3,4.5210028508968385,-0.4771585155247617,-0.2669994909370454,-0.2110556196418166,-0.42435107122326043,-0.674718619622097
3,4.5210028508968385,-0.4771585155247617,-0.2669994909370454,1.2977519372887378,-0.35022617961215763,-0.674718619622097
2,-0.26099551522031345,-0.4771585155247617,-0.2669994909370454,0.48531709894151637,-0.42435107122326043,-0.3503544396797401
2,-0.26099551522031345,-0.4771585155247617,-0.2669994909370454,-0.4431798591695942,-0.42435107122326043,-0.2708534151840644
3,-0.26099551522031345,-0.4771585155247617,-0.2669994909370454,-0.6753040986973718,-0.6467257460565687,-0.2708534151840644
3,-0.26099551522031345,-0.4771585155247617,-0.2669994909370454,-0.4431798591695942,-0.42459815419529745,-0.674718619622097
5,-0.26099551522031345,-0.4771585155247617,-0.2669994909370454,0.48531709894151637,-0.44881228545492424,-0.674718619622097
2,-0.26099551522031345,-0.4771585155247617,-0.2669994909370454,-0.4431798591695942,1.329938030239505,1.9117147106372192
3,-0.26099551522031345,-0.4771585155247617,-0.2669994909370454,0.48647772013915513,-0.42435107122326043,-0.2708534151840644
3,-0.26099551522031345,-0.4771585155247617,-0.2669994909370454,-0.559241978933483,1.329938030239505,-0.2708534151840644
5,-0.26099551522031345,-0.4771585155247617,-0.2669994909370454,0.48531709894151637,1.0828550582024958,-0.3503544396797401
3,-0.26099551522031345,1.3505494623412855,-0.2669994909370454,-0.560402600131122,-0.42435107122326043,1.9117147106372192
3,-0.26099551522031345,-0.4771585155247617,-0.2669994909370454,-0.6753040986973718,-0.42459815419529745,-0.2708534151840644
3,-0.26099551522031345,-0.4771585155247617,-0.2669994909370454,-0.559241978933483,-1.8821406062416148,-0.674718619622097
2,-0.26099551522031345,-0.4771585155247617,-0.2669994909370454,-0.4431798591695942,1.329938030239505,-0.674718619622097
3,-0.26099551522031345,-0.4771585155247617,-0.2669994909370454,-0.4431798591695942,-0.42459815419529745,-0.674718619622097
3,-0.26099551522031345,-0.4771585155247617,-0.2669994909370454,-0.674143477499733,-0.42435107122326043,-0.674718619622097
2,-0.26099551522031345,-0.4771585155247617,-0.2669994909370454,-0.4431798591695942,-0.42435107122326043,-0.2708534151840644
3,-0.26099551522031345,-0.4771585155247617,2.4157923071135756,0.4841564777438774,1.2187506928228509,-0.2708534151840644
3,-0.26099551522031345,-0.4771585155247617,-0.2669994909370454,-0.9074283382251495,1.0828550582024958,1.5354098613576876
3,-0.26099551522031345,-0.4771585155247617,-0.2669994909370454,-0.44434048036723306,-1.8821406062416148,-0.674718619622097
3,3.049618738245407,-0.4771585155247617,-0.2669994909370454,0.36925497917762745,-0.35022617961215763,-0.674718619622097
3,0.18041971857511602,-0.4771585155247617,-0.2669994909370454,-0.2110556196418166,1.329938030239505,-0.2708534151840644
3,-0.26099551522031345,-0.4771585155247617,-0.2669994909370454,0.4841564777438774,-0.42435107122326043,-0.2708534151840644
3,3.049618738245407,-0.4771585155247617,-0.2669994909370454,2.3423110151637374,0.2921895476840663,-0.674718619622097
3,-0.26099551522031345,-0.4771585155247617,-0.2669994909370454,-1.0223298367913995,-0.42435107122326043,-0.674718619622097
5,-0.26099551522031345,-0.4771585155247617,-0.2669994909370454,-0.6753040986973718,-0.42459815419529745,-0.6741886127921258
3,-0.26099551522031345,-0.4771585155247617,-0.2669994909370454,-0.559241978933483,-0.42459815419529745,-0.3503544396797401
3,-0.26099551522031345,1.553628126548624,-0.2669994909370454,-1.0234904579890383,1.1569799498135986,-0.674718619622097
3,-0.26099551522031345,1.553628126548624,-0.2669994909370454,-1.0234904579890383,-0.42435107122326043,-0.674718619622097
2,-0.26099551522031345,-0.4771585155247617,4.060084054305891,0.9495655779970715,-1.190061201565952,-0.5151865638007744
3,-0.26099551522031345,-0.4771585155247617,-0.2669994909370454,0.4841564777438774,1.280521435832103,-0.2708534151840644
3,-0.26099551522031345,-0.4771585155247617,-0.2669994909370454,-0.559241978933483,-0.42435107122326043,1.9117147106372192
3,-0.26099551522031345,-0.4771585155247617,-0.2669994909370454,0.021068619885960968,-0.4493064513989984,-0.674718619622097
3,-0.26099551522031345,1.9597854549633011,-0.2669994909370454,-0.4431798591695942,-1.0516947372252268,1.9117147106372192
3,-0.26099551522031345,-0.4771585155247617,-0.2669994909370454,0.48647772013915513,-0.42435107122326043,1.9117147106372192
U,-0.26099551522031345,2.975178775999994,-0.2669994909370454,-0.9074283382251495,-0.4490593684269613,-0.3508844465097113
3,-0.26099551522031345,-0.4771585155247617,-0.2669994909370454,-0.674143477499733,-0.42435107122326043,-0.674718619622097
3,-0.26099551522031345,-0.4771585155247617,-0.2669994909370454,-0.560402600131122,-1.8821406062416148,-0.674718619622097
3,-0.26099551522031345,-0.4771585155247617,-0.2669994909370454,0.021068619885960968,-0.42435107122326043,-0.2708534151840644
3,-0.26099551522031345,-0.4771585155247617,-0.2669994909370454,-0.6753040986973718,-0.42435107122326043,-0.674718619622097
3,-0.26099551522031345,1.9597854549633011,-0.2669994909370454,-0.4420192379719553,-1.051941820197264,-0.2708534151840644
3,-0.26099551522031345,-0.4771585155247617,2.4157923071135756,1.5298761768165157,-0.42435107122326043,-0.2708534151840644
3,-0.26099551522031345,-0.4771585155247617,-0.2669994909370454,-0.560402600131122,-0.4268219009436305,-0.3503544396797401
3,-0.26099551522031345,-0.4771585155247617,-0.2669994909370454,2.3423110151637374,-0.42435107122326043,-0.674718619622097
2,-0.26099551522031345,-0.4771585155247617,4.060084054305891,0.9495655779970715,-1.190061201565952,-0.5151865638007744
3,-0.26099551522031345,-0.4771585155247617,-0.2669994909370454,-0.2110556196418166,1.329938030239505,-0.674718619622097
2,-0.26099551522031345,-0.4771585155247617,4.060084054305891,0.48531709894151637,-0.42435107122326043,-0.2708534151840644
3,-0.26099551522031345,-0.4771585155247617,-0.2669994909370454,-0.6753040986973718,1.329938030239505,-0.5151865638007744
3,-0.26099551522031345,-0.4771585155247617,-0.2669994909370454,2.3423110151637374,-0.42459815419529745,-0.674718619622097
3,-0.26099551522031345,1.3505494623412855,-0.2669994909370454,-0.559241978933483,-0.42435107122326043,-0.674718619622097
U,-0.26099551522031345,2.975178775999994,-0.2669994909370454,-0.20989499844417783,-0.42459815419529745,-0.674718619622097
3,-0.26099551522031345,-0.4771585155247617,-0.2669994909370454,-0.560402600131122,-0.6491965757769388,-0.2708534151840644
3,4.5210028508968385,-0.4771585155247617,-0.2669994909370454,2.1101867756359596,-1.7707061858529236,-0.674718619622097
3,-0.26099551522031345,-0.4771585155247617,-0.2669994909370454,0.4841564777438774,-0.42435107122326043,1.5354098613576876
3,-0.26099551522031345,-0.4771585155247617,-0.2669994909370454,-0.559241978933483,-0.42459815419529745,1.9117147106372192
3,-0.26099551522031345,1.553628126548624,-0.2669994909370454,-0.6753040986973718,-0.42435107122326043,-0.674718619622097
3,-0.26099551522031345,-0.4771585155247617,-0.2669994909370454,-0.559241978933483,1.329938030239505,-0.2708534151840644
2,-0.26099551522031345,-0.4771585155247617,-0.2669994909370454,-0.4431798591695942,1.329938030239505,-0.2713834220140356
3,3.049618738245407,-0.4771585155247617,-0.2669994909370454,-0.6753040986973718,-0.42435107122326043,-0.674718619622097
3,-0.26099551522031345,-0.4771585155247617,-0.2669994909370454,-0.559241978933483,1.0828550582024958,-0.674718619622097
3,-0.26099551522031345,-0.4771585155247617,-0.2669994909370454,-0.6753040986973718,-0.6467257460565687,-0.2708534151840644
3,-0.26099551522031345,1.3505494623412855,-0.2669994909370454,-1.0234904579890383,1.329938030239505,-0.2708534151840644
3,-0.26099551522031345,-0.4771585155247617,-0.2669994909370454,-0.9074283382251495,1.329938030239505,-0.2708534151840644
5,-0.26099551522031345,-0.4771585155247617,-0.2669994909370454,-0.7913662184612607,1.0828550582024958,1.9117147106372192
3,-0.26099551522031345,-0.4771585155247617,-0.2669994909370454,2.3434716363613766,-1.9315572006490167,-0.674718619622097
3,-0.26099551522031345,-0.4771585155247617,-0.2669994909370454,-0.560402600131122,1.1569799498135986,-0.674718619622097
3,3.785310794571123,-0.4771585155247617,-0.2669994909370454,2.3423110151637374,-0.35022617961215763,-0.674718619622097
5,-0.26099551522031345,-0.4771585155247617,-0.2669994909370454,-0.4431798591695942,-1.808015714630512,-0.674718619622097
3,-0.26099551522031345,-0.4771585155247617,-0.2669994909370454,-0.2110556196418166,-0.42435107122326043,-0.2708534151840644
5,-0.26099551522031345,-0.4771585155247617,-0.2669994909370454,0.48531709894151637,-0.42459815419529745,-0.674718619622097
3,-0.26099551522031345,1.9597854549633011,-0.2669994909370454,-0.44434048036723306,-1.8821406062416148,-0.674718619622097
3,-0.26099551522031345,-0.4771585155247617,-0.2669994909370454,-0.674143477499733,-0.42435107122326043,-0.674718619622097
3,-0.26099551522031345,-0.4771585155247617,-0.2669994909370454,-1.0234904579890383,1.329938030239505,-0.2708534151840644
U,-0.26099551522031345,2.975178775999994,-0.2669994909370454,-0.9074283382251495,-0.42459815419529745,-0.674718619622097
3,-0.26099551522031345,-0.4771585155247617,-0.2669994909370454,-0.559241978933483,-0.42435107122326043,-0.2708534151840644
3,-0.26099551522031345,-0.4771585155247617,-0.2669994909370454,-0.6753040986973718,-0.42435107122326043,-0.2713834220140356
3,-0.26099551522031345,-0.4771585155247617,-0.2669994909370454,-0.560402600131122,-0.42459815419529745,-0.674718619622097
3,-0.26099551522031345,2.7721001117926556,-0.2669994909370454,-0.7913662184612607,-1.862373968478654,-0.674718619622097
3,-0.26099551522031345,-0.4771585155247617,-0.2669994909370454,-0.559241978933483,-0.42435107122326043,1.5354098613576876
3,-0.26099551522031345,1.3505494623412855,-0.2669994909370454,-0.9074283382251495,1.0828550582024958,-0.2713834220140356
3,-0.26099551522031345,-0.4771585155247617,-0.2669994909370454,-0.9074283382251495,-0.42435107122326043,-0.5952175951264213
3,-0.26099551522031345,-0.4771585155247617,-0.2669994909370454,2.3423110151637374,-0.42435107122326043,-0.2708534151840644
3,-0.26099551522031345,-0.4771585155247617,-0.2669994909370454,-1.0234904579890383,-0.42435107122326043,-0.2713834220140356
U,-0.26099551522031345,2.975178775999994,-0.2669994909370454,3.2708079732748474,0.5392725197210755,-0.674718619622097
3,0.18041971857511602,-0.4771585155247617,-0.2669994909370454,-0.2110556196418166,-0.42435107122326043,1.9117147106372192
3,-0.26099551522031345,1.3505494623412855,-0.2669994909370454,0.48531709894151637,-0.42435107122326043,1.9117147106372192
2,-0.26099551522031345,-0.4771585155247617,-0.2669994909370454,-0.4431798591695942,-0.42459815419529745,-0.2708534151840644
3,-0.26099551522031345,1.553628126548624,-0.2669994909370454,-0.674143477499733,-0.42435107122326043,-0.674718619622097
3,-0.26099551522031345,-0.4771585155247617,-0.2669994909370454,-0.560402600131122,1.329938030239505,-0.2708534151840644
3,-0.26099551522031345,1.9597854549633011,-0.2669994909370454,3.2708079732748474,-1.808015714630512,-0.674718619622097
3,-0.26099551522031345,-0.4771585155247617,2.4157923071135756,1.5298761768165157,1.2185036098508142,-0.2708534151840644
2,-0.26099551522031345,-0.4771585155247617,-0.2669994909370454,0.4841564777438774,-1.560932742593503,-0.2708534151840644
3,-0.26099551522031345,-0.4771585155247617,2.4157923071135756,-0.4431798591695942,-0.42459815419529745,-0.674718619622097
3,-0.26099551522031345,-0.4771585155247617,-0.2669994909370454,-0.6753040986973718,-0.42459815419529745,1.9117147106372192
3,-0.26099551522031345,1.3505494623412855,-0.2669994909370454,0.48531709894151637,1.329938030239505,-0.27244343567397794
2,-0.26099551522031345,-0.4771585155247617,-0.2669994909370454,0.48647772013915513,0.11923146725815986,-0.20778260241749502
3,-0.26099551522031345,-0.4771585155247617,-0.2669994909370454,0.48531709894151637,-1.783307417426811,-0.674718619622097
3,-0.26099551522031345,2.3659427833779785,-0.2669994909370454,-0.4420192379719553,1.329938030239505,-0.674718619622097
2,-0.26099551522031345,-0.4771585155247617,-0.2669994909370454,0.4841564777438774,-0.42435107122326043,-0.674718619622097
3,-0.26099551522031345,-0.4771585155247617,-0.2669994909370454,-1.0234904579890383,1.0828550582024958,1.5354098613576876
3,-0.26099551522031345,-0.4771585155247617,-0.2669994909370454,0.48647772013915513,-1.560932742593503,1.9117147106372192
3,-0.26099551522031345,1.9597854549633011,-0.2669994909370454,-0.20989499844417783,1.329938030239505,-0.674718619622097
3,-0.26099551522031345,1.3505494623412855,-0.2669994909370454,-0.560402600131122,1.329938030239505,1.9117147106372192
3,-0.26099551522031345,-0.4771585155247617,-0.2669994909370454,-1.0234904579890383,1.329938030239505,-0.2708534151840644
2,-0.26099551522031345,-0.4771585155247617,4.925500763354479,0.13597011845221088,0.6628140057395802,-0.02811028705726794
3,-0.26099551522031345,-0.4771585155247617,-0.2669994909370454,-0.6753040986973718,-1.190061201565952,1.9117147106372192
5,-0.26099551522031345,-0.4771585155247617,-0.2669994909370454,-0.6753040986973718,1.0828550582024958,-0.2708534151840644
3,-0.26099551522031345,-0.4771585155247617,-0.2669994909370454,-0.560402600131122,-0.42435107122326043,-0.2713834220140356
3,-0.26099551522031345,-0.4771585155247617,-0.2669994909370454,-0.560402600131122,-0.42435107122326043,-0.3503544396797401
3,-0.26099551522031345,-0.4771585155247617,-0.2669994909370454,0.48531709894151637,-0.42459815419529745,-0.2708534151840644
3,-0.26099551522031345,1.3505494623412855,-0.2669994909370454,-0.560402600131122,1.329938030239505,1.9117147106372192
3,-0.26099551522031345,-0.4771585155247617,-0.2669994909370454,0.021068619885960968,-0.42435107122326043,-0.674718619622097
3,-0.26099551522031345,-0.4771585155247617,2.4157923071135756,-0.4431798591695942,1.2187506928228509,-0.2708534151840644
3,-0.26099551522031345,-0.4771585155247617,-0.2669994909370454,0.021068619885960968,1.329938030239505,-0.3508844465097113
2,-0.26099551522031345,-0.4771585155247617,-0.2669994909370454,-0.4431798591695942,-0.42435107122326043,-0.6741886127921258
3,-0.26099551522031345,1.9597854549633011,-0.2669994909370454,-0.4431798591695942,-1.3014956219546432,-0.5316167755298807
3,0.32755812984025917,-0.4771585155247617,-0.2669994909370454,-0.560402600131122,-1.8821406062416148,-0.674718619622097
3,-0.26099551522031345,-0.4771585155247617,-0.2669994909370454,-0.6753040986973718,-0.6467257460565687,-0.674718619622097
3,-0.26099551522031345,1.3505494623412855,-0.2669994909370454,-0.9074283382251495,-0.42435107122326043,-0.5157165706307456
3,-0.26099551522031345,1.3505494623412855,-0.2669994909370454,-0.9074283382251495,-0.42435107122326043,-0.674718619622097
2,-0.26099551522031345,-0.4771585155247617,4.925500763354479,-0.3271177394057054,-0.42435107122326043,0.9153018702914171
3,-0.26099551522031345,1.9597854549633011,-0.2669994909370454,1.8792231573058211,-0.42435107122326043,-0.674718619622097
3,3.785310794571123,-0.4771585155247617,-0.2669994909370454,1.2977519372887378,0.2921895476840663,-0.674718619622097
3,0.18041971857511602,-0.4771585155247617,-0.2669994909370454,-0.6753040986973718,1.329938030239505,1.9117147106372192
5,-0.26099551522031345,-0.4771585155247617,-0.2669994909370454,0.48531709894151637,-0.42435107122326043,1.9117147106372192
3,-0.26099551522031345,-0.4771585155247617,-0.2669994909370454,0.021068619885960968,-0.42435107122326043,1.5354098613576876
3,-0.26099551522031345,-0.4771585155247617,-0.2669994909370454,0.4841564777438774,1.329938030239505,1.9117147106372192
3,-0.26099551522031345,-0.4771585155247617,-0.2669994909370454,-1.0234904579890383,-1.005243138482269,-0.2708534151840644
5,-0.26099551522031345,-0.4771585155247617,-0.2669994909370454,-0.6753040986973718,-0.42459815419529745,-0.674718619622097
3,-0.26099551522031345,1.553628126548624,-0.2669994909370454,-0.6753040986973718,1.1569799498135986,1.9117147106372192
3,-0.26099551522031345,-0.4771585155247617,-0.2669994909370454,-0.9074283382251495,-0.42459815419529745,-0.674718619622097
3,-0.26099551522031345,-0.4771585155247617,-0.2669994909370454,-0.560402600131122,-0.42435107122326043,1.9117147106372192
3,-0.26099551522031345,2.3659427833779785,-0.2669994909370454,-0.44434048036723306,-0.42459815419529745,-0.674718619622097
3,-0.26099551522031345,-0.4771585155247617,-0.2669994909370454,-0.560402600131122,-0.6469728290286058,-0.2708534151840644
2,-0.26099551522031345,-0.4771585155247617,-0.2669994909370454,-0.4431798591695942,-0.42435107122326043,-0.2708534151840644
3,-0.26099551522031345,1.553628126548624,-0.2669994909370454,-0.674143477499733,1.1569799498135986,1.9117147106372192
3,-0.26099551522031345,-0.4771585155247617,-0.2669994909370454,-0.9074283382251495,-0.42435107122326043,-0.674718619622097
3,-0.26099551522031345,-0.4771585155247617,-0.2669994909370454,-1.0234904579890383,1.329938030239505,-0.674718619622097
U,-0.26099551522031345,2.975178775999994,-0.2669994909370454,-0.2110556196418166,-1.8821406062416148,-0.674718619622097
5,-0.26099551522031345,-0.4771585155247617,-0.2669994909370454,0.48531709894151637,-0.42435107122326043,-0.674718619622097
2,-0.26099551522031345,-0.4771585155247617,4.925500763354479,0.9495655779970715,1.329938030239505,1.9117147106372192
3,-0.26099551522031345,1.3505494623412855,-0.2669994909370454,-0.560402600131122,1.329938030239505,-0.27191342884400677
3,3.785310794571123,-0.4771585155247617,-0.2669994909370454,1.2977519372887378,-0.35022617961215763,-0.674718619622097
3,-0.26099551522031345,-0.4771585155247617,-0.2669994909370454,2.3423110151637374,1.329938030239505,-0.674718619622097
3,-0.26099551522031345,1.553628126548624,-0.2669994909370454,0.02222924108359999,-0.42435107122326043,-0.674718619622097
3,-0.26099551522031345,-0.4771585155247617,-0.2669994909370454,-1.0234904579890383,1.329938030239505,1.9117147106372192
3,-0.26099551522031345,-0.4771585155247617,-0.2669994909370454,-0.560402600131122,-0.42459815419529745,-0.2708534151840644
2,-0.26099551522031345,-0.4771585155247617,-0.2669994909370454,-0.4431798591695942,-0.42435107122326043,1.9117147106372192
3,-0.26099551522031345,-0.4771585155247617,-0.2669994909370454,-0.559241978933483,-0.42459815419529745,-0.674718619622097
3,-0.26099551522031345,-0.4771585155247617,-0.2669994909370454,-0.9074283382251495,1.329938030239505,-0.2713834220140356
2,-0.26099551522031345,-0.4771585155247617,-0.2669994909370454,0.48531709894151637,-0.42435107122326043,-0.674718619622097
5,-0.26099551522031345,-0.4771585155247617,-0.2669994909370454,0.48531709894151637,1.0828550582024958,-0.2713834220140356
3,-0.26099551522031345,-0.4771585155247617,-0.2669994909370454,-0.560402600131122,1.0828550582024958,1.9117147106372192
2,-0.26099551522031345,-0.4771585155247617,-0.2669994909370454,0.4841564777438774,1.8364581229153738,1.5354098613576876
3,-0.26099551522031345,-0.4771585155247617,-0.2669994909370454,0.48531709894151637,-0.42435107122326043,-0.674718619622097
3,0.18041971857511602,-0.4771585155247617,-0.2669994909370454,-0.7913662184612607,-0.42435107122326043,-0.674718619622097
3,-0.26099551522031345,-0.4771585155247617,-0.2669994909370454,-1.0234904579890383,-0.42435107122326043,-0.674718619622097
3,-0.26099551522031345,-0.4771585155247617,-0.2669994909370454,-0.560402600131122,-0.42435107122326043,1.9117147106372192
5,-0.26099551522031345,-0.4771585155247617,-0.2669994909370454,-0.6753040986973718,-0.42459815419529745,-0.674718619622097
3,-0.26099551522031345,-0.4771585155247617,-0.2669994909370454,-1.0234904579890383,-0.42435107122326043,-0.674718619622097
3,-0.26099551522031345,1.9597854549633011,-0.2669994909370454,-0.4420192379719553,1.329938030239505,-0.674718619622097
5,-0.26099551522031345,-0.4771585155247617,-0.2669994909370454,0.48531709894151637,-0.42435107122326043,-0.2708534151840644
3,-0.26099551522031345,1.553628126548624,-0.2669994909370454,-0.8482366571455661,-0.42435107122326043,-0.2708534151840644
3,-0.26099551522031345,1.553628126548624,-0.2669994909370454,-0.674143477499733,-0.42435107122326043,-0.674718619622097
5,-0.26099551522031345,-0.4771585155247617,-0.2669994909370454,-0.6753040986973718,-0.42459815419529745,-0.674718619622097
2,-0.26099551522031345,-0.4771585155247617,-0.2669994909370454,0.4841564777438774,1.329938030239505,-0.2708534151840644
5,-0.26099551522031345,-0.4771585155247617,-0.2669994909370454,0.48531709894151637,-1.1038292443250357,-0.3503544396797401
3,-0.26099551522031345,1.3505494623412855,-0.2669994909370454,-1.0234904579890383,-0.42435107122326043,-0.2713834220140356
3,-0.26099551522031345,-0.4771585155247617,-0.2669994909370454,-1.0234904579890383,-0.42435107122326043,-0.2708534151840644
3,-0.26099551522031345,-0.4771585155247617,-0.2669994909370454,-0.9074283382251495,1.329938030239505,-0.5952175951264213
3,-0.26099551522031345,-0.4771585155247617,4.060084054305891,-0.3271177394057054,1.329938030239505,-0.674718619622097
3,-0.26099551522031345,2.3659427833779785,-0.2669994909370454,-0.4431798591695942,-0.42435107122326043,-0.674718619622097
2,-0.26099551522031345,-0.4771585155247617,-0.2669994909370454,-0.4431798591695942,-0.42459815419529745,-0.674718619622097
3,-0.26099551522031345,2.3659427833779785,-0.2669994909370454,-0.44434048036723306,-0.4268219009436305,-0.674718619622097
3,-0.26099551522031345,-0.4771585155247617,-0.2669994909370454,-0.560402600131122,-0.42459815419529745,-0.674718619622097
3,-0.26099551522031345,-0.4771585155247617,-0.2669994909370454,0.48531709894151637,-1.560932742593503,-0.2708534151840644
3,-0.26099551522031345,1.3505494623412855,-0.2669994909370454,-0.559241978933483,1.329938030239505,-0.674718619622097
3,-0.26099551522031345,1.553628126548624,-0.2669994909370454,-0.9074283382251495,1.0828550582024958,-0.2708534151840644
U,-0.26099551522031345,2.975178775999994,-0.2669994909370454,-0.9991174128386217,1.0828550582024958,-0.674718619622097
3,-0.26099551522031345,-0.4771585155247617,2.4157923071135756,0.48531709894151637,1.2185036098508142,1.9117147106372192
3,-0.26099551522031345,1.3505494623412855,-0.2669994909370454,-0.559241978933483,-0.42435107122326043,1.9117147106372192
3,-0.26099551522031345,-0.4771585155247617,-0.2669994909370454,0.48531709894151637,-0.43201064335640776,-0.674718619622097
3,-0.26099551522031345,-0.4771585155247617,-0.2669994909370454,-0.559241978933483,-0.42459815419529745,-0.2708534151840644
3,-0.26099551522031345,1.3505494623412855,-0.2669994909370454,-0.560402600131122,-0.42435107122326043,-0.674718619622097
2,-0.26099551522031345,-0.4771585155247617,-0.2669994909370454,-0.4431798591695942,-1.8821406062416148,-0.674718619622097
3,3.785310794571123,-0.4771585155247617,-0.2669994909370454,-0.2110556196418166,0.2921895476840663,-0.674718619622097
2,-0.26099551522031345,-0.4771585155247617,4.060084054305891,0.9495655779970715,-0.42459815419529745,1.9117147106372192
3,-0.26099551522031345,-0.4771585155247617,-0.2669994909370454,0.021068619885960968,-1.560932742593503,-0.3503544396797401
3,-0.26099551522031345,1.9597854549633011,-0.2669994909370454,-0.6753040986973718,-0.42435107122326043,-0.674718619622097
U,-0.26099551522031345,2.975178775999994,-0.2669994909370454,0.021068619885960968,1.0828550582024958,1.9117147106372192
3,4.8888488790596965,-0.4771585155247617,-0.2669994909370454,0.48531709894151637,1.329938030239505,-0.2708534151840644
3,-0.26099551522031345,1.553628126548624,-0.2669994909370454,0.02222924108359999,1.329938030239505,-0.674718619622097
2,-0.26099551522031345,-0.4771585155247617,-0.2669994909370454,0.48531709894151637,1.8364581229153738,-0.3503544396797401
3,-0.26099551522031345,1.3505494623412855,-0.2669994909370454,-1.0234904579890383,-1.560932742593503,1.9117147106372192
5,-0.26099551522031345,-0.4771585155247617,-0.2669994909370454,-0.6753040986973718,-1.1038292443250357,-0.6741886127921258
3,-0.26099551522031345,-0.4771585155247617,-0.2669994909370454,0.48647772013915513,1.280521435832103,-0.2708534151840644
3,-0.26099551522031345,-0.4771585155247617,-0.2669994909370454,-1.0234904579890383,1.329938030239505,-0.2708534151840644
3,-0.26099551522031345,-0.4771585155247617,-0.2669994909370454,-0.6753040986973718,-0.4268219009436305,1.9117147106372192
3,-0.26099551522031345,-0.4771585155247617,-0.2669994909370454,-0.559241978933483,1.0828550582024958,-0.674718619622097
2,-0.26099551522031345,-0.4771585155247617,-0.2669994909370454,0.4841564777438774,-0.42459815419529745,-0.674718619622097
3,-0.26099551522031345,-0.4771585155247617,-0.2669994909370454,-1.0234904579890383,-0.4614135170288118,1.9117147106372192
3,-0.26099551522031345,-0.4771585155247617,-0.2669994909370454,-0.559241978933483,1.329938030239505,1.9117147106372192
3,-0.26099551522031345,-0.4771585155247617,-0.2669994909370454,0.48531709894151637,-0.42435107122326043,-0.674718619622097
3,-0.26099551522031345,-0.4771585155247617,-0.2669994909370454,-0.4431798591695942,-1.7462449716212598,-0.674718619622097
3,-0.26099551522031345,-0.4771585155247617,-0.2669994909370454,-0.4431798591695942,-0.42459815419529745,-0.674718619622097
3,-0.26099551522031345,-0.4771585155247617,-0.2669994909370454,-0.559241978933483,-1.560932742593503,-0.3503544396797401
3,-0.26099551522031345,-0.4771585155247617,-0.2669994909370454,-0.559241978933483,-1.560932742593503,-0.2708534151840644
5,-0.26099551522031345,-0.4771585155247617,-0.2669994909370454,0.48531709894151637,1.0828550582024958,-0.2708534151840644
3,-0.26099551522031345,2.3659427833779785,-0.2669994909370454,1.8792231573058211,0.5392725197210755,-0.674718619622097
3,-0.26099551522031345,-0.4771585155247617,-0.2669994909370454,-0.6753040986973718,1.329938030239505,-0.674718619622097
3,-0.26099551522031345,2.3659427833779785,-0.2669994909370454,-0.6753040986973718,-0.42435107122326043,-0.674718619622097
3,4.8888488790596965,-0.4771585155247617,-0.2669994909370454,1.5298761768165157,-0.42435107122326043,1.9117147106372192
3,-0.26099551522031345,-0.4771585155247617,-0.2669994909370454,0.021068619885960968,-0.42459815419529745,1.5354098613576876
3,-0.26099551522031345,-0.4771585155247617,-0.2669994909370454,-0.559241978933483,-0.42459815419529745,-0.2708534151840644
3,-0.26099551522031345,-0.4771585155247617,-0.2669994909370454,0.4841564777438774,-0.42435107122326043,-0.2708534151840644
3,-0.26099551522031345,-0.4771585155247617,-0.2669994909370454,-0.674143477499733,-0.42459815419529745,-0.3503544396797401
3,-0.26099551522031345,-0.4771585155247617,-0.2669994909370454,-0.560402600131122,1.329938030239505,1.9117147106372192
3,-0.26099551522031345,-0.4771585155247617,-0.2669994909370454,0.021068619885960968,-0.42435107122326043,1.5354098613576876
3,-0.26099551522031345,-0.4771585155247617,-0.2669994909370454,-0.9074283382251495,-0.42435107122326043,-0.674718619622097
3,-0.26099551522031345,1.3505494623412855,-0.2669994909370454,-0.559241978933483,-0.42435107122326043,1.9117147106372192
3,-0.26099551522031345,-0.4771585155247617,-0.2669994909370454,-0.559241978933483,1.0828550582024958,-0.2708534151840644
3,-0.26099551522031345,-0.4771585155247617,-0.2669994909370454,-0.9074283382251495,-0.42459815419529745,-0.674718619622097
3,-0.26099551522031345,-0.4771585155247617,-0.2669994909370454,-0.559241978933483,1.280521435832103,1.5354098613576876
5,-0.26099551522031345,-0.4771585155247617,-0.2669994909370454,-0.4431798591695942,-1.808015714630512,-0.674718619622097
3,4.5210028508968385,-0.4771585155247617,-0.2669994909370454,-0.09499349987792768,-0.42435107122326043,-0.674718619622097
2,-0.26099551522031345,-0.4771585155247617,-0.2669994909370454,0.9495655779970715,1.7746873799061216,1.5354098613576876
3,-0.26099551522031345,-0.4771585155247617,-0.2669994909370454,-0.559241978933483,-0.42435107122326043,-0.674718619622097
3,-0.26099551522031345,-0.4771585155247617,2.4157923071135756,1.5298761768165157,-0.42435107122326043,-0.674718619622097
3,-0.26099551522031345,-0.4771585155247617,-0.2669994909370454,0.021068619885960968,-0.42459815419529745,1.5354098613576876
5,-0.26099551522031345,-0.4771585155247617,-0.2669994909370454,-0.6753040986973718,-1.1038292443250357,-0.3508844465097113
3,-0.26099551522031345,-0.4771585155247617,-0.2669994909370454,2.3423110151637374,1.280521435832103,1.9117147106372192
3,-0.26099551522031345,-0.4771585155247617,-0.2669994909370454,-0.6753040986973718,-0.42435107122326043,1.9117147106372192
3,-0.26099551522031345,-0.4771585155247617,-0.2669994909370454,-0.559241978933483,-0.42435107122326043,1.9117147106372192
3,-0.26099551522031345,-0.4771585155247617,-0.2669994909370454,-0.560402600131122,-0.42435107122326043,-0.674718619622097
3,-0.26099551522031345,-0.4771585155247617,-0.2669994909370454,-0.560402600131122,-1.005243138482269,1.9117147106372192
2,-0.26099551522031345,-0.4771585155247617,-0.2669994909370454,0.4841564777438774,1.329938030239505,1.9117147106372192
3,-0.26099551522031345,-0.4771585155247617,-0.2669994909370454,-1.0234904579890383,-0.42435107122326043,1.9117147106372192
3,-0.26099551522031345,-0.4771585155247617,-0.2669994909370454,-0.9074283382251495,-0.42435107122326043,-0.2708534151840644
3,-0.26099551522031345,-0.4771585155247617,-0.2669994909370454,-0.560402600131122,-1.004996055510232,-0.3503544396797401
3,-0.26099551522031345,-0.4771585155247617,-0.2669994909370454,-1.0234904579890383,-1.8821406062416148,-0.674718619622097
3,-0.26099551522031345,-0.4771585155247617,-0.2669994909370454,-0.9074283382251495,-0.42435107122326043,-0.674718619622097
3,-0.26099551522031345,1.3505494623412855,-0.2669994909370454,0.48531709894151637,-0.42435107122326043,1.9117147106372192
3,-0.26099551522031345,-0.4771585155247617,-0.2669994909370454,0.48647772013915513,1.329938030239505,1.9117147106372192
3,-0.26099551522031345,-0.4771585155247617,-0.2669994909370454,2.3434716363613766,-0.42459815419529745,-0.674718619622097
3,3.049618738245407,-0.4771585155247617,-0.2669994909370454,1.2977519372887378,0.2921895476840663,-0.674718619622097
3,-0.26099551522031345,-0.4771585155247617,-0.2669994909370454,2.3423110151637374,-1.560932742593503,-0.2708534151840644
2,-0.26099551522031345,-0.4771585155247617,-0.2669994909370454,-0.4431798591695942,-0.42435107122326043,1.9117147106372192
5,-0.26099551522031345,-0.4771585155247617,-0.2669994909370454,-0.4431798591695942,-1.3138497705564935,-0.674718619622097
3,-0.26099551522031345,-0.4771585155247617,-0.2669994909370454,2.3423110151637374,1.280521435832103,1.9117147106372192
3,3.785310794571123,-0.4771585155247617,-0.2669994909370454,2.3423110151637374,0.2921895476840663,-0.674718619622097
3,-0.26099551522031345,-0.4771585155247617,-0.2669994909370454,-0.3271177394057054,0.45526430922849237,-0.674718619622097
3,-0.26099551522031345,1.553628126548624,-0.2669994909370454,-0.20989499844417783,-1.808015714630512,-0.674718619622097
3,-0.26099551522031345,-0.4771585155247617,-0.2669994909370454,-0.560402600131122,1.280521435832103,1.9117147106372192
3,-0.26099551522031345,-0.4771585155247617,-0.2669994909370454,-0.9074283382251495,-0.42459815419529745,-0.674718619622097
3,-0.26099551522031345,-0.4771585155247617,-0.2669994909370454,2.3423110151637374,-0.42435107122326043,1.9117147106372192
2,-0.26099551522031345,-0.4771585155247617,-0.2669994909370454,0.4841564777438774,1.7746873799061216,1.5354098613576876
