Label,C1,C2,C3,C4
1,-0.9272782739915039,7.618248737378704,7.618248737378704,2.6138844421355474
1,-1.1743322896444495,1.281880531347359,1.281880531347359,-0.2577084617107265
1,-1.0508052818179767,1.7956401156201705,1.795640115620171,0.029450828673900892
1,-0.9272782739915039,2.480652894650586,2.4806528946505866,0.4396783863662257
0,-1.0508052818179767,3.165665673681002,3.1656656736810023,1.7524065709816652
0,-0.6802242583385582,-0.25939822147107655,-0.2593982214710766,-1.242254600172306
1,-0.9272782739915039,0.25436136280173527,0.2543613628017352,-0.8320270424799813
0,-1.0508052818179767,1.110627336589755,1.110627336589755,0.029450828673900892
1,-0.9272782739915039,0.5968677523169431,0.5968677523169431,-0.5038449963261213
1,-0.5566972505120853,6.9332359583482885,6.9332359583482885,2.6138844421355474
0,-0.6802242583385582,2.994412478923398,2.9944124789233983,0.972974211366248
0,-1.1743322896444495,-0.4306514162286805,-0.43065141622868053,-1.242254600172306
1,-0.9272782739915039,0.768120947074547,0.768120947074547,-0.2577084617107265
0,-1.0508052818179767,1.281880531347359,1.281880531347359,0.5217238979046906
1,-0.9272782739915039,0.08310816804413133,0.08310816804413128,-0.7910042867107487
1,-0.9272782739915039,-0.0881450267134726,-0.08814502671347266,-0.9550953097876786
1,-0.9272782739915039,1.4531337261049626,1.4531337261049628,0.5627466536739232
1,-0.9272782739915039,1.6243869208625665,1.624386920862567,0.6037694094431556
1,-0.9272782739915039,0.08310816804413133,0.08310816804413128,-0.7910042867107487
1,-0.9272782739915039,-0.4306514162286805,-0.43065141622868053,-1.242254600172306
1,-0.9272782739915039,-0.4306514162286805,-0.43065141622868053,-1.242254600172306
0,-0.6802242583385582,0.939374141832151,0.939374141832151,-0.2577084617107265
1,-0.9272782739915039,0.08310816804413133,0.08310816804413128,-0.7499815309415162
1,-0.9272782739915039,0.08310816804413133,0.08310816804413128,-0.7499815309415162
0,-0.06258921920619402,0.5968677523169431,0.5968677523169431,-0.7499815309415162
0,-0.6802242583385582,1.4531337261049626,1.4531337261049628,0.2345646075200633
0,-0.6802242583385582,0.08310816804413133,0.08310816804413128,-0.8320270424799813
1,-0.6802242583385582,1.110627336589755,1.110627336589755,-0.01157192709533159
1,-0.6802242583385582,-0.0881450267134726,-0.08814502671347266,-0.9550953097876786
0,-0.6802242583385582,0.4256145575593392,0.42561455755933914,-0.5448677520953539
0,-1.0508052818179767,1.4531337261049626,1.4531337261049628,0.972974211366248
1,-0.6802242583385582,0.768120947074547,0.768120947074547,-0.2577084617107265
1,-0.6802242583385582,0.768120947074547,0.768120947074547,-0.2577084617107265
1,-0.6802242583385582,0.5968677523169431,0.5968677523169431,-0.33975397324919143
0,-0.9272782739915039,1.7956401156201705,1.795640115620171,1.2191107459816428
1,-0.9272782739915039,0.4256145575593392,0.42561455755933914,-0.2577084617107265
1,-0.9272782739915039,1.110627336589755,1.110627336589755,0.5217238979046906
1,-0.6802242583385582,0.08310816804413133,0.08310816804413128,-0.7499815309415162
1,-0.9272782739915039,1.4531337261049626,1.4531337261049628,0.9319514555970155
1,-0.6802242583385582,0.25436136280173527,0.2543613628017352,-0.5038449963261213
1,-0.9272782739915039,1.281880531347359,1.281880531347359,0.7678604325200855
0,-0.9272782739915039,-0.0881450267134726,-0.08814502671347266,-0.7499815309415162
1,-0.9272782739915039,-0.0881450267134726,-0.08814502671347266,-0.7499815309415162
0,-0.9272782739915039,-0.0881450267134726,-0.08814502671347266,-0.7499815309415162
1,-0.6802242583385582,2.480652894650586,2.4806528946505866,1.4242245248278051
1,-0.6802242583385582,0.5968677523169431,0.5968677523169431,-0.2577084617107265
0,-0.9272782739915039,0.5968677523169431,0.5968677523169431,0.07047358444313337
0,-0.9272782739915039,-0.6019046109862844,-0.6019046109862844,-1.3243001117107709
0,-0.9272782739915039,-0.6019046109862844,-0.6019046109862844,-1.3243001117107709
0,-0.9272782739915039,-0.6019046109862844,-0.6019046109862844,-1.3243001117107709
0,-0.9272782739915039,0.939374141832151,0.939374141832151,0.48070114213545817
1,-0.9272782739915039,0.939374141832151,0.939374141832151,0.48070114213545817
0,-0.9272782739915039,0.08310816804413133,0.08310816804413128,-0.5038449963261213
0,-0.9272782739915039,1.110627336589755,1.110627336589755,0.7268376767508531
1,-0.6802242583385582,-0.0881450267134726,-0.08814502671347266,-0.8320270424799813
1,-0.6802242583385582,2.309399699892982,2.3093996998929827,1.4242245248278051
1,-0.6802242583385582,0.4256145575593392,0.42561455755933914,-0.33975397324919143
1,-0.9272782739915039,0.25436136280173527,0.2543613628017352,-0.2577084617107265
0,-0.9272782739915039,1.7956401156201705,1.795640115620171,1.916497594058595
0,-0.803751266165031,0.08310816804413133,0.08310816804413128,-0.5448677520953539
0,-0.9272782739915039,0.25436136280173527,0.2543613628017352,-0.216685705941494
1,-0.9272782739915039,0.4256145575593392,0.42561455755933914,0.029450828673900892
0,-0.9272782739915039,0.768120947074547,0.768120947074547,0.6037694094431556
1,-0.6802242583385582,-0.0881450267134726,-0.08814502671347266,-0.7499815309415162
1,-0.9272782739915039,-0.4306514162286805,-0.43065141622868053,-1.0371408213261437
0,-0.803751266165031,1.7956401156201705,1.795640115620171,1.6293383036739677
1,-0.9272782739915039,-0.25939822147107655,-0.2593982214710766,-0.8320270424799813
0,-1.1743322896444495,-0.6019046109862844,-0.6019046109862844,-1.242254600172306
0,-0.6802242583385582,0.25436136280173527,0.2543613628017352,-0.3807767290184239
0,-1.0508052818179767,0.5968677523169431,0.5968677523169431,0.6858149209816206
0,-0.9272782739915039,-0.25939822147107655,-0.2593982214710766,-0.7499815309415162
0,-0.9272782739915039,-0.25939822147107655,-0.2593982214710766,-0.7499815309415162
1,-0.6802242583385582,1.9668933103777744,1.9668933103777748,1.5062700363662702
0,-0.9272782739915039,-0.6019046109862844,-0.6019046109862844,-1.242254600172306
1,-0.9272782739915039,-0.6019046109862844,-0.6019046109862844,-1.242254600172306
1,-0.9272782739915039,-0.6019046109862844,-0.6019046109862844,-1.242254600172306
1,-0.9272782739915039,-0.25939822147107655,-0.2593982214710766,-0.7499815309415162
0,-0.9272782739915039,-0.6019046109862844,-0.6019046109862844,-1.242254600172306
0,-0.9272782739915039,-0.6019046109862844,-0.6019046109862844,-1.242254600172306
0,-0.9272782739915039,-0.6019046109862844,-0.6019046109862844,-1.242254600172306
1,-0.6802242583385582,0.08310816804413133,0.08310816804413128,-0.46282224055688886
0,-0.9272782739915039,-0.25939822147107655,-0.2593982214710766,-0.7499815309415162
0,-0.9272782739915039,-0.25939822147107655,-0.2593982214710766,-0.7499815309415162
0,-0.9272782739915039,-0.25939822147107655,-0.2593982214710766,-0.7499815309415162
1,-0.9272782739915039,0.08310816804413133,0.08310816804413128,-0.2577084617107265
0,-0.9272782739915039,0.08310816804413133,0.08310816804413128,-0.2577084617107265
0,-0.6802242583385582,-0.6019046109862844,-0.6019046109862844,-1.242254600172306
0,-0.6802242583385582,-0.6019046109862844,-0.6019046109862844,-1.242254600172306
0,-0.6802242583385582,-0.6019046109862844,-0.6019046109862844,-1.242254600172306
1,-0.9272782739915039,0.25436136280173527,0.2543613628017352,0.029450828673900892
1,-0.6802242583385582,-0.6019046109862844,-0.6019046109862844,-1.242254600172306
0,-0.6802242583385582,-0.6019046109862844,-0.6019046109862844,-1.242254600172306
0,-0.6802242583385582,-0.6019046109862844,-0.6019046109862844,-1.242254600172306
0,-0.6802242583385582,-0.6019046109862844,-0.6019046109862844,-1.242254600172306
0,0.3079918042732245,0.939374141832151,0.939374141832151,-0.46282224055688886
0,-0.6802242583385582,0.25436136280173527,0.2543613628017352,-0.2577084617107265
0,-0.803751266165031,1.9668933103777744,1.9668933103777748,2.1216113729047574
1,-0.6802242583385582,0.5968677523169431,0.5968677523169431,0.15251909598159832
1,-0.6802242583385582,-0.25939822147107655,-0.2593982214710766,-0.8320270424799813
1,-0.5566972505120853,0.25436136280173527,0.2543613628017352,-0.33975397324919143
1,-0.6802242583385582,0.4256145575593392,0.42561455755933914,-0.01157192709533159
1,-0.9272782739915039,1.281880531347359,1.281880531347359,1.7113838152124325
0,-0.6802242583385582,0.5968677523169431,0.5968677523169431,0.2345646075200633
0,-0.9272782739915039,-0.0881450267134726,-0.08814502671347266,-0.33975397324919143
0,-0.9272782739915039,-0.0881450267134726,-0.08814502671347266,-0.33975397324919143
0,-0.4331702426856125,1.9668933103777744,1.9668933103777748,1.4652472805970378
0,-1.1743322896444495,0.4256145575593392,0.42561455755933914,1.0139969671354805
0,-0.803751266165031,-0.0881450267134726,-0.08814502671347266,-0.33975397324919143
0,-0.9272782739915039,-0.4306514162286805,-0.43065141622868053,-0.8320270424799813
0,-0.9272782739915039,0.768120947074547,0.768120947074547,1.2191107459816428
1,-0.6802242583385582,-0.0881450267134726,-0.08814502671347266,-0.46282224055688886
0,-0.6802242583385582,0.5968677523169431,0.5968677523169431,0.48070114213545817
0,-0.6802242583385582,-0.0881450267134726,-0.08814502671347266,-0.46282224055688886
1,-0.6802242583385582,0.4256145575593392,0.42561455755933914,0.2345646075200633
0,-0.9272782739915039,1.110627336589755,1.110627336589755,1.9575203498278275
0,0.18446479644675162,3.165665673681002,3.1656656736810023,1.2191107459816428
1,-0.9272782739915039,0.25436136280173527,0.2543613628017352,0.48070114213545817
0,-0.6802242583385582,0.939374141832151,0.939374141832151,1.0960424786739453
0,-1.0508052818179767,0.25436136280173527,0.2543613628017352,0.9319514555970155
1,-0.9272782739915039,0.939374141832151,0.939374141832151,1.83445208252013
1,-0.9272782739915039,-0.4306514162286805,-0.43065141622868053,-0.7499815309415162
1,-0.6802242583385582,-0.0881450267134726,-0.08814502671347266,-0.33975397324919143
1,-0.9272782739915039,0.08310816804413133,0.08310816804413128,0.2755873632892958
1,-0.9272782739915039,-0.0881450267134726,-0.08814502671347266,-0.05259468286456407
0,-0.9272782739915039,-0.25939822147107655,-0.2593982214710766,-0.33975397324919143
0,-0.9272782739915039,-0.0881450267134726,-0.08814502671347266,-0.01157192709533159
1,-0.6802242583385582,0.4256145575593392,0.42561455755933914,0.48070114213545817
0,-0.9272782739915039,-0.25939822147107655,-0.2593982214710766,-0.33975397324919143
1,-0.6802242583385582,0.4256145575593392,0.42561455755933914,0.5627466536739232
1,-0.9272782739915039,-0.6019046109862844,-0.6019046109862844,-0.9961180655569112
0,-0.6802242583385582,-0.0881450267134726,-0.08814502671347266,-0.2577084617107265
0,-0.9272782739915039,1.110627336589755,1.110627336589755,2.4908161748278497
0,-0.9272782739915039,-0.6019046109862844,-0.6019046109862844,-0.9961180655569112
0,-0.6802242583385582,0.08310816804413133,0.08310816804413128,0.029450828673900892
0,-0.9272782739915039,0.939374141832151,0.939374141832151,2.2036568844432223
0,-0.9272782739915039,-0.4306514162286805,-0.43065141622868053,-0.6269132636338188
0,-0.9272782739915039,-0.0881450267134726,-0.08814502671347266,0.11149634021236585
0,-0.9272782739915039,1.110627336589755,1.110627336589755,2.6138844421355474
0,-0.06258921920619402,-0.0881450267134726,-0.08814502671347266,-0.6269132636338188
0,-0.9272782739915039,-0.6019046109862844,-0.6019046109862844,-0.9550953097876786
0,-0.9272782739915039,0.5968677523169431,0.5968677523169431,1.6293383036739677
0,-0.5566972505120853,1.4531337261049626,1.4531337261049628,2.1216113729047574
0,-0.6802242583385582,-0.4306514162286805,-0.43065141622868053,-0.7499815309415162
0,-0.6802242583385582,-0.4306514162286805,-0.43065141622868053,-0.7499815309415162
1,-0.6802242583385582,-0.6019046109862844,-0.6019046109862844,-1.0371408213261437
1,-0.6802242583385582,-0.4306514162286805,-0.43065141622868053,-0.7499815309415162
0,-0.4331702426856125,-0.4306514162286805,-0.43065141622868053,-0.8320270424799813
0,-0.9272782739915039,-0.6019046109862844,-0.6019046109862844,-0.9550953097876786
1,-0.9272782739915039,-0.6019046109862844,-0.6019046109862844,-0.9550953097876786
0,-0.9272782739915039,-0.6019046109862844,-0.6019046109862844,-0.9550953097876786
1,-0.9272782739915039,0.25436136280173527,0.2543613628017352,0.972974211366248
0,-0.6802242583385582,0.08310816804413133,0.08310816804413128,0.19354185175083083
0,-0.6802242583385582,0.939374141832151,0.939374141832151,1.7934293267508976
1,-0.9272782739915039,-0.7731578057438884,-0.7731578057438884,-1.3243001117107709
0,-0.9272782739915039,-0.7731578057438884,-0.7731578057438884,-1.3243001117107709
0,-0.9272782739915039,-0.7731578057438884,-0.7731578057438884,-1.3243001117107709
0,-0.9272782739915039,-0.7731578057438884,-0.7731578057438884,-1.3243001117107709
0,-0.9272782739915039,-0.7731578057438884,-0.7731578057438884,-1.3243001117107709
0,-0.9272782739915039,-0.7731578057438884,-0.7731578057438884,-1.3243001117107709
0,-0.9272782739915039,-0.7731578057438884,-0.7731578057438884,-1.3243001117107709
0,-0.9272782739915039,-0.7731578057438884,-0.7731578057438884,-1.3243001117107709
0,-0.9272782739915039,-0.7731578057438884,-0.7731578057438884,-1.3243001117107709
0,-0.9272782739915039,-0.7731578057438884,-0.7731578057438884,-1.3243001117107709
1,-0.9272782739915039,-0.7731578057438884,-0.7731578057438884,-1.3243001117107709
1,-0.9272782739915039,-0.7731578057438884,-0.7731578057438884,-1.3243001117107709
1,-0.9272782739915039,-0.7731578057438884,-0.7731578057438884,-1.3243001117107709
0,-0.9272782739915039,-0.7731578057438884,-0.7731578057438884,-1.3243001117107709
0,-0.9272782739915039,-0.7731578057438884,-0.7731578057438884,-1.3243001117107709
0,-0.9272782739915039,-0.7731578057438884,-0.7731578057438884,-1.3243001117107709
0,-0.9272782739915039,-0.7731578057438884,-0.7731578057438884,-1.3243001117107709
0,-0.9272782739915039,-0.7731578057438884,-0.7731578057438884,-1.3243001117107709
0,-0.9272782739915039,-0.7731578057438884,-0.7731578057438884,-1.3243001117107709
0,-0.9272782739915039,-0.7731578057438884,-0.7731578057438884,-1.3243001117107709
0,-0.9272782739915039,-0.7731578057438884,-0.7731578057438884,-1.3243001117107709
0,-0.9272782739915039,-0.7731578057438884,-0.7731578057438884,-1.3243001117107709
0,0.18446479644675162,0.768120947074547,0.768120947074547,0.029450828673900892
1,0.18446479644675162,-0.25939822147107655,-0.2593982214710766,-0.7499815309415162
1,-0.6802242583385582,-0.0881450267134726,-0.08814502671347266,-0.05259468286456407
1,-0.6802242583385582,0.08310816804413133,0.08310816804413128,0.2755873632892958
0,-0.9272782739915039,-0.4306514162286805,-0.43065141622868053,-0.5038449963261213
1,-0.6802242583385582,-0.25939822147107655,-0.2593982214710766,-0.33975397324919143
0,0.0609377886202788,-0.25939822147107655,-0.2593982214710766,-0.7499815309415162
0,-0.9272782739915039,-0.25939822147107655,-0.2593982214710766,0.029450828673900892
0,-0.6802242583385582,1.110627336589755,1.110627336589755,2.2036568844432223
0,0.4315188120996973,0.4256145575593392,0.42561455755933914,-0.33975397324919143
0,0.18446479644675162,0.5968677523169431,0.5968677523169431,-0.05259468286456407
0,-0.6802242583385582,-0.0881450267134726,-0.08814502671347266,-0.01157192709533159
0,-0.6802242583385582,-0.25939822147107655,-0.2593982214710766,-0.33975397324919143
0,-0.18611622703266686,1.6243869208625665,1.624386920862567,1.7524065709816652
1,-0.6802242583385582,-0.0881450267134726,-0.08814502671347266,0.029450828673900892
0,-0.6802242583385582,0.25436136280173527,0.2543613628017352,0.7268376767508531
0,-0.6802242583385582,0.25436136280173527,0.2543613628017352,0.7268376767508531
0,-0.9272782739915039,-0.25939822147107655,-0.2593982214710766,0.029450828673900892
0,0.18446479644675162,0.939374141832151,0.939374141832151,0.31661011905852826
0,-0.9272782739915039,-0.6019046109862844,-0.6019046109862844,-0.8320270424799813
1,-0.9272782739915039,-0.0881450267134726,-0.08814502671347266,0.5217238979046906
1,-0.06258921920619402,0.4256145575593392,0.42561455755933914,0.15251909598159832
0,-0.6802242583385582,0.08310816804413133,0.08310816804413128,0.5217238979046906
0,0.18446479644675162,0.25436136280173527,0.2543613628017352,-0.216685705941494
0,-0.06258921920619402,0.5968677523169431,0.5968677523169431,0.4396783863662257
0,-0.6802242583385582,0.08310816804413133,0.08310816804413128,0.7268376767508531
0,-0.6802242583385582,0.25436136280173527,0.2543613628017352,0.972974211366248
1,-0.4331702426856125,-0.6019046109862844,-0.6019046109862844,-0.9550953097876786
0,-0.6802242583385582,0.25436136280173527,0.2543613628017352,0.972974211366248
0,0.18446479644675162,0.5968677523169431,0.5968677523169431,0.15251909598159832
0,0.18446479644675162,0.08310816804413133,0.08310816804413128,-0.33975397324919143
0,-0.9272782739915039,-0.6019046109862844,-0.6019046109862844,-0.7499815309415162
0,-0.9272782739915039,0.25436136280173527,0.2543613628017352,1.7113838152124325
0,0.18446479644675162,0.08310816804413133,0.08310816804413128,-0.29873121747995895
0,0.18446479644675162,-0.4306514162286805,-0.43065141622868053,-0.8320270424799813
0,-0.6802242583385582,-0.7731578057438884,-0.7731578057438884,-1.242254600172306
0,-0.6802242583385582,-0.7731578057438884,-0.7731578057438884,-1.242254600172306
0,-0.6802242583385582,-0.7731578057438884,-0.7731578057438884,-1.242254600172306
0,-0.6802242583385582,-0.7731578057438884,-0.7731578057438884,-1.242254600172306
0,-0.6802242583385582,-0.7731578057438884,-0.7731578057438884,-1.242254600172306
1,-0.6802242583385582,-0.7731578057438884,-0.7731578057438884,-1.242254600172306
0,-0.6802242583385582,-0.7731578057438884,-0.7731578057438884,-1.242254600172306
0,-0.6802242583385582,-0.7731578057438884,-0.7731578057438884,-1.242254600172306
0,-0.6802242583385582,-0.7731578057438884,-0.7731578057438884,-1.242254600172306
0,-0.6802242583385582,-0.7731578057438884,-0.7731578057438884,-1.242254600172306
0,-0.6802242583385582,-0.7731578057438884,-0.7731578057438884,-1.242254600172306
1,-0.6802242583385582,-0.7731578057438884,-0.7731578057438884,-1.242254600172306
1,-0.6802242583385582,-0.7731578057438884,-0.7731578057438884,-1.242254600172306
0,-0.6802242583385582,-0.7731578057438884,-0.7731578057438884,-1.242254600172306
1,-0.6802242583385582,-0.7731578057438884,-0.7731578057438884,-1.242254600172306
1,-0.6802242583385582,-0.7731578057438884,-0.7731578057438884,-1.242254600172306
0,-0.6802242583385582,-0.7731578057438884,-0.7731578057438884,-1.242254600172306
0,-0.6802242583385582,-0.4306514162286805,-0.43065141622868053,-0.4217994847876564
0,-0.6802242583385582,-0.7731578057438884,-0.7731578057438884,-1.242254600172306
0,-0.6802242583385582,-0.7731578057438884,-0.7731578057438884,-1.242254600172306
0,-0.6802242583385582,-0.7731578057438884,-0.7731578057438884,-1.242254600172306
1,-0.6802242583385582,-0.7731578057438884,-0.7731578057438884,-1.242254600172306
0,-0.6802242583385582,-0.7731578057438884,-0.7731578057438884,-1.242254600172306
0,0.0609377886202788,0.4256145575593392,0.42561455755933914,0.19354185175083083
0,0.5550458199261701,0.25436136280173527,0.2543613628017352,-0.33975397324919143
0,-0.18611622703266686,0.768120947074547,0.768120947074547,1.1780879902124104
0,0.18446479644675162,-0.4306514162286805,-0.43065141622868053,-0.7910042867107487
0,-0.6802242583385582,-0.6019046109862844,-0.6019046109862844,-0.8320270424799813
0,-0.9272782739915039,-0.25939822147107655,-0.2593982214710766,0.35763287482776074
0,-0.18611622703266686,0.5968677523169431,0.5968677523169431,0.972974211366248
1,-0.18611622703266686,0.4256145575593392,0.42561455755933914,0.7268376767508531
0,0.18446479644675162,2.823159284165794,2.8231592841657944,2.6138844421355474
1,-0.6802242583385582,-0.4306514162286805,-0.43065141622868053,-0.3807767290184239
1,0.18446479644675162,1.9668933103777744,1.9668933103777748,1.83445208252013
0,-0.06258921920619402,-0.6019046109862844,-0.6019046109862844,-0.9550953097876786
0,-0.6802242583385582,-0.0881450267134726,-0.08814502671347266,0.48070114213545817
0,0.18446479644675162,1.110627336589755,1.110627336589755,0.972974211366248
0,-0.3096432348591397,1.110627336589755,1.110627336589755,2.1216113729047574
0,0.18446479644675162,-0.6019046109862844,-0.6019046109862844,-0.9550953097876786
0,0.18446479644675162,-0.6019046109862844,-0.6019046109862844,-0.9550953097876786
0,0.18446479644675162,-0.6019046109862844,-0.6019046109862844,-0.9550953097876786
0,-0.9272782739915039,0.08310816804413133,0.08310816804413128,1.6703610594432001
1,0.18446479644675162,0.4256145575593392,0.42561455755933914,0.2755873632892958
1,0.18446479644675162,-0.4306514162286805,-0.43065141622868053,-0.7499815309415162
0,0.3079918042732245,1.281880531347359,1.281880531347359,1.0139969671354805
0,-0.9272782739915039,-0.4306514162286805,-0.43065141622868053,0.029450828673900892
0,0.8020998355791158,0.4256145575593392,0.42561455755933914,-0.2577084617107265
0,0.18446479644675162,0.25436136280173527,0.2543613628017352,0.11149634021236585
0,-0.6802242583385582,-0.4306514162286805,-0.43065141622868053,-0.2577084617107265
0,0.3079918042732245,1.110627336589755,1.110627336589755,0.972974211366248
0,-0.6802242583385582,-0.25939822147107655,-0.2593982214710766,0.2755873632892958
1,0.18446479644675162,1.4531337261049626,1.4531337261049628,1.5883155479047353
0,-0.9272782739915039,-0.6019046109862844,-0.6019046109862844,-0.46282224055688886
1,-0.9272782739915039,-0.4306514162286805,-0.43065141622868053,0.15251909598159832
0,-0.6802242583385582,-0.0881450267134726,-0.08814502671347266,0.972974211366248
1,-0.6802242583385582,-0.25939822147107655,-0.2593982214710766,0.35763287482776074
0,-0.803751266165031,-0.6019046109862844,-0.6019046109862844,-0.46282224055688886
0,0.18446479644675162,0.4256145575593392,0.42561455755933914,0.48070114213545817
0,-0.6802242583385582,0.25436136280173527,0.2543613628017352,1.9575203498278275
0,0.4315188120996973,-0.25939822147107655,-0.2593982214710766,-0.5448677520953539
0,0.8020998355791158,0.939374141832151,0.939374141832151,0.2345646075200633
0,0.8020998355791158,0.25436136280173527,0.2543613628017352,-0.2577084617107265
0,-0.3096432348591397,-0.6019046109862844,-0.6019046109862844,-0.7499815309415162
0,-0.6802242583385582,-0.0881450267134726,-0.08814502671347266,0.972974211366248
0,-0.6802242583385582,-0.0881450267134726,-0.08814502671347266,0.972974211366248
0,-0.6802242583385582,-0.25939822147107655,-0.2593982214710766,0.48070114213545817
0,0.5550458199261701,1.281880531347359,1.281880531347359,0.9319514555970155
0,-0.6802242583385582,-0.4306514162286805,-0.43065141622868053,-0.01157192709533159
0,0.5550458199261701,2.1381465051353783,2.1381465051353787,1.7934293267508976
0,0.18446479644675162,0.4256145575593392,0.42561455755933914,0.5627466536739232
0,0.5550458199261701,1.7956401156201705,1.795640115620171,1.4652472805970378
1,0.5550458199261701,-0.25939822147107655,-0.2593982214710766,-0.5038449963261213
0,0.5550458199261701,-0.0881450267134726,-0.08814502671347266,-0.33975397324919143
0,-0.18611622703266686,-0.6019046109862844,-0.6019046109862844,-0.7499815309415162
0,0.18446479644675162,-0.0881450267134726,-0.08814502671347266,-0.05259468286456407
0,0.18446479644675162,-0.6019046109862844,-0.6019046109862844,-0.8320270424799813
0,-0.6802242583385582,-0.6019046109862844,-0.6019046109862844,-0.46282224055688886
1,-0.06258921920619402,-0.6019046109862844,-0.6019046109862844,-0.7499815309415162
1,0.5550458199261701,-0.0881450267134726,-0.08814502671347266,-0.2577084617107265
1,0.5550458199261701,-0.4306514162286805,-0.43065141622868053,-0.6269132636338188
1,0.5550458199261701,-0.25939822147107655,-0.2593982214710766,-0.46282224055688886
0,0.8020998355791158,1.110627336589755,1.110627336589755,0.6447921652123881
0,0.18446479644675162,-0.25939822147107655,-0.2593982214710766,-0.2577084617107265
0,0.18446479644675162,-0.0881450267134726,-0.08814502671347266,0.029450828673900892
0,0.18446479644675162,-0.0881450267134726,-0.08814502671347266,0.029450828673900892
0,-0.9272782739915039,-0.25939822147107655,-0.2593982214710766,1.4652472805970378
0,0.5550458199261701,-0.0881450267134726,-0.08814502671347266,-0.2577084617107265
0,0.5550458199261701,-0.6019046109862844,-0.6019046109862844,-0.8320270424799813
0,0.5550458199261701,-0.6019046109862844,-0.6019046109862844,-0.8320270424799813
0,0.5550458199261701,-0.6019046109862844,-0.6019046109862844,-0.8320270424799813
0,0.5550458199261701,-0.6019046109862844,-0.6019046109862844,-0.8320270424799813
0,0.5550458199261701,-0.6019046109862844,-0.6019046109862844,-0.8320270424799813
0,0.5550458199261701,-0.6019046109862844,-0.6019046109862844,-0.8320270424799813
0,-0.9272782739915039,-0.4306514162286805,-0.43065141622868053,0.7268376767508531
0,0.5550458199261701,0.08310816804413133,0.08310816804413128,-0.01157192709533159
1,0.18446479644675162,-0.0881450267134726,-0.08814502671347266,0.11149634021236585
0,-0.6802242583385582,-0.0881450267134726,-0.08814502671347266,1.6293383036739677
0,0.18446479644675162,-0.4306514162286805,-0.43065141622868053,-0.46282224055688886
0,0.8020998355791158,-0.25939822147107655,-0.2593982214710766,-0.46282224055688886
0,0.8020998355791158,-0.4306514162286805,-0.43065141622868053,-0.6269132636338188
0,0.18446479644675162,-0.0881450267134726,-0.08814502671347266,0.15251909598159832
0,0.18446479644675162,-0.6019046109862844,-0.6019046109862844,-0.7499815309415162
0,0.3079918042732245,0.5968677523169431,0.5968677523169431,1.055019722904713
0,-0.06258921920619402,-0.7731578057438884,-0.7731578057438884,-1.0371408213261437
0,-0.06258921920619402,-0.7731578057438884,-0.7731578057438884,-1.0371408213261437
0,-0.6802242583385582,-0.6019046109862844,-0.6019046109862844,-0.216685705941494
0,0.18446479644675162,-0.6019046109862844,-0.6019046109862844,-0.7089587751722838
0,0.5550458199261701,-0.25939822147107655,-0.2593982214710766,-0.33975397324919143
1,0.18446479644675162,0.5968677523169431,0.5968677523169431,1.5472927921355026
0,0.18446479644675162,-0.0881450267134726,-0.08814502671347266,0.2755873632892958
0,0.6785728277526429,1.7956401156201705,1.795640115620171,1.9575203498278275
1,-0.06258921920619402,-0.0881450267134726,-0.08814502671347266,0.6858149209816206
0,0.18446479644675162,-0.25939822147107655,-0.2593982214710766,-0.01157192709533159
1,0.5550458199261701,0.4256145575593392,0.42561455755933914,0.6447921652123881
0,0.8020998355791158,0.25436136280173527,0.2543613628017352,0.15251909598159832
0,0.5550458199261701,-0.6019046109862844,-0.6019046109862844,-0.7499815309415162
0,-0.9272782739915039,-0.6019046109862844,-0.6019046109862844,0.2755873632892958
0,0.5550458199261701,1.7956401156201705,1.795640115620171,2.6138844421355474
1,0.5550458199261701,-0.25939822147107655,-0.2593982214710766,-0.2577084617107265
0,0.8020998355791158,0.25436136280173527,0.2543613628017352,0.19354185175083083
0,0.5550458199261701,0.25436136280173527,0.2543613628017352,0.5217238979046906
0,0.8020998355791158,0.08310816804413133,0.08310816804413128,0.029450828673900892
1,0.8020998355791158,0.08310816804413133,0.08310816804413128,0.029450828673900892
1,0.18446479644675162,0.25436136280173527,0.2543613628017352,1.137065234443178
0,0.8020998355791158,-0.6019046109862844,-0.6019046109862844,-0.7499815309415162
1,0.8020998355791158,-0.4306514162286805,-0.43065141622868053,-0.5448677520953539
0,0.18446479644675162,-0.4306514162286805,-0.43065141622868053,-0.2577084617107265
0,0.18446479644675162,0.25436136280173527,0.2543613628017352,1.2191107459816428
1,0.18446479644675162,-0.7731578057438884,-0.7731578057438884,-0.9550953097876786
0,-0.06258921920619402,-0.4306514162286805,-0.43065141622868053,-0.01157192709533159
0,0.5550458199261701,-0.25939822147107655,-0.2593982214710766,-0.17566295017226152
0,1.6667888903644257,5.563210400287457,5.563210400287457,2.6138844421355474
0,0.18446479644675162,0.08310816804413133,0.08310816804413128,0.972974211366248
0,0.18446479644675162,-0.7731578057438884,-0.7731578057438884,-0.9550953097876786
0,0.18446479644675162,-0.7731578057438884,-0.7731578057438884,-0.9550953097876786
0,0.18446479644675162,-0.7731578057438884,-0.7731578057438884,-0.9550953097876786
0,0.18446479644675162,-0.7731578057438884,-0.7731578057438884,-0.9550953097876786
0,0.18446479644675162,-0.7731578057438884,-0.7731578057438884,-0.9550953097876786
0,0.18446479644675162,-0.7731578057438884,-0.7731578057438884,-0.9550953097876786
0,0.18446479644675162,-0.7731578057438884,-0.7731578057438884,-0.9550953097876786
0,0.18446479644675162,-0.7731578057438884,-0.7731578057438884,-0.9550953097876786
0,0.18446479644675162,-0.6019046109862844,-0.6019046109862844,-0.5448677520953539
0,0.18446479644675162,-0.0881450267134726,-0.08814502671347266,0.6447921652123881
0,0.18446479644675162,-0.6019046109862844,-0.6019046109862844,-0.5448677520953539
0,0.8020998355791158,-0.25939822147107655,-0.2593982214710766,-0.2577084617107265
0,-0.6802242583385582,-0.6019046109862844,-0.6019046109862844,0.2755873632892958
0,0.8020998355791158,0.08310816804413133,0.08310816804413128,0.2345646075200633
0,0.5550458199261701,-0.4306514162286805,-0.43065141622868053,-0.33975397324919143
0,-0.06258921920619402,-0.6019046109862844,-0.6019046109862844,-0.33975397324919143
0,1.41973487471148,1.7956401156201705,1.795640115620171,1.2191107459816428
0,0.5550458199261701,0.08310816804413133,0.08310816804413128,0.6858149209816206
0,0.18446479644675162,-0.6019046109862844,-0.6019046109862844,-0.4217994847876564
0,-0.6802242583385582,-0.4306514162286805,-0.43065141622868053,1.5062700363662702
0,1.41973487471148,1.281880531347359,1.281880531347359,0.9319514555970155
0,0.18446479644675162,0.08310816804413133,0.08310816804413128,1.5062700363662702
1,0.5550458199261701,-0.6019046109862844,-0.6019046109862844,-0.5448677520953539
0,1.6667888903644257,1.6243869208625665,1.624386920862567,0.9319514555970155
0,0.5550458199261701,-0.25939822147107655,-0.2593982214710766,0.15251909598159832
0,0.18446479644675162,-0.6019046109862844,-0.6019046109862844,-0.33975397324919143
1,0.8020998355791158,-0.0881450267134726,-0.08814502671347266,0.2345646075200633
1,-0.6802242583385582,-0.6019046109862844,-0.6019046109862844,0.6858149209816206
0,0.5550458199261701,-0.4306514162286805,-0.43065141622868053,-0.13464019440302905
0,-0.6802242583385582,-0.6019046109862844,-0.6019046109862844,0.7268376767508531
0,-0.06258921920619402,-0.25939822147107655,-0.2593982214710766,1.2601335017508752
0,0.5550458199261701,-0.25939822147107655,-0.2593982214710766,0.2345646075200633
1,0.18446479644675162,-0.4306514162286805,-0.43065141622868053,0.2345646075200633
0,0.5550458199261701,-0.0881450267134726,-0.08814502671347266,0.6447921652123881
0,0.5550458199261701,-0.7731578057438884,-0.7731578057438884,-0.8320270424799813
0,0.5550458199261701,-0.7731578057438884,-0.7731578057438884,-0.8320270424799813
0,0.5550458199261701,-0.7731578057438884,-0.7731578057438884,-0.8320270424799813
0,0.5550458199261701,-0.7731578057438884,-0.7731578057438884,-0.8320270424799813
0,0.5550458199261701,-0.7731578057438884,-0.7731578057438884,-0.8320270424799813
0,0.5550458199261701,-0.7731578057438884,-0.7731578057438884,-0.8320270424799813
0,0.5550458199261701,-0.7731578057438884,-0.7731578057438884,-0.8320270424799813
0,0.5550458199261701,-0.7731578057438884,-0.7731578057438884,-0.8320270424799813
0,0.5550458199261701,0.25436136280173527,0.2543613628017352,1.5472927921355026
0,0.5550458199261701,-0.7731578057438884,-0.7731578057438884,-0.8320270424799813
0,0.5550458199261701,-0.7731578057438884,-0.7731578057438884,-0.8320270424799813
0,-0.06258921920619402,-0.4306514162286805,-0.43065141622868053,0.7268376767508531
0,0.5550458199261701,0.25436136280173527,0.2543613628017352,1.5883155479047353
0,0.18446479644675162,-0.25939822147107655,-0.2593982214710766,0.972974211366248
0,0.18446479644675162,-0.25939822147107655,-0.2593982214710766,1.0139969671354805
0,-0.6802242583385582,-0.6019046109862844,-0.6019046109862844,1.0139969671354805
0,0.18446479644675162,-0.25939822147107655,-0.2593982214710766,1.0960424786739453
0,0.8020998355791158,-0.25939822147107655,-0.2593982214710766,0.2345646075200633
0,0.8020998355791158,0.768120947074547,0.768120947074547,2.2446796402124547
1,1.41973487471148,-0.6019046109862844,-0.6019046109862844,-0.5448677520953539
0,1.41973487471148,-0.4306514162286805,-0.43065141622868053,-0.33975397324919143
0,0.8020998355791158,0.4256145575593392,0.42561455755933914,1.7113838152124325
1,1.41973487471148,-0.4306514162286805,-0.43065141622868053,-0.33975397324919143
0,1.0491538512320615,-0.6019046109862844,-0.6019046109862844,-0.46282224055688886
0,1.6667888903644257,-0.0881450267134726,-0.08814502671347266,-0.05259468286456407
0,1.6667888903644257,0.4256145575593392,0.42561455755933914,0.48070114213545817
0,0.8020998355791158,-0.4306514162286805,-0.43065141622868053,-0.01157192709533159
0,0.5550458199261701,-0.0881450267134726,-0.08814502671347266,1.2191107459816428
0,0.5550458199261701,-0.4306514162286805,-0.43065141622868053,0.2755873632892958
0,0.8020998355791158,-0.7731578057438884,-0.7731578057438884,-0.7499815309415162
0,0.8020998355791158,-0.7731578057438884,-0.7731578057438884,-0.7499815309415162
0,0.8020998355791158,-0.7731578057438884,-0.7731578057438884,-0.7499815309415162
0,0.8020998355791158,-0.7731578057438884,-0.7731578057438884,-0.7499815309415162
0,0.8020998355791158,-0.7731578057438884,-0.7731578057438884,-0.7499815309415162
0,0.8020998355791158,-0.7731578057438884,-0.7731578057438884,-0.7499815309415162
0,0.8020998355791158,-0.7731578057438884,-0.7731578057438884,-0.7499815309415162
0,0.8020998355791158,-0.25939822147107655,-0.2593982214710766,0.4396783863662257
0,0.8020998355791158,-0.7731578057438884,-0.7731578057438884,-0.7499815309415162
0,0.8020998355791158,-0.7731578057438884,-0.7731578057438884,-0.7499815309415162
0,0.8020998355791158,-0.7731578057438884,-0.7731578057438884,-0.7499815309415162
0,0.8020998355791158,-0.7731578057438884,-0.7731578057438884,-0.7499815309415162
0,0.8020998355791158,-0.7731578057438884,-0.7731578057438884,-0.7499815309415162
0,0.8020998355791158,-0.6019046109862844,-0.6019046109862844,-0.33975397324919143
0,1.41973487471148,-0.6019046109862844,-0.6019046109862844,-0.46282224055688886
0,0.8020998355791158,-0.6019046109862844,-0.6019046109862844,-0.29873121747995895
0,1.41973487471148,-0.6019046109862844,-0.6019046109862844,-0.46282224055688886
0,1.41973487471148,-0.6019046109862844,-0.6019046109862844,-0.46282224055688886
0,0.5550458199261701,-0.25939822147107655,-0.2593982214710766,0.9319514555970155
0,0.8020998355791158,-0.0881450267134726,-0.08814502671347266,1.055019722904713
0,1.6667888903644257,-0.6019046109862844,-0.6019046109862844,-0.46282224055688886
0,0.5550458199261701,-0.0881450267134726,-0.08814502671347266,1.6293383036739677
0,1.6667888903644257,-0.4306514162286805,-0.43065141622868053,-0.2577084617107265
0,0.8020998355791158,-0.4306514162286805,-0.43065141622868053,0.2345646075200633
0,-0.06258921920619402,-0.6019046109862844,-0.6019046109862844,0.7268376767508531
0,-0.06258921920619402,-0.6019046109862844,-0.6019046109862844,0.7268376767508531
1,0.8020998355791158,0.25436136280173527,0.2543613628017352,2.16263412867399
0,0.5550458199261701,-0.25939822147107655,-0.2593982214710766,1.2191107459816428
0,0.5550458199261701,-0.6019046109862844,-0.6019046109862844,0.029450828673900892
0,0.8020998355791158,0.25436136280173527,0.2543613628017352,2.408770663289385
0,1.41973487471148,-0.6019046109862844,-0.6019046109862844,-0.3807767290184239
0,0.5550458199261701,-0.4306514162286805,-0.43065141622868053,0.7268376767508531
0,1.6667888903644257,1.4531337261049626,1.4531337261049628,2.408770663289385
0,1.0491538512320615,0.4256145575593392,0.42561455755933914,2.4908161748278497
0,0.8020998355791158,-0.4306514162286805,-0.43065141622868053,0.48070114213545817
0,0.18446479644675162,-0.4306514162286805,-0.43065141622868053,1.7113838152124325
0,0.18446479644675162,-0.6019046109862844,-0.6019046109862844,0.7268376767508531
0,0.18446479644675162,-0.4306514162286805,-0.43065141622868053,1.7113838152124325
0,1.6667888903644257,1.110627336589755,1.110627336589755,2.1216113729047574
0,1.41973487471148,-0.4306514162286805,-0.43065141622868053,0.029450828673900892
0,1.6667888903644257,-0.6019046109862844,-0.6019046109862844,-0.33975397324919143
0,1.6667888903644257,-0.6019046109862844,-0.6019046109862844,-0.33975397324919143
0,1.6667888903644257,0.4256145575593392,0.42561455755933914,1.2191107459816428
0,0.8020998355791158,-0.4306514162286805,-0.43065141622868053,0.6447921652123881
0,1.6667888903644257,-0.4306514162286805,-0.43065141622868053,-0.05259468286456407
0,1.41973487471148,-0.4306514162286805,-0.43065141622868053,0.15251909598159832
0,1.6667888903644257,-0.6019046109862844,-0.6019046109862844,-0.2577084617107265
0,1.41973487471148,-0.7731578057438884,-0.7731578057438884,-0.5448677520953539
0,1.41973487471148,-0.7731578057438884,-0.7731578057438884,-0.5448677520953539
0,1.41973487471148,-0.7731578057438884,-0.7731578057438884,-0.5448677520953539
0,1.41973487471148,-0.7731578057438884,-0.7731578057438884,-0.5448677520953539
0,1.41973487471148,-0.7731578057438884,-0.7731578057438884,-0.5448677520953539
0,1.41973487471148,-0.7731578057438884,-0.7731578057438884,-0.5448677520953539
0,1.41973487471148,-0.7731578057438884,-0.7731578057438884,-0.5448677520953539
0,1.41973487471148,-0.7731578057438884,-0.7731578057438884,-0.5448677520953539
0,1.41973487471148,-0.7731578057438884,-0.7731578057438884,-0.5448677520953539
1,1.41973487471148,-0.7731578057438884,-0.7731578057438884,-0.5448677520953539
0,1.41973487471148,-0.7731578057438884,-0.7731578057438884,-0.5448677520953539
0,1.41973487471148,-0.7731578057438884,-0.7731578057438884,-0.5448677520953539
0,1.41973487471148,-0.0881450267134726,-0.08814502671347266,1.055019722904713
0,1.6667888903644257,-0.25939822147107655,-0.2593982214710766,0.4396783863662257
0,1.41973487471148,-0.25939822147107655,-0.2593982214710766,0.7268376767508531
1,1.5432618825379527,-0.7731578057438884,-0.7731578057438884,-0.5038449963261213
0,0.18446479644675162,-0.6019046109862844,-0.6019046109862844,1.4652472805970378
0,1.6667888903644257,-0.0881450267134726,-0.08814502671347266,0.972974211366248
0,1.6667888903644257,-0.4306514162286805,-0.43065141622868053,0.2345646075200633
0,1.6667888903644257,-0.4306514162286805,-0.43065141622868053,0.2755873632892958
0,0.5550458199261701,-0.4306514162286805,-0.43065141622868053,1.99854310559706
0,1.41973487471148,-0.6019046109862844,-0.6019046109862844,0.029450828673900892
1,2.0373699138438437,-0.0881450267134726,-0.08814502671347266,0.6037694094431556
0,1.6667888903644257,0.08310816804413133,0.08310816804413128,1.4652472805970378
0,1.6667888903644257,-0.7731578057438884,-0.7731578057438884,-0.46282224055688886
0,1.6667888903644257,-0.7731578057438884,-0.7731578057438884,-0.46282224055688886
0,1.6667888903644257,-0.7731578057438884,-0.7731578057438884,-0.46282224055688886
0,1.6667888903644257,-0.7731578057438884,-0.7731578057438884,-0.46282224055688886
0,1.6667888903644257,-0.7731578057438884,-0.7731578057438884,-0.46282224055688886
0,1.6667888903644257,-0.7731578057438884,-0.7731578057438884,-0.46282224055688886
0,1.6667888903644257,-0.7731578057438884,-0.7731578057438884,-0.46282224055688886
0,1.6667888903644257,-0.7731578057438884,-0.7731578057438884,-0.46282224055688886
0,1.6667888903644257,-0.25939822147107655,-0.2593982214710766,0.7678604325200855
0,1.41973487471148,0.08310816804413133,0.08310816804413128,2.1216113729047574
0,1.6667888903644257,-0.4306514162286805,-0.43065141622868053,0.5627466536739232
0,1.41973487471148,-0.6019046109862844,-0.6019046109862844,0.2755873632892958
0,1.41973487471148,-0.4306514162286805,-0.43065141622868053,1.2191107459816428
0,0.8020998355791158,-0.6019046109862844,-0.6019046109862844,1.4652472805970378
0,1.41973487471148,-0.4306514162286805,-0.43065141622868053,1.4652472805970378
0,1.6667888903644257,-0.25939822147107655,-0.2593982214710766,2.16263412867399
0,1.6667888903644257,-0.4306514162286805,-0.43065141622868053,2.2446796402124547
0,1.6667888903644257,-0.6019046109862844,-0.6019046109862844,2.16263412867399
0,3.1491129842820995,-0.4306514162286805,-0.43065141622868053,1.2191107459816428
0,3.519694007761518,-0.7731578057438884,-0.7731578057438884,0.15251909598159832
0,3.519694007761518,-0.7731578057438884,-0.7731578057438884,0.15251909598159832
0,3.7667480234144635,-0.7731578057438884,-0.7731578057438884,0.2345646075200633
0,7.96666628951454,-0.7731578057438884,-0.7731578057438884,1.6293383036739677
1,-0.9272782739915039,6.419476374075477,6.419476374075477,2.1216113729047574
1,-0.4331702426856125,2.823159284165794,2.8231592841657944,-0.2577084617107265
1,-0.9272782739915039,4.8781976212570415,4.8781976212570415,1.7524065709816652
0,-0.9272782739915039,6.590729568833081,6.590729568833081,2.6138844421355474
1,-1.1743322896444495,3.5081720631962097,3.50817206319621,1.7113838152124325
1,-0.9272782739915039,6.076969984560269,6.076969984560269,2.6138844421355474
1,-0.803751266165031,2.65190608940819,2.6519060894081905,0.31661011905852826
0,-0.9272782739915039,0.939374141832151,0.939374141832151,-0.46282224055688886
1,-0.9272782739915039,2.65190608940819,2.6519060894081905,0.7268376767508531
1,-0.9272782739915039,1.281880531347359,1.281880531347359,-0.09361743863379655
1,-0.6802242583385582,-0.25939822147107655,-0.2593982214710766,-1.242254600172306
0,-0.9272782739915039,0.939374141832151,0.939374141832151,-0.33975397324919143
0,-0.9272782739915039,0.939374141832151,0.939374141832151,-0.2577084617107265
0,-0.803751266165031,1.4531337261049626,1.4531337261049628,0.029450828673900892
1,-0.6802242583385582,1.7956401156201705,1.795640115620171,0.15251909598159832
0,-0.6802242583385582,0.08310816804413133,0.08310816804413128,-0.8320270424799813
1,-0.803751266165031,-0.0881450267134726,-0.08814502671347266,-0.9140725540184462
1,-0.6802242583385582,4.706944426499438,4.706944426499438,2.6138844421355474
1,-0.803751266165031,0.768120947074547,0.768120947074547,-0.05259468286456407
1,-0.6802242583385582,0.768120947074547,0.768120947074547,-0.2577084617107265
1,-0.9272782739915039,0.939374141832151,0.939374141832151,0.2345646075200633
1,-0.9272782739915039,0.939374141832151,0.939374141832151,0.2755873632892958
1,-0.6802242583385582,1.281880531347359,1.281880531347359,0.19354185175083083
1,-1.0508052818179767,0.768120947074547,0.768120947074547,0.35763287482776074
0,-0.6802242583385582,0.5968677523169431,0.5968677523169431,-0.2577084617107265
0,-0.9272782739915039,-0.25939822147107655,-0.2593982214710766,-0.9550953097876786
1,-0.9272782739915039,-0.0881450267134726,-0.08814502671347266,-0.7499815309415162
0,-0.9272782739915039,1.6243869208625665,1.624386920862567,1.2191107459816428
0,-0.5566972505120853,3.165665673681002,3.1656656736810023,1.83445208252013
1,-0.9272782739915039,0.08310816804413133,0.08310816804413128,-0.5038449963261213
1,-0.6802242583385582,-0.0881450267134726,-0.08814502671347266,-0.7499815309415162
1,-0.9272782739915039,-0.25939822147107655,-0.2593982214710766,-0.8320270424799813
0,-0.6802242583385582,0.4256145575593392,0.42561455755933914,-0.2577084617107265
0,-0.9272782739915039,-0.25939822147107655,-0.2593982214710766,-0.8320270424799813
0,-0.9272782739915039,0.08310816804413133,0.08310816804413128,-0.33975397324919143
1,-0.6802242583385582,-0.0881450267134726,-0.08814502671347266,-0.7499815309415162
1,-0.9272782739915039,0.25436136280173527,0.2543613628017352,-0.09361743863379655
1,-0.9272782739915039,0.08310816804413133,0.08310816804413128,-0.33975397324919143
1,-0.9272782739915039,0.4256145575593392,0.42561455755933914,0.15251909598159832
1,-0.9272782739915039,-0.6019046109862844,-0.6019046109862844,-1.242254600172306
1,-0.9272782739915039,0.08310816804413133,0.08310816804413128,-0.2577084617107265
0,-0.9272782739915039,0.768120947074547,0.768120947074547,0.7268376767508531
1,-0.6802242583385582,1.7956401156201705,1.795640115620171,1.4652472805970378
1,-0.6802242583385582,-0.6019046109862844,-0.6019046109862844,-1.242254600172306
0,-1.0508052818179767,1.4531337261049626,1.4531337261049628,2.4908161748278497
1,-0.6802242583385582,-0.6019046109862844,-0.6019046109862844,-1.242254600172306
0,-0.3096432348591397,1.4531337261049626,1.4531337261049628,0.5627466536739232
0,-0.9272782739915039,-0.4306514162286805,-0.43065141622868053,-0.9550953097876786
1,-0.9272782739915039,1.110627336589755,1.110627336589755,1.4652472805970378
1,-0.6802242583385582,0.25436136280173527,0.2543613628017352,-0.09361743863379655
0,-0.6802242583385582,-0.25939822147107655,-0.2593982214710766,-0.7499815309415162
1,-0.9272782739915039,0.08310816804413133,0.08310816804413128,0.029450828673900892
1,-0.6802242583385582,0.08310816804413133,0.08310816804413128,-0.2577084617107265
0,-0.9272782739915039,-0.4306514162286805,-0.43065141622868053,-0.8320270424799813
0,-0.9272782739915039,-0.25939822147107655,-0.2593982214710766,-0.46282224055688886
0,-0.6802242583385582,-0.25939822147107655,-0.2593982214710766,-0.6679360194030513
0,-0.5566972505120853,0.08310816804413133,0.08310816804413128,-0.2577084617107265
0,-0.6802242583385582,0.08310816804413133,0.08310816804413128,-0.17566295017226152
0,0.5550458199261701,-0.0881450267134726,-0.08814502671347266,-0.8320270424799813
0,-0.803751266165031,0.4256145575593392,0.42561455755933914,0.6447921652123881
1,-0.6802242583385582,0.939374141832151,0.939374141832151,1.2191107459816428
0,-0.6802242583385582,0.5968677523169431,0.5968677523169431,0.7268376767508531
1,-0.6802242583385582,1.7956401156201705,1.795640115620171,2.6138844421355474
0,-0.3096432348591397,0.768120947074547,0.768120947074547,0.5217238979046906
0,-0.6802242583385582,1.4531337261049626,1.4531337261049628,2.1216113729047574
0,-0.9272782739915039,0.5968677523169431,0.5968677523169431,1.6703610594432001
0,-0.6802242583385582,0.08310816804413133,0.08310816804413128,0.029450828673900892
0,-0.6802242583385582,0.5968677523169431,0.5968677523169431,0.8499059440585505
1,-0.6802242583385582,0.08310816804413133,0.08310816804413128,0.029450828673900892
0,-0.9272782739915039,0.08310816804413133,0.08310816804413128,0.4396783863662257
0,-0.9272782739915039,0.08310816804413133,0.08310816804413128,0.5217238979046906
0,-0.6802242583385582,-0.6019046109862844,-0.6019046109862844,-1.0371408213261437
1,-0.9272782739915039,-0.6019046109862844,-0.6019046109862844,-0.9550953097876786
0,-0.9272782739915039,-0.6019046109862844,-0.6019046109862844,-0.9550953097876786
1,-0.9272782739915039,-0.6019046109862844,-0.6019046109862844,-0.9550953097876786
1,-0.6802242583385582,0.08310816804413133,0.08310816804413128,0.15251909598159832
1,-0.803751266165031,-0.25939822147107655,-0.2593982214710766,-0.216685705941494
0,-0.06258921920619402,0.5968677523169431,0.5968677523169431,0.15251909598159832
0,0.18446479644675162,-0.0881450267134726,-0.08814502671347266,-0.6679360194030513
0,-0.9272782739915039,-0.4306514162286805,-0.43065141622868053,-0.5448677520953539
0,-0.9272782739915039,-0.7731578057438884,-0.7731578057438884,-1.3243001117107709
1,-0.9272782739915039,-0.7731578057438884,-0.7731578057438884,-1.3243001117107709
0,-0.9272782739915039,-0.7731578057438884,-0.7731578057438884,-1.3243001117107709
0,-0.9272782739915039,-0.7731578057438884,-0.7731578057438884,-1.3243001117107709
0,-0.9272782739915039,-0.7731578057438884,-0.7731578057438884,-1.3243001117107709
0,-0.9272782739915039,-0.7731578057438884,-0.7731578057438884,-1.3243001117107709
1,-0.9272782739915039,-0.7731578057438884,-0.7731578057438884,-1.3243001117107709
0,-0.9272782739915039,-0.7731578057438884,-0.7731578057438884,-1.3243001117107709
0,-0.9272782739915039,-0.7731578057438884,-0.7731578057438884,-1.3243001117107709
0,-0.9272782739915039,-0.7731578057438884,-0.7731578057438884,-1.3243001117107709
0,-0.9272782739915039,-0.7731578057438884,-0.7731578057438884,-1.3243001117107709
0,0.18446479644675162,0.939374141832151,0.939374141832151,0.15251909598159832
0,-0.9272782739915039,-0.4306514162286805,-0.43065141622868053,-0.5038449963261213
1,-0.06258921920619402,0.939374141832151,0.939374141832151,0.6037694094431556
0,-0.5566972505120853,0.939374141832151,0.939374141832151,1.6703610594432001
0,-0.803751266165031,-0.0881450267134726,-0.08814502671347266,0.15251909598159832
1,-0.803751266165031,-0.7731578057438884,-0.7731578057438884,-1.2832773559415385
0,-0.6802242583385582,0.08310816804413133,0.08310816804413128,0.35763287482776074
0,-0.9272782739915039,-0.4306514162286805,-0.43065141622868053,-0.4217994847876564
0,0.3079918042732245,0.939374141832151,0.939374141832151,0.19354185175083083
0,-0.9272782739915039,-0.6019046109862844,-0.6019046109862844,-0.8320270424799813
0,-0.6802242583385582,0.08310816804413133,0.08310816804413128,0.48070114213545817
0,-0.06258921920619402,-0.4306514162286805,-0.43065141622868053,-0.8320270424799813
0,0.5550458199261701,0.4256145575593392,0.42561455755933914,-0.33975397324919143
0,-0.6802242583385582,-0.6019046109862844,-0.6019046109862844,-0.8730497982492137
0,-0.6802242583385582,0.939374141832151,0.939374141832151,2.4908161748278497
0,-0.9272782739915039,0.25436136280173527,0.2543613628017352,1.7524065709816652
0,-0.9272782739915039,0.25436136280173527,0.2543613628017352,1.7524065709816652
0,-0.6802242583385582,-0.7731578057438884,-0.7731578057438884,-1.242254600172306
0,-0.6802242583385582,-0.7731578057438884,-0.7731578057438884,-1.242254600172306
0,-0.6802242583385582,-0.7731578057438884,-0.7731578057438884,-1.242254600172306
0,-0.6802242583385582,-0.7731578057438884,-0.7731578057438884,-1.242254600172306
1,-0.6802242583385582,-0.7731578057438884,-0.7731578057438884,-1.242254600172306
0,-0.6802242583385582,-0.7731578057438884,-0.7731578057438884,-1.242254600172306
0,-0.6802242583385582,-0.7731578057438884,-0.7731578057438884,-1.242254600172306
0,-0.6802242583385582,-0.7731578057438884,-0.7731578057438884,-1.242254600172306
0,-0.6802242583385582,-0.7731578057438884,-0.7731578057438884,-1.242254600172306
0,-0.6802242583385582,-0.7731578057438884,-0.7731578057438884,-1.242254600172306
1,-0.6802242583385582,-0.7731578057438884,-0.7731578057438884,-1.242254600172306
0,-0.6802242583385582,-0.7731578057438884,-0.7731578057438884,-1.242254600172306
0,-0.6802242583385582,0.25436136280173527,0.2543613628017352,1.137065234443178
0,-0.6802242583385582,-0.7731578057438884,-0.7731578057438884,-1.242254600172306
1,-0.6802242583385582,-0.25939822147107655,-0.2593982214710766,-0.01157192709533159
0,0.18446479644675162,0.08310816804413133,0.08310816804413128,-0.2577084617107265
1,0.4315188120996973,-0.4306514162286805,-0.43065141622868053,-0.8320270424799813
0,-0.3096432348591397,-0.0881450267134726,-0.08814502671347266,0.029450828673900892
0,-0.06258921920619402,0.5968677523169431,0.5968677523169431,0.808883188289318
0,0.18446479644675162,-0.6019046109862844,-0.6019046109862844,-0.9550953097876786
0,-0.9272782739915039,-0.0881450267134726,-0.08814502671347266,1.1780879902124104
0,-0.3096432348591397,0.939374141832151,0.939374141832151,2.2446796402124547
0,-0.18611622703266686,0.5968677523169431,0.5968677523169431,1.2191107459816428
0,-0.9272782739915039,-0.6019046109862844,-0.6019046109862844,-0.5038449963261213
0,-0.4331702426856125,-0.4306514162286805,-0.43065141622868053,-0.33975397324919143
0,0.3079918042732245,1.6243869208625665,1.624386920862567,1.5062700363662702
0,0.4315188120996973,-0.4306514162286805,-0.43065141622868053,-0.7499815309415162
0,0.18446479644675162,1.7956401156201705,1.795640115620171,2.2446796402124547
0,-0.6802242583385582,-0.0881450267134726,-0.08814502671347266,0.972974211366248
0,0.5550458199261701,0.25436136280173527,0.2543613628017352,0.029450828673900892
0,0.18446479644675162,-0.25939822147107655,-0.2593982214710766,-0.29873121747995895
1,-0.3096432348591397,0.5968677523169431,0.5968677523169431,2.2446796402124547
1,0.18446479644675162,0.4256145575593392,0.42561455755933914,0.7268376767508531
0,-0.3096432348591397,-0.0881450267134726,-0.08814502671347266,0.7268376767508531
0,0.18446479644675162,0.08310816804413133,0.08310816804413128,0.2755873632892958
0,0.0609377886202788,-0.0881450267134726,-0.08814502671347266,0.15251909598159832
1,0.5550458199261701,-0.6019046109862844,-0.6019046109862844,-0.8320270424799813
0,0.5550458199261701,-0.6019046109862844,-0.6019046109862844,-0.8320270424799813
0,0.5550458199261701,-0.6019046109862844,-0.6019046109862844,-0.8320270424799813
0,-0.9272782739915039,-0.6019046109862844,-0.6019046109862844,-0.05259468286456407
0,0.18446479644675162,-0.4306514162286805,-0.43065141622868053,-0.46282224055688886
0,0.5550458199261701,0.4256145575593392,0.42561455755933914,0.48070114213545817
0,-0.06258921920619402,-0.7731578057438884,-0.7731578057438884,-1.0371408213261437
0,0.8020998355791158,-0.0881450267134726,-0.08814502671347266,-0.29873121747995895
0,0.5550458199261701,-0.25939822147107655,-0.2593982214710766,-0.33975397324919143
0,-0.6802242583385582,-0.6019046109862844,-0.6019046109862844,-0.17566295017226152
0,0.5550458199261701,-0.4306514162286805,-0.43065141622868053,-0.5448677520953539
0,0.8020998355791158,1.7956401156201705,1.795640115620171,1.7524065709816652
0,-0.6802242583385582,-0.6019046109862844,-0.6019046109862844,-0.13464019440302905
0,0.5550458199261701,0.4256145575593392,0.42561455755933914,0.6447921652123881
0,0.18446479644675162,-0.4306514162286805,-0.43065141622868053,-0.33975397324919143
0,0.5550458199261701,0.25436136280173527,0.2543613628017352,0.4396783863662257
0,0.6785728277526429,-0.0881450267134726,-0.08814502671347266,-0.05259468286456407
0,0.8020998355791158,-0.6019046109862844,-0.6019046109862844,-0.7499815309415162
0,0.8020998355791158,-0.4306514162286805,-0.43065141622868053,-0.5448677520953539
0,0.18446479644675162,0.4256145575593392,0.42561455755933914,1.5472927921355026
0,0.18446479644675162,-0.7731578057438884,-0.7731578057438884,-0.9550953097876786
0,0.18446479644675162,-0.7731578057438884,-0.7731578057438884,-0.9550953097876786
0,0.18446479644675162,-0.7731578057438884,-0.7731578057438884,-0.9550953097876786
1,0.18446479644675162,-0.7731578057438884,-0.7731578057438884,-0.9550953097876786
0,0.18446479644675162,-0.7731578057438884,-0.7731578057438884,-0.9550953097876786
1,-0.9272782739915039,-0.4306514162286805,-0.43065141622868053,1.6703610594432001
0,-0.9272782739915039,-0.4306514162286805,-0.43065141622868053,1.7524065709816652
0,0.8020998355791158,-0.25939822147107655,-0.2593982214710766,-0.2577084617107265
0,0.8020998355791158,1.6243869208625665,1.624386920862567,2.16263412867399
0,0.8020998355791158,1.4531337261049626,1.4531337261049628,1.99854310559706
0,0.8020998355791158,0.768120947074547,0.768120947074547,1.137065234443178
0,0.8020998355791158,-0.4306514162286805,-0.43065141622868053,-0.46282224055688886
0,0.5550458199261701,-0.4306514162286805,-0.43065141622868053,-0.33975397324919143
0,1.6667888903644257,2.309399699892982,2.3093996998929827,1.137065234443178
0,0.18446479644675162,0.25436136280173527,0.2543613628017352,1.6703610594432001
0,0.5550458199261701,-0.4306514162286805,-0.43065141622868053,-0.2577084617107265
1,1.296207866885007,1.4531337261049626,1.4531337261049628,1.4242245248278051
0,-0.6802242583385582,-0.6019046109862844,-0.6019046109862844,0.48070114213545817
0,0.18446479644675162,-0.6019046109862844,-0.6019046109862844,-0.3807767290184239
0,0.18446479644675162,-0.4306514162286805,-0.43065141622868053,0.11149634021236585
0,0.8020998355791158,-0.25939822147107655,-0.2593982214710766,-0.05259468286456407
0,1.41973487471148,0.25436136280173527,0.2543613628017352,0.15251909598159832
0,0.4315188120996973,0.25436136280173527,0.2543613628017352,1.7113838152124325
0,0.8020998355791158,0.08310816804413133,0.08310816804413128,0.6447921652123881
0,0.5550458199261701,-0.4306514162286805,-0.43065141622868053,-0.05259468286456407
0,0.5550458199261701,-0.7731578057438884,-0.7731578057438884,-0.8320270424799813
0,0.5550458199261701,-0.7731578057438884,-0.7731578057438884,-0.8320270424799813
0,0.5550458199261701,-0.7731578057438884,-0.7731578057438884,-0.8320270424799813
0,0.5550458199261701,-0.7731578057438884,-0.7731578057438884,-0.8320270424799813
0,0.5550458199261701,-0.7731578057438884,-0.7731578057438884,-0.8320270424799813
0,0.5550458199261701,-0.7731578057438884,-0.7731578057438884,-0.8320270424799813
1,0.9256268434055887,0.25436136280173527,0.2543613628017352,0.972974211366248
0,0.5550458199261701,-0.4306514162286805,-0.43065141622868053,0.029450828673900892
0,0.5550458199261701,-0.4306514162286805,-0.43065141622868053,0.029450828673900892
0,0.8020998355791158,0.25436136280173527,0.2543613628017352,1.2191107459816428
0,1.41973487471148,-0.6019046109862844,-0.6019046109862844,-0.5448677520953539
0,0.8020998355791158,-0.4306514162286805,-0.43065141622868053,0.029450828673900892
0,0.8020998355791158,-0.7731578057438884,-0.7731578057438884,-0.7499815309415162
0,0.8020998355791158,-0.7731578057438884,-0.7731578057438884,-0.7499815309415162
0,0.8020998355791158,-0.7731578057438884,-0.7731578057438884,-0.7499815309415162
0,0.8020998355791158,-0.7731578057438884,-0.7731578057438884,-0.7499815309415162
0,0.8020998355791158,-0.7731578057438884,-0.7731578057438884,-0.7499815309415162
0,0.5550458199261701,-0.6019046109862844,-0.6019046109862844,-0.216685705941494
0,0.18446479644675162,-0.25939822147107655,-0.2593982214710766,1.6293383036739677
1,0.18446479644675162,-0.6019046109862844,-0.6019046109862844,0.15251909598159832
0,1.41973487471148,0.08310816804413133,0.08310816804413128,0.5627466536739232
0,1.6667888903644257,-0.6019046109862844,-0.6019046109862844,-0.46282224055688886
0,1.6667888903644257,0.08310816804413133,0.08310816804413128,0.4396783863662257
1,0.5550458199261701,-0.6019046109862844,-0.6019046109862844,0.029450828673900892
0,0.8020998355791158,0.08310816804413133,0.08310816804413128,1.916497594058595
0,0.8020998355791158,-0.25939822147107655,-0.2593982214710766,0.972974211366248
0,0.8020998355791158,-0.0881450267134726,-0.08814502671347266,1.5062700363662702
0,1.41973487471148,-0.6019046109862844,-0.6019046109862844,-0.33975397324919143
0,1.41973487471148,-0.4306514162286805,-0.43065141622868053,0.029450828673900892
0,1.41973487471148,-0.4306514162286805,-0.43065141622868053,0.029450828673900892
0,1.6667888903644257,0.4256145575593392,0.42561455755933914,1.4242245248278051
0,1.41973487471148,-0.4306514162286805,-0.43065141622868053,0.15251909598159832
0,1.6667888903644257,-0.4306514162286805,-0.43065141622868053,0.029450828673900892
0,1.41973487471148,-0.4306514162286805,-0.43065141622868053,0.2345646075200633
0,1.6667888903644257,-0.6019046109862844,-0.6019046109862844,-0.2577084617107265
0,1.41973487471148,-0.7731578057438884,-0.7731578057438884,-0.5448677520953539
0,1.41973487471148,-0.7731578057438884,-0.7731578057438884,-0.5448677520953539
0,1.9138429060173712,0.08310816804413133,0.08310816804413128,0.6447921652123881
0,1.41973487471148,-0.7731578057438884,-0.7731578057438884,-0.5448677520953539
0,1.41973487471148,-0.7731578057438884,-0.7731578057438884,-0.5448677520953539
0,1.6667888903644257,-0.4306514162286805,-0.43065141622868053,0.19354185175083083
0,1.41973487471148,-0.6019046109862844,-0.6019046109862844,-0.05259468286456407
0,0.5550458199261701,-0.4306514162286805,-0.43065141622868053,1.83445208252013
1,1.6667888903644257,-0.7731578057438884,-0.7731578057438884,-0.46282224055688886
0,1.6667888903644257,-0.7731578057438884,-0.7731578057438884,-0.46282224055688886
0,1.6667888903644257,-0.7731578057438884,-0.7731578057438884,-0.46282224055688886
0,1.6667888903644257,-0.7731578057438884,-0.7731578057438884,-0.46282224055688886
0,1.6667888903644257,-0.7731578057438884,-0.7731578057438884,-0.46282224055688886
0,1.6667888903644257,-0.7731578057438884,-0.7731578057438884,-0.46282224055688886
0,1.6667888903644257,-0.7731578057438884,-0.7731578057438884,-0.46282224055688886
0,1.6667888903644257,-0.25939822147107655,-0.2593982214710766,0.7268376767508531
0,1.6667888903644257,-0.7731578057438884,-0.7731578057438884,-0.46282224055688886
0,1.6667888903644257,0.25436136280173527,0.2543613628017352,2.2036568844432223
0,0.8020998355791158,-0.4306514162286805,-0.43065141622868053,2.1216113729047574
0,1.6667888903644257,-0.6019046109862844,-0.6019046109862844,0.15251909598159832
0,1.41973487471148,-0.6019046109862844,-0.6019046109862844,0.7268376767508531
0,1.6667888903644257,-0.4306514162286805,-0.43065141622868053,1.137065234443178
0,3.6432210155879905,-0.7731578057438884,-0.7731578057438884,0.19354185175083083
0,7.719612273861594,-0.7731578057438884,-0.7731578057438884,1.5472927921355026
